<svg width="50" height="50" viewBox="0 0 50 50" fill="none" xmlns="http://www.w3.org/2000/svg">
<circle cx="25" cy="25" r="25" fill="#242424"/>
<path d="M18 25.9997H29.86L26.23 30.3597C26.0603 30.5639 25.9786 30.8272 26.003 31.0916C26.0274 31.3561 26.1558 31.6 26.36 31.7697C26.5642 31.9395 26.8275 32.0211 27.0919 31.9967C27.3563 31.9724 27.6003 31.8439 27.77 31.6397L32.77 25.6397C32.8036 25.592 32.8337 25.5419 32.86 25.4897C32.86 25.4397 32.86 25.4097 32.93 25.3597C32.9753 25.2451 32.9991 25.123 33 24.9997C32.9991 24.8764 32.9753 24.7544 32.93 24.6397C32.93 24.5897 32.93 24.5597 32.86 24.5097C32.8337 24.4576 32.8036 24.4074 32.77 24.3597L27.77 18.3597C27.676 18.2468 27.5582 18.1561 27.4252 18.0938C27.2921 18.0316 27.1469 17.9995 27 17.9997C26.7663 17.9993 26.5399 18.0806 26.36 18.2297C26.2587 18.3137 26.175 18.4168 26.1137 18.5331C26.0523 18.6495 26.0145 18.7768 26.0025 18.9078C25.9904 19.0387 26.0043 19.1708 26.0433 19.2964C26.0824 19.422 26.1458 19.5387 26.23 19.6397L29.86 23.9997H18C17.7348 23.9997 17.4804 24.1051 17.2929 24.2926C17.1054 24.4802 17 24.7345 17 24.9997C17 25.2649 17.1054 25.5193 17.2929 25.7068C17.4804 25.8944 17.7348 25.9997 18 25.9997Z" fill="white"/>
</svg>
