<svg width="528" height="533" viewBox="0 0 528 533" fill="none" xmlns="http://www.w3.org/2000/svg">
<rect x="473.608" y="304" width="31.707" height="33.6133" rx="15.8535" transform="rotate(22.0298 473.608 304)" fill="#F8F8F8"/>
<rect x="490.694" y="348" width="16.8341" height="17.8462" rx="8.41706" transform="rotate(22.0298 490.694 348)" fill="#F8F8F8"/>
<rect x="500.682" y="380" width="9.25972" height="9.81644" rx="4.62986" transform="rotate(22.0298 500.682 380)" fill="#F8F8F8"/>
<rect x="154.545" width="401.883" height="412.023" rx="120" transform="rotate(22.0298 154.545 0)" fill="#F8F8F8"/>
<path d="M115.117 424.988C191.272 459.652 314.731 459.652 390.887 424.988C467.042 390.323 467.033 334.051 390.887 299.368C314.74 264.686 191.272 264.704 115.117 299.368C38.9611 334.033 38.9611 390.323 115.117 424.988Z" fill="#F5F5F5"/>
<path d="M384.78 377.781C409.87 377.781 430.209 368.087 430.209 356.129C430.209 344.17 409.87 334.477 384.78 334.477C359.691 334.477 339.352 344.17 339.352 356.129C339.352 368.087 359.691 377.781 384.78 377.781Z" fill="#E0E0E0"/>
<path d="M118.547 389.078C143.637 389.078 163.976 379.384 163.976 367.425C163.976 355.467 143.637 345.773 118.547 345.773C93.4579 345.773 73.1189 355.467 73.1189 367.425C73.1189 379.384 93.4579 389.078 118.547 389.078Z" fill="#E0E0E0"/>
<path d="M91.5533 362.84H99.8817V348.583H91.5533V362.84Z" fill="#B16668"/>
<path d="M125.605 352.049L133.933 352.334L134.351 337.25L125.605 336.966V352.049Z" fill="#B16668"/>
<path d="M94.0418 247.487C94.0418 255.433 94.4596 301.51 94.4596 301.51C94.264 303.794 92.0686 307.865 91.8908 316.105C91.642 328.051 91.1975 355.72 91.1975 355.72C92.6361 356.425 94.2115 356.806 95.8131 356.837C97.4147 356.868 99.0036 356.547 100.468 355.898C100.468 355.898 109.294 316.549 110.787 304.746C112.085 294.417 114.343 266.375 114.343 266.375L120.707 301.27C119.729 305.609 119.367 310.065 119.631 314.505C120.022 319.971 125.089 347.392 125.089 347.392C126.54 348.211 128.154 348.702 129.815 348.829C131.477 348.957 133.147 348.718 134.706 348.13C134.706 348.13 135.204 305.11 135.293 300.132C135.408 294.408 132.911 245.176 132.911 245.176L94.0418 247.487Z" fill="#37474F"/>
<path d="M99.8814 358.733V357.542C100.326 357.542 100.601 357.978 100.77 359.044C100.888 359.837 101.049 360.624 101.25 361.4C101.623 362.858 102.111 364.285 102.708 365.666C103.881 368.564 104.868 369.648 107.57 373.035C108.491 373.974 109.355 374.969 110.156 376.012C110.654 376.901 110.832 379.399 109.979 379.968C106.832 382.065 102.059 382.127 98.6815 381.132C97.4229 380.782 96.2918 380.077 95.4232 379.102C94.5547 378.126 93.9856 376.921 93.784 375.63C93.6596 374.857 93.704 374.075 93.6151 373.301C93.3229 371.545 92.6092 369.886 91.5353 368.466C90.905 367.639 90.3684 366.745 89.9354 365.8C89.2332 364.084 89.7932 362.164 90.2376 360.467C90.6287 358.991 91.0464 357.373 91.5442 357.516V358.404C92.7324 359.335 94.2036 359.831 95.7128 359.809C96.9394 359.907 99.8903 359.658 99.8814 358.733Z" fill="#263238"/>
<path d="M134.022 349.765C134.449 349.765 134.804 350.396 135.8 351.427C137.225 352.874 138.88 354.075 140.697 354.982C143.817 356.546 149.879 358.946 152.617 360.182C154.332 360.955 154.252 363.026 152.483 364.199C150.715 365.372 146.43 366.226 141.302 365.088C138.502 364.466 134.858 361.879 132.556 362.022C130.254 362.164 125.934 362.128 124.236 360.955C122.538 359.782 123.214 357.275 123.694 355.124C124.218 352.769 124.876 349.107 125.649 349.267V350.076C126.654 351.596 131.818 352.209 134.022 351.098V349.765Z" fill="#263238"/>
<path d="M114.299 266.374C118.589 265.026 122.532 262.757 125.853 259.726C125.853 259.726 123.614 263.912 116.965 267.814L120.183 298.852L114.299 266.374Z" fill="#263238"/>
<path d="M127.533 228.465C122.094 210.351 123.169 195.009 122.147 190.316L136.093 209.791C136.683 216.209 137.636 222.59 138.946 228.901C140.555 235.825 142.75 244.455 145.381 249.824C145.859 250.77 146.664 251.509 147.648 251.904C150.314 252.979 151.505 254.339 153.612 255.895C155.265 257.121 156.518 257.281 156.421 257.779C156.238 258.339 155.851 258.81 155.338 259.098C154.824 259.386 154.22 259.471 153.647 259.335C152.376 259.068 151.14 258.65 149.968 258.09C151.15 260.097 152.651 261.898 154.412 263.423C158.447 266.934 159.025 269.414 152.323 270.632C148.119 271.405 144.323 269.387 139.533 260.659C137.718 257.482 136.135 254.179 134.795 250.775C131.595 241.887 129.178 233.949 127.533 228.465Z" fill="#B16668"/>
<path d="M121.018 185.811C125.347 186.575 129.631 187.588 132.289 191.748C134.946 195.908 138.786 215.542 138.786 215.542C138.786 215.542 133.204 219.462 126.804 219.293L121.018 185.811Z" fill="#2DA6FE"/>
<path opacity="0.1" d="M121.018 185.811C125.347 186.575 129.631 187.588 132.289 191.748C134.946 195.908 138.786 215.542 138.786 215.542C138.786 215.542 133.204 219.462 126.804 219.293L121.018 185.811Z" fill="black"/>
<path d="M91.189 193.107C88.2825 195.178 72.9501 229.807 72.3634 232.216C71.5724 235.496 71.9368 239.167 73.5456 240.358C75.1544 241.549 78.7008 239.842 80.5585 238.029C84.1138 234.474 96.5575 208.573 96.5575 208.573L91.189 193.107Z" fill="#9A4A4D"/>
<path d="M106.433 185.89C99.3219 187.596 90.4335 190.45 87.2604 196.956C84.0872 203.462 79.2608 214.03 79.2608 214.03C82.5497 217.239 86.5613 219.611 90.9579 220.945L94.5133 214.724L93.9888 247.611C99.7218 251.788 120.778 254.063 132.849 245.246C132.849 245.246 131.373 205.817 131.373 199.676C131.373 193.534 127.96 186.165 118.547 185.614L106.433 185.89Z" fill="#2DA6FE"/>
<path opacity="0.1" d="M94.5665 214.644C94.5665 214.644 98.1218 208.502 98.8773 207.018L94.4332 222.128L94.5665 214.644Z" fill="black"/>
<path d="M119.907 169.926C126.225 169.926 131.347 164.805 131.347 158.487C131.347 152.169 126.225 147.048 119.907 147.048C113.59 147.048 108.468 152.169 108.468 158.487C108.468 164.805 113.59 169.926 119.907 169.926Z" fill="#263238"/>
<path d="M100.122 166.62C100.122 166.62 101.979 175.331 102.726 176.762C103.219 177.645 104.034 178.304 105.002 178.602L104.877 172.478L100.122 166.62Z" fill="#263238"/>
<path d="M102.45 154.141C101.801 154.067 101.144 154.141 100.528 154.358C99.9124 154.576 99.3539 154.93 98.8949 155.394C97.375 156.95 98.2283 161.838 100.122 166.62L103.615 167.02L102.45 154.141Z" fill="#263238"/>
<path d="M104.664 167.03C103.962 167.447 102.966 166.096 102.104 165.199C101.242 164.301 98.4152 163.056 97.0108 166.016C95.6065 168.976 98.2552 173.029 100.477 173.731C104.299 174.931 104.921 172.478 104.921 172.478L105.197 186.699C109.952 192.797 123.151 192.281 117.641 185.917V181.713C119.344 181.989 121.073 182.079 122.796 181.98C125.614 181.544 127.382 179.313 128.236 176.282C129.604 171.394 130.129 167.394 128.964 157.821C127.693 147.28 115.427 147.155 108.806 151.342C102.184 155.528 104.664 167.03 104.664 167.03Z" fill="#B16668"/>
<path d="M104.664 168.203C104.308 168.203 102.975 165.989 102.104 165.198C100.895 164.096 102.451 154.141 102.451 154.141C102.042 153.271 101.902 152.297 102.051 151.347C102.2 150.396 102.63 149.512 103.286 148.808C104.939 146.986 107.25 144.755 114.752 145.644C120.085 146.284 125.934 147.946 130.645 145.644C131.082 147.18 131.051 148.811 130.553 150.329C130.056 151.847 129.116 153.18 127.854 154.159C127.854 154.159 126.147 155.252 121.632 155.803C117.486 156.114 113.319 156.034 109.188 155.563C107.89 155.386 107.615 156.648 106.913 160.088C106.362 163.065 105.846 168.185 104.664 168.203Z" fill="#263238"/>
<path d="M102.459 154.914L98.2281 152.639C98.364 152.355 98.5559 152.101 98.7921 151.893C99.0283 151.686 99.3041 151.527 99.6029 151.429C99.9017 151.33 100.217 151.292 100.531 151.319C100.845 151.345 101.15 151.434 101.428 151.581C101.996 151.897 102.42 152.42 102.612 153.041C102.804 153.662 102.749 154.333 102.459 154.914Z" fill="#263238"/>
<path d="M117.596 181.703C117.596 181.703 111.321 180.441 109.125 179.277C107.834 178.603 106.774 177.556 106.085 176.272C106.417 177.561 107.003 178.77 107.81 179.828C109.419 181.881 117.587 183.383 117.587 183.383L117.596 181.703Z" fill="#9A4A4D"/>
<path d="M116.076 165.447C116.081 165.788 115.951 166.116 115.715 166.361C115.478 166.605 115.154 166.747 114.814 166.754C114.478 166.74 114.16 166.596 113.928 166.352C113.696 166.108 113.567 165.784 113.57 165.447C113.565 165.107 113.695 164.779 113.931 164.534C114.168 164.289 114.492 164.148 114.832 164.141C115.168 164.154 115.486 164.298 115.718 164.542C115.951 164.786 116.079 165.111 116.076 165.447Z" fill="#263238"/>
<path d="M114.752 160.701L112.085 162.194C111.892 161.824 111.848 161.394 111.964 160.993C112.08 160.592 112.346 160.252 112.707 160.043C112.884 159.948 113.078 159.89 113.278 159.872C113.477 159.854 113.678 159.877 113.869 159.938C114.06 159.999 114.236 160.098 114.388 160.229C114.54 160.36 114.663 160.521 114.752 160.701Z" fill="#263238"/>
<path d="M117.028 174.148L119.907 175.224C119.846 175.418 119.745 175.597 119.612 175.75C119.479 175.904 119.316 176.029 119.133 176.118C118.95 176.207 118.752 176.258 118.548 176.268C118.345 176.278 118.142 176.246 117.952 176.175C117.565 176.024 117.252 175.727 117.079 175.349C116.907 174.971 116.888 174.54 117.028 174.148Z" fill="#9A4A4D"/>
<path d="M127.311 161.75L124.858 159.865C124.972 159.698 125.119 159.556 125.29 159.448C125.462 159.34 125.653 159.268 125.853 159.237C126.053 159.206 126.258 159.217 126.453 159.268C126.649 159.32 126.832 159.411 126.991 159.536C127.318 159.794 127.532 160.168 127.592 160.579C127.651 160.991 127.551 161.41 127.311 161.75Z" fill="#263238"/>
<path d="M126.556 165.101C126.545 165.348 126.463 165.586 126.318 165.787C126.173 165.987 125.972 166.141 125.741 166.228C125.51 166.315 125.258 166.333 125.016 166.278C124.775 166.224 124.555 166.1 124.384 165.921C124.213 165.743 124.098 165.518 124.053 165.275C124.009 165.031 124.037 164.78 124.134 164.553C124.23 164.325 124.392 164.131 124.598 163.995C124.805 163.858 125.046 163.785 125.294 163.785C125.463 163.789 125.63 163.825 125.785 163.893C125.94 163.961 126.08 164.059 126.197 164.181C126.314 164.304 126.406 164.448 126.468 164.605C126.53 164.763 126.559 164.931 126.556 165.101Z" fill="#263238"/>
<path d="M120.147 163.9L120.556 171.473L124.511 170.122L120.147 163.9Z" fill="#9A4A4D"/>
<path d="M86.6466 253.327C86.5287 253.327 86.4157 253.28 86.3323 253.196C86.249 253.113 86.2022 253 86.2022 252.882V113.086C86.2022 112.968 86.249 112.855 86.3323 112.772C86.4157 112.688 86.5287 112.642 86.6466 112.642C86.7644 112.642 86.8775 112.688 86.9608 112.772C87.0442 112.855 87.091 112.968 87.091 113.086V252.882C87.091 253 87.0442 253.113 86.9608 253.196C86.8775 253.28 86.7644 253.327 86.6466 253.327Z" fill="#37474F"/>
<path d="M90.0246 125.254C90.0246 123.823 87.0648 119.921 86.4693 119.921C85.8738 119.921 83.2339 123.752 83.2339 125.254C83.2609 125.552 83.3665 125.837 83.5398 126.081C83.7132 126.324 83.9481 126.517 84.2205 126.64C84.9596 127.017 85.7774 127.214 86.6071 127.214C87.4367 127.214 88.2545 127.017 88.9936 126.64C89.2677 126.519 89.5044 126.326 89.6794 126.082C89.8544 125.839 89.9613 125.553 89.9891 125.254H90.0246Z" fill="#2DA6FE"/>
<path opacity="0.1" d="M90.0246 125.254C90.0246 123.823 87.0648 119.921 86.4693 119.921C85.8738 119.921 83.2339 123.752 83.2339 125.254C83.2609 125.552 83.3665 125.837 83.5398 126.081C83.7132 126.324 83.9481 126.517 84.2205 126.64C84.9596 127.017 85.7774 127.214 86.6071 127.214C87.4367 127.214 88.2545 127.017 88.9936 126.64C89.2677 126.519 89.5044 126.326 89.6794 126.082C89.8544 125.839 89.9613 125.553 89.9891 125.254H90.0246Z" fill="black"/>
<path d="M106.299 94.2334C106.299 105.166 97.7132 118.979 86.4961 121.592C75.1901 118.436 66.7017 105.166 66.7017 94.2334C66.7017 83.3007 73.7413 73.0791 86.505 73.0791C99.2686 73.0791 106.299 83.2918 106.299 94.2334Z" fill="#2DA6FE"/>
<path opacity="0.05" d="M67.4303 88.2334C66.9405 90.1955 66.6957 92.2107 66.7015 94.233C66.7015 105.166 75.2165 118.436 86.5048 121.591C95.8286 119.414 103.33 109.503 105.597 99.9394C105.597 99.9394 102.646 110.437 89.6601 111.281C76.6742 112.125 66.1949 97.2817 67.4303 88.2334Z" fill="black"/>
<path d="M73.9897 240.571C71.6254 239.895 69.1989 232.82 69.3766 228.287C69.5544 223.754 75.6518 204.146 76.4873 200.378C77.4384 196.218 77.3761 193.054 78.2205 190.894C79.4649 187.703 83.5536 185.952 83.5536 185.952C83.5536 185.952 88.8866 183.401 90.8065 183.019C92.7263 182.637 93.473 183.908 93.2596 184.912C93.0463 185.916 92.3708 188.467 92.193 189.854C92.0664 191.629 91.5472 193.353 90.6731 194.903C89.6687 196.511 85.5712 200.36 85.4112 202.502C85.2512 204.644 84.0691 216.27 83.3936 224.723C82.8336 231.638 82.1403 234.5 80.6382 236.331C79.136 238.162 75.8296 241.086 73.9897 240.571Z" fill="#B16668"/>
<path d="M407.677 340.583H399.233V355.035H407.677V340.583Z" fill="#FFA8A7"/>
<path d="M378.408 339.819L369.973 340.104L369.555 324.816L378.408 324.522V339.819Z" fill="#FFA8A7"/>
<path d="M404.949 233.043C404.949 241.105 406.211 289.52 406.211 289.52C406.406 291.839 408.637 295.964 408.815 304.319C409.064 316.434 408.015 347.809 408.015 347.809C406.558 348.524 404.961 348.912 403.338 348.944C401.715 348.976 400.105 348.653 398.62 347.996C398.62 347.996 391.172 304.79 389.661 292.799C388.345 282.338 386.105 253.904 386.105 253.904L381.545 288.106C382.522 292.506 382.875 297.021 382.594 301.519C382.194 307.065 378.95 335.117 378.95 335.117C377.474 335.949 375.833 336.447 374.144 336.574C372.454 336.702 370.757 336.456 369.173 335.855C369.173 335.855 364.906 293.19 364.809 288.106C364.702 282.302 367.617 223.079 367.617 223.079L404.949 233.043Z" fill="#2DA6FE"/>
<path d="M371.866 216.395C377.305 198.272 376.23 182.93 377.252 178.237L363.306 197.712C362.716 204.133 361.763 210.516 360.453 216.831C358.844 223.755 356.649 232.385 354.018 237.754C353.54 238.697 352.734 239.434 351.751 239.825C349.085 240.9 347.894 242.26 345.787 243.824C344.134 245.042 342.881 245.202 342.979 245.7C343.168 246.253 343.558 246.716 344.071 246.997C344.584 247.278 345.183 247.358 345.752 247.22C347.023 246.952 348.259 246.534 349.432 245.975C348.247 247.981 346.747 249.782 344.987 251.308C340.952 254.811 340.374 257.29 347.076 258.508C351.28 259.281 355.076 257.264 359.867 248.535C361.69 245.353 363.282 242.044 364.631 238.634C367.804 229.763 370.221 221.87 371.866 216.395Z" fill="#FFA8A7"/>
<path d="M378.372 173.731C374.043 174.496 369.768 175.509 367.11 179.669C364.453 183.829 360.613 203.463 360.613 203.463C360.613 203.463 366.195 207.383 372.594 207.214L378.372 173.731Z" fill="#E0E0E0"/>
<path d="M408.201 181.037C411.108 183.099 426.44 217.728 427.027 220.146C427.809 223.426 427.454 227.105 425.845 228.288C424.236 229.47 420.69 227.772 418.832 225.959C415.277 222.404 402.788 196.512 402.788 196.512L408.201 181.037Z" fill="#F28F8F"/>
<path d="M393.109 173.722C400.175 175.429 409.108 178.282 412.273 184.788C415.437 191.295 420.272 201.854 420.272 201.854C416.981 205.064 412.966 207.436 408.566 208.769L405.011 202.547L405.535 235.39C399.802 239.567 378.746 241.834 366.675 233.026C366.675 233.026 368.16 193.588 368.16 187.455C368.16 181.322 371.564 173.945 380.986 173.394L393.109 173.722Z" fill="#F0F0F0"/>
<path d="M404.948 202.521C404.948 202.521 401.393 196.37 400.638 194.895L405.082 210.005L404.948 202.521Z" fill="#E0E0E0"/>
<path d="M399.233 350.867V349.658C398.424 350.014 396.567 357.169 393.198 360.226C390.531 362.653 386.905 365.462 385.981 368.164C385.056 370.866 391.038 372.537 393.527 372.092C396.416 371.586 401.429 369.55 402.682 367.648C403.935 365.746 404.531 362.982 405.553 361.604C406.575 360.226 408.93 358.671 409.481 357.071C409.784 356.182 409.428 354.271 409.001 352.627C408.575 350.982 408.184 349.489 407.677 349.631V350.52C406.473 351.463 404.984 351.964 403.455 351.942C402.22 352.102 399.224 351.809 399.233 350.867Z" fill="#263238"/>
<path d="M369.884 337.499C369.448 337.499 369.093 338.139 368.106 339.179C366.665 340.635 364.988 341.837 363.147 342.734C359.982 344.317 353.841 346.752 351.058 348.005C349.281 348.787 349.405 350.885 351.201 352.076C352.996 353.267 357.325 354.138 362.533 352.965C365.369 352.325 369.066 349.712 371.422 349.845C373.777 349.978 378.132 349.961 379.857 348.77C381.581 347.579 380.897 345.037 380.408 342.859C379.875 340.477 379.208 336.761 378.417 336.93V337.748C377.404 339.286 372.195 339.908 369.937 338.779L369.884 337.499Z" fill="#263238"/>
<path opacity="0.1" d="M386.123 253.904C381.759 252.543 377.745 250.243 374.363 247.167C374.363 247.167 376.639 251.416 383.376 255.362L381.936 285.147L386.123 253.904Z" fill="black"/>
<path d="M395.758 142.337C396.391 142.262 397.034 142.332 397.636 142.543C398.239 142.754 398.785 143.1 399.233 143.555C400.726 145.083 400.415 147.91 399.233 154.398L394.62 154.932L395.758 142.337Z" fill="#263238"/>
<path d="M368.871 140.435C367.878 140.44 366.894 140.24 365.982 139.848C364.569 139.031 364.204 140.639 364.969 142.035C365.48 143.033 366.239 143.884 367.173 144.506C368.106 145.128 369.183 145.502 370.302 145.59C370.302 145.395 371.626 142.035 371.626 142.035L368.871 140.435Z" fill="#263238"/>
<path d="M393.598 154.905C394.282 155.314 395.26 154.016 396.104 153.128C396.949 152.239 399.704 151.03 401.073 153.928C402.442 156.825 399.295 160.807 397.429 162.105C395.206 163.651 393.598 162.443 393.598 162.443L393.109 173.731C393.109 173.731 390.656 179.722 384.025 180.619C377.394 181.517 378.763 176.06 380.941 173.375V169.269C380.941 169.269 377.519 169.944 375.901 169.527C374.728 169.157 373.665 168.502 372.808 167.621C371.95 166.74 371.324 165.66 370.986 164.478C369.163 158.456 368.782 152.089 369.875 145.892C371.563 135.644 383.118 135.475 389.589 139.546C396.06 143.617 393.598 154.905 393.598 154.905Z" fill="#FFA8A7"/>
<path d="M393.598 156.061C393.936 156.061 395.251 153.893 396.104 153.119C397.287 152.044 395.758 142.311 395.758 142.311C395.758 142.311 396.958 138.622 394.62 136.169C392.282 133.716 387.758 134.134 384.452 134.018C380.39 134.045 376.367 133.237 372.63 131.645C367.937 129.601 367.582 129.361 366.995 131.423C366.408 133.485 366.195 138.214 369.004 141.378L371.333 142.267C371.333 142.267 372.595 143.378 376.977 143.911C381.019 144.217 385.081 144.14 389.109 143.68C390.38 143.511 390.656 144.738 391.34 148.124C391.936 151.031 392.433 156.035 393.598 156.061Z" fill="#263238"/>
<path d="M395.749 143.066L399.891 140.844C399.759 140.566 399.572 140.317 399.341 140.113C399.11 139.909 398.841 139.754 398.548 139.657C398.256 139.56 397.947 139.522 397.64 139.548C397.333 139.573 397.035 139.66 396.762 139.804C396.206 140.112 395.79 140.624 395.601 141.232C395.413 141.839 395.465 142.496 395.749 143.066Z" fill="#263238"/>
<path d="M380.95 169.261C380.95 169.261 387.092 168.025 389.234 166.887C390.498 166.23 391.534 165.204 392.202 163.945C391.879 165.203 391.304 166.382 390.514 167.412C388.949 169.421 380.95 170.896 380.95 170.896V169.261Z" fill="#F28F8F"/>
<path d="M382.416 153.164C382.425 153.406 382.505 153.64 382.646 153.838C382.787 154.035 382.982 154.186 383.209 154.273C383.435 154.36 383.682 154.378 383.919 154.325C384.155 154.273 384.371 154.152 384.54 153.977C384.708 153.803 384.821 153.583 384.866 153.344C384.91 153.106 384.883 152.86 384.788 152.637C384.694 152.414 384.535 152.223 384.333 152.089C384.131 151.955 383.894 151.884 383.652 151.884C383.486 151.886 383.323 151.921 383.171 151.987C383.02 152.052 382.882 152.148 382.767 152.267C382.653 152.386 382.562 152.526 382.502 152.68C382.442 152.834 382.413 152.998 382.416 153.164Z" fill="#263238"/>
<path d="M383.945 148.071L386.611 149.528C386.801 149.168 386.843 148.747 386.728 148.356C386.614 147.964 386.352 147.633 385.998 147.431C385.823 147.33 385.629 147.267 385.428 147.245C385.228 147.223 385.025 147.243 384.832 147.303C384.639 147.363 384.461 147.462 384.308 147.594C384.156 147.726 384.032 147.889 383.945 148.071Z" fill="#263238"/>
<path d="M382.514 161.714L379.705 162.78C379.766 162.969 379.865 163.144 379.995 163.294C380.125 163.444 380.284 163.567 380.462 163.654C380.641 163.741 380.835 163.791 381.033 163.801C381.231 163.812 381.43 163.782 381.616 163.714C381.998 163.565 382.306 163.271 382.474 162.897C382.642 162.523 382.656 162.098 382.514 161.714Z" fill="#F28F8F"/>
<path d="M370.88 149.831L373.279 147.982C373.167 147.817 373.021 147.677 372.851 147.57C372.682 147.464 372.492 147.394 372.294 147.365C372.096 147.336 371.895 147.348 371.702 147.401C371.509 147.453 371.329 147.545 371.173 147.671C370.858 147.926 370.653 148.291 370.598 148.693C370.544 149.094 370.644 149.501 370.88 149.831Z" fill="#263238"/>
<path d="M372.257 152.817C372.266 153.06 372.346 153.294 372.487 153.492C372.628 153.689 372.825 153.841 373.052 153.927C373.279 154.014 373.526 154.031 373.763 153.978C374 153.925 374.216 153.803 374.384 153.627C374.552 153.452 374.664 153.231 374.707 152.992C374.751 152.753 374.722 152.507 374.626 152.284C374.53 152.061 374.371 151.871 374.167 151.738C373.964 151.606 373.726 151.536 373.484 151.537C373.152 151.546 372.837 151.686 372.608 151.925C372.378 152.165 372.252 152.485 372.257 152.817Z" fill="#263238"/>
<path d="M378.986 151.856L378.577 159.252L374.719 157.936L378.986 151.856Z" fill="#F28F8F"/>
<path d="M412.752 241.247C412.634 241.247 412.521 241.201 412.438 241.117C412.355 241.034 412.308 240.921 412.308 240.803V101.007C412.308 100.889 412.355 100.776 412.438 100.693C412.521 100.609 412.634 100.562 412.752 100.562C412.87 100.562 412.983 100.609 413.066 100.693C413.15 100.776 413.197 100.889 413.197 101.007V240.803C413.197 240.921 413.15 241.034 413.066 241.117C412.983 241.201 412.87 241.247 412.752 241.247Z" fill="#37474F"/>
<path d="M409.393 113.175C409.393 111.753 412.353 107.842 412.948 107.842C413.544 107.842 416.183 111.673 416.183 113.175C416.157 113.473 416.052 113.759 415.879 114.002C415.705 114.246 415.47 114.439 415.197 114.561C414.458 114.938 413.64 115.135 412.81 115.135C411.981 115.135 411.163 114.938 410.424 114.561C410.142 114.446 409.897 114.256 409.715 114.012C409.533 113.767 409.422 113.478 409.393 113.175Z" fill="#2DA6FE"/>
<path opacity="0.1" d="M409.393 113.175C409.393 111.753 412.353 107.842 412.948 107.842C413.544 107.842 416.183 111.673 416.183 113.175C416.157 113.473 416.052 113.759 415.879 114.002C415.705 114.246 415.47 114.439 415.197 114.561C414.458 114.938 413.64 115.135 412.81 115.135C411.981 115.135 411.163 114.938 410.424 114.561C410.142 114.446 409.897 114.256 409.715 114.012C409.533 113.767 409.422 113.478 409.393 113.175Z" fill="black"/>
<path d="M393.091 82.1543C393.091 93.087 401.669 106.899 412.895 109.513C424.183 106.357 432.698 93.087 432.698 82.1543C432.698 71.2216 425.658 61 412.895 61C400.131 61 393.091 71.2305 393.091 82.1543Z" fill="#2DA6FE"/>
<path opacity="0.05" d="M431.845 87.8696C431.845 87.8696 428.947 98.3578 415.908 99.2022C403.393 100.011 393.216 86.2696 393.598 77.168C393.259 78.8084 393.089 80.4793 393.091 82.1543C393.091 93.087 401.669 106.9 412.895 109.513C422.254 106.9 429.694 97.3357 431.978 87.914L431.845 87.8696Z" fill="black"/>
<path d="M425.391 228.492C427.756 227.816 430.182 220.75 430.004 216.208C429.827 211.666 423.729 192.076 422.894 188.299C421.943 184.139 422.005 180.975 421.16 178.815C419.916 175.633 415.827 173.882 415.827 173.882C415.827 173.882 410.494 171.322 408.575 170.94C406.655 170.557 405.908 171.829 406.121 172.833C406.335 173.837 407.01 176.388 407.188 177.775C407.313 179.55 407.833 181.274 408.708 182.823C409.712 184.432 413.81 188.281 413.97 190.423C414.13 192.565 415.312 204.2 415.987 212.644C416.547 219.559 417.241 222.421 418.743 224.252C420.245 226.083 423.614 229.016 425.391 228.492Z" fill="#FFA8A7"/>
<path d="M195.867 358.298C220.957 358.298 241.296 348.604 241.296 336.646C241.296 324.688 220.957 314.994 195.867 314.994C170.778 314.994 150.439 324.688 150.439 336.646C150.439 348.604 170.778 358.298 195.867 358.298Z" fill="#E0E0E0"/>
<path d="M292.395 364.884C317.485 364.884 337.824 355.19 337.824 343.232C337.824 331.274 317.485 321.58 292.395 321.58C267.306 321.58 246.967 331.274 246.967 343.232C246.967 355.19 267.306 364.884 292.395 364.884Z" fill="#E0E0E0"/>
<path d="M207.298 158.07C209.653 157.732 211.644 158.07 215.76 163.687C219.439 168.718 226.772 177.162 226.772 177.162C226.772 177.162 233.403 159.785 233.208 157.448C233.012 155.11 231.545 153.67 230.585 149.368C229.626 145.066 229.35 144.248 228.63 142.995C227.91 141.742 230.408 141.44 231.412 142.995C232.416 144.551 232.541 146.746 233.243 146.355C233.945 145.964 234.425 141.235 233.83 137.84C233.234 134.445 234.781 133.68 235.483 134.765C235.89 135.371 236.177 136.05 236.327 136.764C237.054 136.616 237.807 136.663 238.51 136.9C239.212 137.138 239.839 137.557 240.327 138.116C242.105 140.053 243.58 143.031 243.571 148.07C243.562 153.11 241.234 155.803 240.905 158.079C240.576 160.354 236.461 181.446 233.545 188.575C231.714 193.019 229.181 194.37 226.088 191.766C221.919 188.255 210.48 174.193 210.48 174.193L207.298 158.07Z" fill="#FFA8A7"/>
<path d="M207.298 158.07C209.422 157.439 211.742 157.937 213.893 160.514C216.044 163.092 223.919 173.065 223.919 173.065C223.919 173.065 223.688 178.167 217.102 182.895L209.591 174.807L207.298 158.07Z" fill="#2DA6FE"/>
<path d="M218.426 322.647L218.355 321.465C218.915 322.825 221.439 328.691 224.914 331.491C227.67 333.722 231.412 336.273 232.478 338.877C233.545 341.481 227.732 342.877 225.261 342.584C222.39 342.255 218.613 340.859 216.462 338.522C214.951 336.877 213.937 334.886 212.853 333.589C211.769 332.291 209.36 330.922 208.72 329.367C208.373 328.522 208.613 326.602 208.933 324.985C209.253 323.367 209.733 321.714 210.24 321.82C210.218 322.169 210.177 322.516 210.115 322.86C211.351 323.721 212.845 324.129 214.346 324.016C215.564 323.989 218.497 323.571 218.426 322.647Z" fill="#263238"/>
<path d="M227.412 333.438C226.523 332.762 225.697 332.104 224.915 331.473C222.488 329.509 220.524 326.051 219.368 323.687V323.643C218.484 321.729 218.099 319.622 218.248 317.519L218.355 314.719L209.467 314.897L210.115 322.843V323.047H210.16C210.667 324.745 214.746 329.109 217.093 331.935C218.657 333.846 221.537 336.237 224.888 336.477C228.07 336.78 229.581 335.695 227.412 333.438Z" fill="#FFA8A7"/>
<path d="M168.802 323.66C168.376 323.411 167.674 324.86 166.936 325.962C166.144 327.333 165.767 328.905 165.852 330.486C166.048 332.267 165.955 334.068 165.576 335.819C165.078 338.77 164.216 342.157 167.185 344.877C169.736 347.205 175.424 348.29 177.238 346.654C177.606 346.355 177.899 345.972 178.092 345.538C178.285 345.104 178.373 344.631 178.349 344.157C177.985 342.868 177.484 341.623 176.855 340.441C176.154 339.101 175.525 337.724 174.971 336.317L168.802 323.66Z" fill="#263238"/>
<path d="M176.82 318.665C176.429 318.336 175.584 329.251 175.344 331.846C175.104 334.442 175.558 335.802 175.984 338.566C176.197 339.219 176.149 339.929 175.851 340.548C175.626 340.835 175.336 341.065 175.006 341.219C174.675 341.373 174.313 341.448 173.949 341.437C172.065 341.437 170.571 340.744 168.989 338.957C168.207 338.068 168.154 335.713 168.198 334.86C168.327 333.429 168.354 331.992 168.278 330.558C168.136 329.038 167.692 327.251 167.887 326.113C168.054 325.232 168.354 324.381 168.776 323.589C169.496 321.945 169.976 317.447 169.976 317.447L176.82 318.665Z" fill="#FFA8A7"/>
<path d="M180.544 202.947C175.931 208.876 175.095 214.991 176.1 232.279C177.104 249.567 175.646 263.69 175.389 264.659C175.131 265.628 172.206 275.174 170.829 281.6C169.22 289.129 168.998 320.122 168.998 320.122C168.998 320.122 172.278 321.9 177.344 320.691C177.344 320.691 189.574 272.259 190.872 268.357C192.17 264.455 201.991 224.208 201.991 224.208L200.738 201.036L180.544 202.947Z" fill="#37474F"/>
<path d="M215.822 222.875C215.12 214.875 213.404 201.018 213.404 201.018L192.961 199.818C189.646 204.982 191.086 213.569 191.992 221.328L203.689 267.121C203.449 269.316 201.432 273.965 203.689 285.787C206.205 298.959 209.289 316.371 209.289 316.371C209.289 316.371 214.089 318.327 218.497 316.469C218.497 316.469 220.186 274.765 219.111 263.379C217.929 251.015 216.302 228.35 215.822 222.875Z" fill="#37474F"/>
<path d="M198.418 242.306L201.751 225.507C204.706 224.454 207.511 223.023 210.098 221.249C208.445 223.337 206.475 225.152 204.258 226.626L198.418 242.306Z" fill="#263238"/>
<path d="M181.78 162.266C179.486 163.59 175.691 164.799 174.109 169.261C171.949 175.483 166.216 191.642 164.012 197.446H174.607L181.94 182.424C187.61 177.554 186.846 164.017 181.78 162.266Z" fill="#FFA8A7"/>
<path d="M212.071 188.033C212.578 192.699 214.462 209.961 214.462 209.961C199.041 218.182 179.922 212.734 176.998 209.347C179.664 200.619 182.499 195.65 184.677 193.348L181.939 182.424C181.939 182.424 188.401 174.736 181.779 162.266L190.375 159.439L202.143 158.417L207.298 158.07C209.138 159.795 212.035 165.972 213.92 170.781C215.129 173.883 216.435 178.842 212.071 188.033Z" fill="#F5F5F5"/>
<path d="M181.78 162.266C176.713 163.261 174.438 165.75 172.411 171.278C170.225 177.26 167.603 183.722 167.603 183.722C169.022 185.773 171.003 187.372 173.308 188.325C175.613 189.279 178.144 189.548 180.597 189.1L183.877 179.953C183.877 179.953 188.277 171.883 181.78 162.266Z" fill="#2DA6FE"/>
<path d="M183.335 187.917C183.468 188.45 187.077 193.25 188.846 194.352C190.615 195.454 185.717 197.019 185.024 199.819C183.628 205.445 192.348 212.671 203.183 213.702C190.926 215.711 179.255 211.924 177.024 209.347C179.691 200.618 182.526 195.65 184.704 193.348L183.335 187.917Z" fill="#E6E6E6"/>
<path d="M215.759 156.977H199.289C196.642 156.978 194.02 156.457 191.573 155.445C189.127 154.432 186.904 152.947 185.032 151.075C183.16 149.203 181.675 146.98 180.663 144.534C179.65 142.087 179.129 139.465 179.131 136.818C179.131 131.962 181.06 127.304 184.493 123.871C187.927 120.437 192.584 118.508 197.441 118.508C199.846 118.507 202.228 118.979 204.45 119.899C206.673 120.819 208.692 122.167 210.393 123.868C212.095 125.568 213.444 127.587 214.365 129.809C215.286 132.031 215.759 134.413 215.759 136.818V156.977Z" fill="#263238"/>
<path d="M209.218 126.481C211.156 127.628 213.547 132.49 213.307 142.694C213.102 151.333 210.302 153.475 208.862 154.089C207.423 154.702 204.738 154.329 202.107 153.884V159.075C201.944 160.172 201.353 161.159 200.463 161.822C198.312 163.164 195.77 162.657 194.339 162.141C191.184 161.004 190.561 159.475 190.561 159.475L190.615 147.538C190.615 147.538 189.068 149.049 186.428 146.747C184.259 144.845 183.531 141.645 185.219 139.921C185.659 139.512 186.19 139.213 186.768 139.05C187.345 138.887 187.954 138.863 188.542 138.981C189.131 139.099 189.683 139.356 190.153 139.729C190.623 140.103 190.998 140.583 191.246 141.129C191.246 141.129 192.792 141.254 194.339 138.374C194.339 138.374 194.286 130.57 196.028 129.557C201.583 126.339 205.512 126.481 209.218 126.481Z" fill="#FFA8A7"/>
<path d="M202.134 139.974C202.145 140.118 202.127 140.263 202.081 140.401C202.035 140.538 201.963 140.665 201.868 140.774C201.773 140.883 201.657 140.973 201.527 141.037C201.397 141.101 201.256 141.138 201.112 141.147C200.887 141.168 200.661 141.122 200.463 141.013C200.265 140.905 200.105 140.739 200.002 140.538C199.899 140.338 199.858 140.111 199.885 139.887C199.913 139.663 200.007 139.452 200.155 139.282C200.303 139.112 200.499 138.99 200.717 138.932C200.935 138.874 201.166 138.883 201.379 138.958C201.592 139.032 201.777 139.169 201.912 139.35C202.047 139.531 202.124 139.749 202.134 139.974Z" fill="#263238"/>
<g style="mix-blend-mode:multiply" opacity="0.5">
<g style="mix-blend-mode:multiply" opacity="0.5">
<path d="M203.947 147.849L206.471 148.649C206.425 148.817 206.345 148.974 206.236 149.11C206.127 149.247 205.992 149.36 205.838 149.443C205.685 149.526 205.516 149.577 205.342 149.593C205.169 149.609 204.993 149.59 204.827 149.537C204.493 149.422 204.215 149.182 204.051 148.868C203.888 148.554 203.85 148.189 203.947 147.849Z" fill="#F28F8F"/>
</g>
</g>
<path d="M211.964 136.587L209.769 135.067C209.86 134.918 209.98 134.789 210.123 134.689C210.266 134.589 210.428 134.519 210.599 134.484C210.77 134.449 210.946 134.449 211.117 134.485C211.287 134.522 211.449 134.592 211.591 134.694C211.885 134.9 212.088 135.213 212.158 135.565C212.227 135.918 212.158 136.284 211.964 136.587Z" fill="#263238"/>
<path d="M200.623 136.116L198.125 137.076C198.053 136.917 198.015 136.745 198.013 136.57C198.011 136.396 198.044 136.223 198.112 136.062C198.179 135.901 198.279 135.756 198.406 135.635C198.532 135.514 198.681 135.421 198.845 135.361C199.182 135.235 199.554 135.244 199.884 135.384C200.215 135.525 200.479 135.787 200.623 136.116Z" fill="#263238"/>
<path d="M211.369 139.733C211.372 139.948 211.312 140.159 211.196 140.339C211.08 140.52 210.914 140.663 210.718 140.749C210.521 140.836 210.304 140.863 210.092 140.827C209.881 140.791 209.684 140.694 209.528 140.547C209.371 140.4 209.261 140.21 209.212 140.001C209.162 139.793 209.175 139.574 209.249 139.372C209.323 139.171 209.455 138.996 209.628 138.869C209.801 138.741 210.008 138.668 210.222 138.658C210.516 138.65 210.801 138.759 211.016 138.96C211.23 139.162 211.357 139.439 211.369 139.733Z" fill="#263238"/>
<g style="mix-blend-mode:multiply" opacity="0.5">
<g style="mix-blend-mode:multiply" opacity="0.5">
<path d="M206.151 139.111L206.32 145.653L209.769 144.587L206.151 139.111Z" fill="#F28F8F"/>
</g>
</g>
<g style="mix-blend-mode:multiply" opacity="0.5">
<g style="mix-blend-mode:multiply" opacity="0.5">
<path d="M202.143 153.892C199.36 153.528 193.636 151.893 192.748 149.626C193.103 150.773 193.805 151.782 194.756 152.515C196.463 153.981 202.143 155.626 202.143 155.626V153.892Z" fill="#F28F8F"/>
</g>
</g>
<path d="M194.792 119.486L194.375 114.686C194.689 114.639 195.01 114.656 195.317 114.738C195.624 114.819 195.912 114.962 196.161 115.159C196.411 115.355 196.618 115.601 196.769 115.88C196.921 116.16 197.013 116.467 197.041 116.784C197.089 117.438 196.881 118.084 196.462 118.588C196.042 119.092 195.444 119.414 194.792 119.486Z" fill="#263238"/>
<path d="M194.534 119.966L190.65 117.122C190.824 116.857 191.05 116.63 191.314 116.456C191.578 116.281 191.875 116.161 192.187 116.105C192.498 116.048 192.818 116.056 193.127 116.127C193.436 116.198 193.727 116.331 193.983 116.518C194.5 116.912 194.845 117.49 194.948 118.132C195.05 118.774 194.902 119.43 194.534 119.966Z" fill="#263238"/>
<path d="M191.281 141.111V145.653C192.101 145.653 192.888 145.327 193.468 144.747C194.048 144.167 194.374 143.38 194.374 142.56V138.355L191.281 141.111Z" fill="#263238"/>
<path d="M203.653 119.584C207.732 119.584 211.643 121.204 214.527 124.088C217.41 126.971 219.03 130.883 219.03 134.961V136.952H211.511C209.817 136.952 208.181 136.34 206.905 135.227C205.629 134.114 204.799 132.576 204.569 130.899L204.293 136.952C202.902 136.953 201.56 136.432 200.533 135.493C199.507 134.553 198.869 133.263 198.747 131.877L198.658 130.881C198.526 132.533 197.777 134.075 196.56 135.2C195.343 136.325 193.747 136.95 192.09 136.952H191.414L190.65 126.09L203.653 119.584Z" fill="#263238"/>
<path d="M308.172 334.611V333.438C307.701 334.833 305.505 340.841 302.226 343.846C299.603 346.237 296.004 349.001 295.115 351.668C294.226 354.334 300.092 355.374 302.546 354.938C305.39 354.441 309.078 352.823 311.078 350.361C312.492 348.628 313.389 346.574 314.394 345.215C315.398 343.855 317.718 342.326 318.26 340.77C318.562 339.882 318.207 338.006 317.789 336.406C317.371 334.806 316.989 333.322 316.482 333.455V334.344C315.299 335.277 313.83 335.774 312.323 335.748C311.114 335.784 308.163 335.544 308.172 334.611Z" fill="#263238"/>
<path d="M299.852 345.935C300.67 345.206 301.488 344.504 302.225 343.819C304.536 341.722 306.287 338.157 307.301 335.722C307.878 334.336 308.18 332.85 308.19 331.349V326.611H316.5V334.326V334.531H316.456C316.056 336.255 312.243 340.859 310.074 343.855C308.625 345.864 305.861 348.414 302.563 348.859C299.417 349.294 297.826 348.308 299.852 345.935Z" fill="#B16668"/>
<path d="M275.738 326.416V325.225C275.276 326.62 273.072 332.629 269.801 335.633C267.179 338.024 263.579 340.788 262.69 343.455C261.802 346.121 267.668 347.161 270.121 346.726C272.965 346.219 276.645 344.61 278.654 342.148C280.058 340.415 280.956 338.362 281.969 337.002C282.982 335.642 285.293 334.113 285.836 332.558C286.138 331.669 285.782 329.793 285.365 328.193C284.973 326.727 284.556 325.109 284.058 325.242V326.131C282.875 327.065 281.405 327.561 279.898 327.536C278.68 327.589 275.73 327.349 275.738 326.416Z" fill="#263238"/>
<path d="M267.428 337.739C268.236 337.01 269.054 336.308 269.801 335.624C272.103 333.526 273.863 329.962 274.867 327.527C275.45 326.142 275.752 324.656 275.756 323.153V318.416H284.067V326.122V326.327H284.022C283.622 328.051 279.809 332.646 277.64 335.651C276.183 337.659 273.427 340.21 270.13 340.655C266.992 341.099 265.401 340.112 267.428 337.739Z" fill="#B16668"/>
<path d="M314.829 205.446C321.273 219.525 314.598 269.113 314.598 269.113C314.794 271.397 317.398 275.895 318.376 285.947C319.522 297.822 316.598 327.652 316.598 327.652C315.331 328.387 313.904 328.802 312.44 328.861C310.976 328.92 309.52 328.621 308.198 327.989C308.198 327.989 300.243 283.023 298.759 271.219C297.452 260.918 294.964 238.252 294.964 238.252L287.853 271.139C288.885 274.463 289.634 277.867 290.093 281.317C290.768 288.267 284.04 320.612 284.04 320.612C284.04 320.612 281.169 321.661 275.72 320.861C275.72 320.861 273.347 277.93 272.716 269.566C271.658 255.505 275.383 211.65 277.969 203.33L314.829 205.446Z" fill="#37474F"/>
<path d="M294.964 238.243L292.866 225.168C292.866 225.168 283.978 223.328 280.005 219.56C280.005 219.56 284.209 224.795 290.466 226.51L292.822 236.554L288.715 267.032L294.964 238.243Z" fill="#263238"/>
<path d="M290.626 156.124C288.623 155.793 286.566 156.029 284.69 156.805C282.813 157.581 281.19 158.866 280.005 160.515C277.205 164.239 266.432 195.57 266.432 195.57H276.13L289.4 169.314L290.626 156.124Z" fill="#B16668"/>
<path d="M303.461 156.506C311.727 157.075 312.305 161.066 314.367 165.394C315.893 168.76 316.034 172.592 314.758 176.06L309.008 192.717C309.008 192.717 311.674 199.232 314.829 205.392C300.377 213.454 282.334 209.214 277.987 203.33C277.809 202.085 278.876 192.326 279.614 185.953C277.063 179.562 276.396 175.518 277.472 171.296C279.463 163.465 287.196 155.83 290.626 156.106L303.461 156.506Z" fill="#F5F5F5"/>
<path d="M299.763 206.974C300.898 206.714 301.969 206.229 302.914 205.549C303.859 204.869 304.658 204.006 305.264 203.012C305.87 202.018 306.272 200.913 306.444 199.762C306.617 198.611 306.558 197.436 306.27 196.308C306.233 196.153 306.182 196.001 306.119 195.855C305.921 195.249 305.525 194.727 304.994 194.374C304.464 194.021 303.83 193.857 303.194 193.908C304.122 193.296 304.919 192.505 305.539 191.582C306.159 190.659 306.588 189.622 306.803 188.531L308.581 179.723C308.581 179.723 305.319 169.377 305.648 165.83L313.94 166.31L315.016 167.057C315.897 170.004 315.813 173.156 314.776 176.052L309.025 192.708C309.025 192.708 311.692 199.224 314.847 205.383C310.146 207.912 304.956 209.403 299.63 209.756C294.303 210.108 288.963 209.314 283.969 207.428C289.215 208.274 294.574 208.12 299.763 206.974Z" fill="#E6E6E6"/>
<path d="M333.886 197.81C333.886 197.81 325.682 181.668 320.26 169.313C316.349 160.425 315.469 158.381 309.239 157.412L307.043 157.074C304.092 166.771 306.154 171.171 310.012 177.811L323.513 203.409C326.571 202.778 333.948 198.734 333.886 197.81Z" fill="#B16668"/>
<path d="M300.03 149.653H294.173C290.04 149.653 286.077 148.012 283.155 145.09C280.233 142.168 278.591 138.204 278.591 134.072V131.459C278.591 127.303 280.242 123.317 283.181 120.378C286.12 117.44 290.106 115.789 294.262 115.789H299.897C304.053 115.789 308.039 117.44 310.977 120.378C313.916 123.317 315.567 127.303 315.567 131.459V134.072C315.567 138.204 313.925 142.168 311.003 145.09C308.081 148.012 304.118 149.653 299.986 149.653H300.03Z" fill="#263238"/>
<path d="M284.706 123.264C282.751 124.419 280.333 129.334 280.573 139.636C280.778 148.364 283.604 150.515 285.018 151.138C286.431 151.76 289.177 151.378 291.844 150.942V156.177C291.844 156.177 288.155 160.453 288.395 162.852C288.635 165.252 293.728 165.821 297.15 163.475C299.385 161.868 301.302 159.861 302.803 157.555V144.898C302.803 144.898 304.581 147.298 307.541 145.342C310.501 143.387 310.598 138.561 308.892 136.818C307.185 135.076 303.488 135.636 302.803 138.036C302.803 138.036 298.555 138.187 292.902 135.076C290.702 133.892 288.812 132.205 287.388 130.152C285.964 128.099 285.045 125.739 284.706 123.264Z" fill="#B16668"/>
<path d="M291.293 137.44C291.29 137.657 291.35 137.869 291.467 138.052C291.584 138.234 291.752 138.378 291.949 138.465C292.147 138.553 292.367 138.58 292.58 138.543C292.793 138.507 292.991 138.409 293.149 138.261C293.307 138.113 293.418 137.921 293.467 137.711C293.517 137.5 293.504 137.279 293.429 137.076C293.355 136.873 293.222 136.697 293.047 136.569C292.873 136.44 292.665 136.367 292.448 136.356C292.301 136.351 292.155 136.376 292.017 136.428C291.879 136.479 291.753 136.558 291.646 136.659C291.539 136.759 291.452 136.88 291.392 137.014C291.331 137.149 291.297 137.293 291.293 137.44Z" fill="#263238"/>
<path d="M290.022 144.835L287.48 145.653C287.528 145.821 287.609 145.978 287.718 146.115C287.828 146.251 287.964 146.364 288.118 146.447C288.272 146.53 288.442 146.581 288.616 146.597C288.791 146.614 288.966 146.595 289.133 146.542C289.469 146.422 289.748 146.179 289.913 145.863C290.078 145.546 290.117 145.179 290.022 144.835Z" fill="#9A4A4D"/>
<path d="M282.289 134.071L284.511 132.525C284.417 132.376 284.293 132.248 284.148 132.148C284.003 132.048 283.839 131.979 283.666 131.944C283.493 131.909 283.315 131.909 283.143 131.945C282.97 131.981 282.807 132.051 282.662 132.151C282.364 132.362 282.159 132.679 282.09 133.036C282.02 133.394 282.091 133.765 282.289 134.071Z" fill="#263238"/>
<path d="M282.805 136.649C282.803 136.865 282.865 137.077 282.983 137.258C283.101 137.439 283.269 137.581 283.467 137.668C283.666 137.754 283.885 137.78 284.097 137.742C284.31 137.705 284.507 137.606 284.664 137.457C284.821 137.309 284.931 137.117 284.98 136.907C285.029 136.697 285.015 136.477 284.94 136.274C284.865 136.071 284.732 135.895 284.558 135.768C284.384 135.64 284.176 135.566 283.96 135.556C283.663 135.551 283.376 135.663 283.16 135.867C282.944 136.071 282.816 136.352 282.805 136.649Z" fill="#263238"/>
<path d="M288.173 136.019L287.995 142.623L284.52 141.547L288.173 136.019Z" fill="#9A4A4D"/>
<path d="M291.853 150.942C294.653 150.568 300.43 148.906 301.328 146.631C300.972 147.785 300.267 148.8 299.31 149.537C297.586 151.022 291.853 152.684 291.853 152.684V150.942Z" fill="#9A4A4D"/>
<path d="M313.309 117.77C309.701 119.272 310.51 122.366 312.021 125.974C313.532 129.583 315.176 132.329 318.731 130.783C319.686 130.497 320.569 130.013 321.325 129.363C322.08 128.713 322.691 127.912 323.117 127.011C323.543 126.11 323.775 125.13 323.797 124.134C323.82 123.137 323.633 122.148 323.248 121.228C322.864 120.309 322.29 119.481 321.565 118.797C320.84 118.114 319.979 117.59 319.039 117.261C318.098 116.932 317.099 116.804 316.106 116.885C315.113 116.967 314.148 117.256 313.274 117.735L313.309 117.77Z" fill="#263238"/>
<path d="M310.136 121.006L308.874 114.989C309.261 114.891 309.663 114.873 310.057 114.934C310.451 114.995 310.829 115.134 311.168 115.344C311.507 115.553 311.8 115.829 312.031 116.154C312.261 116.48 312.424 116.848 312.51 117.237C312.676 118.05 312.523 118.896 312.08 119.599C311.638 120.301 310.942 120.805 310.136 121.006Z" fill="#263238"/>
<path d="M339.752 195.57H151.363V238.706H339.752V195.57Z" fill="#2DA6FE"/>
<path d="M151.363 203.356C150.812 204.894 149.586 205.623 148.697 207.152C147.808 208.681 147.435 213.249 148.439 215.151C149.205 216.486 150.281 217.616 151.576 218.447C152.871 219.278 154.347 219.784 155.879 219.924C157.164 219.977 158.433 219.622 159.505 218.911C160.005 218.576 160.446 218.162 160.812 217.684C161.146 217.173 161.398 216.612 161.558 216.022C161.571 215.975 161.596 215.933 161.629 215.898C161.678 215.867 161.733 215.849 161.789 215.845C162.179 215.789 162.545 215.625 162.847 215.374C162.998 215.247 163.119 215.089 163.202 214.911C163.285 214.733 163.328 214.539 163.327 214.342C163.298 214.093 163.209 213.853 163.068 213.645C162.927 213.436 162.739 213.264 162.518 213.143C162.069 212.911 161.595 212.732 161.105 212.609C159.923 212.227 158.83 211.632 157.674 211.196C155.333 210.363 153.183 209.066 151.355 207.383L151.363 203.356Z" fill="#FFA8A7"/>
<path d="M339.761 204.743C340.312 206.299 341.539 207.036 342.428 208.592C343.317 210.147 343.708 214.814 342.694 216.707C341.917 218.062 340.825 219.21 339.51 220.054C338.194 220.897 336.695 221.411 335.139 221.551C333.903 221.637 332.673 221.319 331.633 220.646C330.592 219.973 329.799 218.981 329.371 217.818C328.562 215.018 329.957 213.96 333.317 212.689C335.696 211.848 337.879 210.532 339.735 208.823L339.761 204.743Z" fill="#B16668"/>
<path d="M257.402 191.819C262.379 192.628 263.81 195.57 263.81 195.57H259.739C259.739 195.57 259.224 196.939 260.628 202.067C261.108 203.845 258.45 203.916 258.37 203.241C257.89 204.343 254.388 205.907 251.775 204.129C249.375 202.538 248.309 200.103 248.842 195.543C249.722 190.468 256.513 191.677 257.402 191.819Z" fill="#B16668"/>
<path d="M200.974 211.72L200.694 219.56C200.694 220.531 200.741 221.548 200.834 222.612C200.946 223.657 201.039 224.301 201.114 224.544C201.207 224.787 201.254 224.992 201.254 225.16C201.254 225.72 200.974 226 200.414 226C200.041 226 199.761 225.72 199.574 225.16C199.201 224.04 199.014 222.173 199.014 219.56L199.294 211.72C199.294 211.16 199.574 210.88 200.134 210.88C200.694 210.88 200.974 211.16 200.974 211.72ZM184.454 212.84C184.454 212.28 184.734 212 185.294 212C185.723 212 186.003 212.28 186.134 212.84C186.246 213.251 186.414 214.109 186.638 215.416C186.862 216.704 186.974 219.672 186.974 224.32C186.974 224.88 186.694 225.16 186.134 225.16C185.574 225.16 185.294 224.88 185.294 224.32C185.294 219.915 185.201 217.115 185.014 215.92C184.846 214.875 184.725 214.175 184.65 213.82C184.519 213.297 184.454 212.971 184.454 212.84ZM187.814 211.272L185.294 211.44C184.734 211.44 184.454 211.16 184.454 210.6C184.454 210.096 184.734 209.816 185.294 209.76C186.414 209.648 187.254 209.592 187.814 209.592C189.606 209.592 191.034 210.087 192.098 211.076C193.162 212.065 193.694 213.213 193.694 214.52C193.694 215.827 193.199 216.928 192.21 217.824C193.218 218.16 194.039 218.636 194.674 219.252C195.327 219.849 195.654 220.493 195.654 221.184C195.654 221.875 195.533 222.491 195.29 223.032C195.047 223.555 194.767 223.984 194.45 224.32C194.133 224.656 193.657 225.001 193.022 225.356C192.387 225.711 191.846 225.972 191.398 226.14C190.95 226.308 190.297 226.551 189.438 226.868C188.579 227.185 187.973 227.409 187.618 227.54C187.263 227.689 186.927 227.764 186.61 227.764C186.05 227.764 185.77 227.475 185.77 226.896C185.77 226.635 186.069 226.383 186.666 226.14C187.282 225.897 187.973 225.636 188.738 225.356C189.503 225.076 190.082 224.861 190.474 224.712C190.885 224.563 191.351 224.357 191.874 224.096C192.378 223.835 192.761 223.583 193.022 223.34C193.657 222.743 193.974 222.043 193.974 221.24C193.974 220.699 193.442 220.195 192.378 219.728C191.314 219.243 190.259 219 189.214 219C188.654 219 188.374 218.72 188.374 218.16C188.374 217.6 188.654 217.32 189.214 217.32C189.961 217.32 190.614 217.04 191.174 216.48C191.734 215.92 192.014 215.248 192.014 214.464C192.014 213.661 191.641 212.933 190.894 212.28C190.147 211.608 189.121 211.272 187.814 211.272ZM225.509 223.76C225.695 223.013 225.835 222.435 225.929 222.024C226.041 221.613 226.115 221.305 226.153 221.1C226.19 220.895 226.218 220.736 226.237 220.624C226.274 220.512 226.302 220.363 226.321 220.176C226.339 219.989 226.349 219.868 226.349 219.812C226.367 219.737 226.386 219.569 226.405 219.308C226.423 219.028 226.47 218.561 226.545 217.908C226.619 217.236 226.787 216.219 227.049 214.856C227.31 213.475 227.497 212.616 227.609 212.28C228.038 210.973 228.495 210.32 228.981 210.32C229.541 210.32 229.821 210.6 229.821 211.16C229.821 211.328 229.737 211.58 229.569 211.916C229.401 212.252 229.27 212.56 229.177 212.84C229.083 213.12 228.915 213.895 228.673 215.164C228.449 216.433 228.281 217.628 228.169 218.748C228.057 219.868 227.945 220.671 227.833 221.156C227.739 221.641 227.422 222.976 226.881 225.16C226.75 225.72 226.47 226 226.041 226C225.369 226 224.865 225.823 224.529 225.468C224.193 225.095 223.978 224.675 223.885 224.208C223.847 224.077 223.605 222.827 223.157 220.456C221.999 214.333 221.234 211.272 220.861 211.272C220.487 211.272 220.301 211.552 220.301 212.112C220.301 212.261 220.319 213.083 220.357 214.576C220.506 219.056 220.581 222.584 220.581 225.16C220.581 225.72 220.301 226 219.741 226C219.181 226 218.901 225.72 218.901 225.16C218.901 222.584 218.854 219.803 218.761 216.816C218.667 213.829 218.621 212.261 218.621 212.112C218.621 211.365 218.826 210.759 219.237 210.292C219.666 209.825 220.207 209.592 220.861 209.592C221.775 209.592 222.447 210.245 222.877 211.552C223.25 212.653 223.763 214.921 224.417 218.356C225.089 221.772 225.453 223.573 225.509 223.76ZM215.541 211.356L213.021 211.272C211.341 211.272 209.586 211.459 207.757 211.832C207.439 213.288 207.225 214.819 207.113 216.424C207.859 216.275 209.362 216.2 211.621 216.2C212.517 216.2 213.301 216.34 213.973 216.62C214.645 216.881 214.981 217.208 214.981 217.6C214.981 218.16 214.701 218.44 214.141 218.44C214.01 218.44 213.721 218.347 213.273 218.16C212.825 217.973 212.274 217.88 211.621 217.88C209.362 217.88 207.813 217.964 206.973 218.132C206.898 219.364 206.861 220.381 206.861 221.184C206.861 221.987 207.019 222.715 207.337 223.368C207.673 224.003 208.074 224.32 208.541 224.32C210.911 224.32 212.862 224.133 214.393 223.76C215.102 223.573 215.485 223.48 215.541 223.48C216.101 223.48 216.381 223.76 216.381 224.32C216.381 224.469 216.306 224.628 216.157 224.796C216.007 224.945 215.662 225.113 215.121 225.3C214.579 225.487 213.627 225.655 212.265 225.804C210.902 225.935 209.698 226 208.653 226C207.626 226 206.786 225.524 206.133 224.572C205.498 223.62 205.181 222.603 205.181 221.52C205.181 218.925 205.442 215.883 205.965 212.392C206.095 211.552 206.161 211.123 206.161 211.104C206.329 210.619 206.655 210.329 207.141 210.236C209.231 209.807 210.939 209.592 212.265 209.592C213.59 209.592 214.682 209.62 215.541 209.676C216.101 209.695 216.381 209.984 216.381 210.544C216.381 211.085 216.101 211.356 215.541 211.356ZM232.899 210.6C233.273 210.6 233.571 210.88 233.795 211.44C234.691 213.68 235.569 217.003 236.427 221.408C236.502 221.819 236.605 222.248 236.735 222.696C237.893 217.507 239.47 213.419 241.467 210.432C241.841 209.872 242.158 209.592 242.419 209.592C242.979 209.592 243.259 209.872 243.259 210.432C243.259 210.6 243.11 210.908 242.811 211.356C240.795 214.38 239.171 218.981 237.939 225.16C237.827 225.72 237.547 226 237.099 226C236.726 226 236.325 225.683 235.895 225.048C235.466 224.395 235.102 223.312 234.803 221.8C233.926 217.451 233.058 214.193 232.199 212.028C232.106 211.785 232.059 211.571 232.059 211.384C232.059 211.179 232.134 211.001 232.283 210.852C232.433 210.684 232.638 210.6 232.899 210.6ZM255.579 211.356L253.059 211.272C251.379 211.272 249.625 211.459 247.795 211.832C247.478 213.288 247.263 214.819 247.151 216.424C247.898 216.275 249.401 216.2 251.659 216.2C252.555 216.2 253.339 216.34 254.011 216.62C254.683 216.881 255.019 217.208 255.019 217.6C255.019 218.16 254.739 218.44 254.179 218.44C254.049 218.44 253.759 218.347 253.311 218.16C252.863 217.973 252.313 217.88 251.659 217.88C249.401 217.88 247.851 217.964 247.011 218.132C246.937 219.364 246.899 220.381 246.899 221.184C246.899 221.987 247.058 222.715 247.375 223.368C247.711 224.003 248.113 224.32 248.579 224.32C250.95 224.32 252.901 224.133 254.431 223.76C255.141 223.573 255.523 223.48 255.579 223.48C256.139 223.48 256.419 223.76 256.419 224.32C256.419 224.469 256.345 224.628 256.195 224.796C256.046 224.945 255.701 225.113 255.159 225.3C254.618 225.487 253.666 225.655 252.303 225.804C250.941 225.935 249.737 226 248.691 226C247.665 226 246.825 225.524 246.171 224.572C245.537 223.62 245.219 222.603 245.219 221.52C245.219 218.925 245.481 215.883 246.003 212.392C246.134 211.552 246.199 211.123 246.199 211.104C246.367 210.619 246.694 210.329 247.179 210.236C249.27 209.807 250.978 209.592 252.303 209.592C253.629 209.592 254.721 209.62 255.579 209.676C256.139 209.695 256.419 209.984 256.419 210.544C256.419 211.085 256.139 211.356 255.579 211.356ZM273.498 222.92C273.312 221.987 273.218 220.717 273.218 219.112C273.218 217.507 273.368 215.948 273.666 214.436C273.984 212.905 274.264 211.841 274.506 211.244C274.768 210.628 275.085 210.32 275.458 210.32C276.018 210.32 276.298 210.6 276.298 211.16C276.298 211.309 276.186 211.655 275.962 212.196C275.757 212.737 275.524 213.652 275.262 214.94C275.02 216.209 274.898 217.591 274.898 219.084C274.898 220.577 274.945 221.557 275.038 222.024C275.132 222.491 275.178 222.789 275.178 222.92C275.178 223.48 274.898 223.76 274.338 223.76C273.89 223.76 273.61 223.48 273.498 222.92ZM265.826 223.76C266.013 223.013 266.153 222.435 266.246 222.024C266.358 221.613 266.433 221.305 266.47 221.1C266.508 220.895 266.536 220.736 266.554 220.624C266.592 220.512 266.62 220.363 266.638 220.176C266.657 219.989 266.666 219.868 266.666 219.812C266.685 219.737 266.704 219.569 266.722 219.308C266.741 219.028 266.788 218.561 266.862 217.908C266.937 217.236 267.105 216.219 267.366 214.856C267.628 213.475 267.814 212.616 267.926 212.28C268.356 210.973 268.813 210.32 269.298 210.32C269.858 210.32 270.138 210.6 270.138 211.16C270.138 211.328 270.054 211.58 269.886 211.916C269.718 212.252 269.588 212.56 269.494 212.84C269.401 213.12 269.233 213.895 268.99 215.164C268.766 216.433 268.598 217.628 268.486 218.748C268.374 219.868 268.262 220.671 268.15 221.156C268.057 221.641 267.74 222.976 267.198 225.16C267.068 225.72 266.788 226 266.358 226C265.686 226 265.182 225.823 264.846 225.468C264.51 225.095 264.296 224.675 264.202 224.208C264.165 224.077 263.922 222.827 263.474 220.456C262.317 214.333 261.552 211.272 261.178 211.272C260.805 211.272 260.618 211.552 260.618 212.112C260.618 212.261 260.637 213.083 260.674 214.576C260.824 219.056 260.898 222.584 260.898 225.16C260.898 225.72 260.618 226 260.058 226C259.498 226 259.218 225.72 259.218 225.16C259.218 222.584 259.172 219.803 259.078 216.816C258.985 213.829 258.938 212.261 258.938 212.112C258.938 211.365 259.144 210.759 259.554 210.292C259.984 209.825 260.525 209.592 261.178 209.592C262.093 209.592 262.765 210.245 263.194 211.552C263.568 212.653 264.081 214.921 264.734 218.356C265.406 221.772 265.77 223.573 265.826 223.76ZM299.881 213.288L299.349 213.204C299.013 213.148 298.602 213.12 298.117 213.12C297.632 213.12 297.165 213.363 296.717 213.848C296.25 214.296 295.886 214.875 295.625 215.584C295.065 217.059 294.785 218.384 294.785 219.56C294.785 222.733 296.045 224.32 298.565 224.32C300.6 224.32 302.158 223.657 303.241 222.332C304.324 220.988 304.865 219.224 304.865 217.04C304.865 215.883 304.632 214.847 304.165 213.932C303.698 213.017 302.998 212.56 302.065 212.56C301.878 212.56 301.44 212.607 300.749 212.7C300.656 213.092 300.366 213.288 299.881 213.288ZM298.565 226C296.792 226 295.438 225.412 294.505 224.236C293.572 223.041 293.105 221.483 293.105 219.56C293.105 218.085 293.488 216.433 294.253 214.604C294.626 213.708 295.158 212.961 295.849 212.364C296.558 211.748 297.342 211.44 298.201 211.44C298.537 211.44 298.892 211.459 299.265 211.496C299.806 211.085 300.758 210.88 302.121 210.88C303.502 210.88 304.585 211.496 305.369 212.728C306.153 213.941 306.545 215.379 306.545 217.04C306.545 219.672 305.836 221.828 304.417 223.508C302.998 225.169 301.048 226 298.565 226ZM282.129 224.964C281.998 224.423 281.83 223.573 281.625 222.416C281.438 221.24 281.345 218.608 281.345 214.52C281.345 213.96 281.625 213.68 282.185 213.68C282.745 213.68 283.025 213.96 283.025 214.52C283.025 218.365 283.109 220.82 283.277 221.884C283.445 222.929 283.604 223.816 283.753 224.544C285.284 224.115 286.46 223.685 287.281 223.256C288.102 222.808 288.625 222.416 288.849 222.08C289.073 221.725 289.185 221.203 289.185 220.512C289.185 219.821 288.942 218.655 288.457 217.012C287.972 215.369 287.43 214.175 286.833 213.428C285.676 211.991 284.5 211.272 283.305 211.272C282.652 211.272 282.045 211.412 281.485 211.692C280.925 211.972 280.598 212.112 280.505 212.112C279.945 212.112 279.665 211.832 279.665 211.272C279.665 210.917 280.048 210.553 280.813 210.18C281.597 209.788 282.428 209.592 283.305 209.592C285.004 209.592 286.609 210.516 288.121 212.364C288.849 213.26 289.484 214.623 290.025 216.452C290.585 218.263 290.865 219.728 290.865 220.848C290.865 222.248 290.212 223.387 288.905 224.264C287.598 225.141 285.228 225.981 281.793 226.784C281.606 226.821 281.42 226.84 281.233 226.84C281.046 226.84 280.878 226.756 280.729 226.588C280.58 226.439 280.505 226.243 280.505 226C280.505 225.739 280.57 225.552 280.701 225.44C280.832 225.328 281.046 225.235 281.345 225.16L282.129 224.964Z" fill="white"/>
</svg>
