<svg width="1031" height="465" viewBox="0 0 1031 465" fill="none" xmlns="http://www.w3.org/2000/svg">
<g opacity="0.2">
<path fill-rule="evenodd" clip-rule="evenodd" d="M530.321 418.538L516.441 435.899L502.809 426.379L476.554 448.75L476.214 448.354L502.777 425.721L516.338 435.191L529.912 418.214L530.321 418.538Z" fill="#37474F"/>
<path d="M478.357 448.215C478.357 449.694 477.158 450.893 475.679 450.893C474.199 450.893 473 449.694 473 448.215C473 446.735 474.199 445.536 475.679 445.536C477.158 445.536 478.357 446.735 478.357 448.215Z" fill="white"/>
<path fill-rule="evenodd" clip-rule="evenodd" d="M475.679 450.383C476.876 450.383 477.847 449.412 477.847 448.215C477.847 447.017 476.876 446.046 475.679 446.046C474.481 446.046 473.51 447.017 473.51 448.215C473.51 449.412 474.481 450.383 475.679 450.383ZM475.679 450.893C477.158 450.893 478.357 449.694 478.357 448.215C478.357 446.735 477.158 445.536 475.679 445.536C474.199 445.536 473 446.735 473 448.215C473 449.694 474.199 450.893 475.679 450.893Z" fill="#455A64"/>
<path d="M506.214 425.179C506.214 426.658 504.895 427.857 503.268 427.857C501.641 427.857 500.321 426.658 500.321 425.179C500.321 423.699 501.641 422.5 503.268 422.5C504.895 422.5 506.214 423.699 506.214 425.179Z" fill="white"/>
<path fill-rule="evenodd" clip-rule="evenodd" d="M503.268 427.347C504.585 427.347 505.653 426.376 505.653 425.179C505.653 423.981 504.585 423.01 503.268 423.01C501.951 423.01 500.883 423.981 500.883 425.179C500.883 426.376 501.951 427.347 503.268 427.347ZM503.268 427.857C504.895 427.857 506.214 426.658 506.214 425.179C506.214 423.699 504.895 422.5 503.268 422.5C501.641 422.5 500.321 423.699 500.321 425.179C500.321 426.658 501.641 427.857 503.268 427.857Z" fill="#455A64"/>
<path d="M519.607 435.357C519.607 436.837 518.288 438.036 516.661 438.036C515.033 438.036 513.714 436.837 513.714 435.357C513.714 433.878 515.033 432.679 516.661 432.679C518.288 432.679 519.607 433.878 519.607 435.357Z" fill="white"/>
<path fill-rule="evenodd" clip-rule="evenodd" d="M516.661 437.526C517.978 437.526 519.046 436.555 519.046 435.357C519.046 434.16 517.978 433.189 516.661 433.189C515.343 433.189 514.275 434.16 514.275 435.357C514.275 436.555 515.343 437.526 516.661 437.526ZM516.661 438.036C518.288 438.036 519.607 436.837 519.607 435.357C519.607 433.878 518.288 432.679 516.661 432.679C515.033 432.679 513.714 433.878 513.714 435.357C513.714 436.837 515.033 438.036 516.661 438.036Z" fill="#455A64"/>
<path d="M533 417.946C533 419.574 531.801 420.893 530.321 420.893C528.842 420.893 527.643 419.574 527.643 417.946C527.643 416.319 528.842 415 530.321 415C531.801 415 533 416.319 533 417.946Z" fill="white"/>
<path fill-rule="evenodd" clip-rule="evenodd" d="M530.321 420.332C531.519 420.332 532.49 419.264 532.49 417.946C532.49 416.629 531.519 415.561 530.321 415.561C529.124 415.561 528.153 416.629 528.153 417.946C528.153 419.264 529.124 420.332 530.321 420.332ZM530.321 420.893C531.801 420.893 533 419.574 533 417.946C533 416.319 531.801 415 530.321 415C528.842 415 527.643 416.319 527.643 417.946C527.643 419.574 528.842 420.893 530.321 420.893Z" fill="#455A64"/>
</g>
<g opacity="0.2">
<path fill-rule="evenodd" clip-rule="evenodd" d="M189.321 45.5378L175.441 62.8987L161.809 53.3789L135.554 75.7496L135.214 75.3544L161.777 52.721L175.338 62.1913L188.912 45.2139L189.321 45.5378Z" fill="#37474F"/>
<path d="M137.357 75.2147C137.357 76.694 136.158 77.8933 134.679 77.8933C133.199 77.8933 132 76.694 132 75.2147C132 73.7354 133.199 72.5361 134.679 72.5361C136.158 72.5361 137.357 73.7354 137.357 75.2147Z" fill="white"/>
<path fill-rule="evenodd" clip-rule="evenodd" d="M134.679 77.3831C135.876 77.3831 136.847 76.4123 136.847 75.2147C136.847 74.0171 135.876 73.0463 134.679 73.0463C133.481 73.0463 132.51 74.0171 132.51 75.2147C132.51 76.4123 133.481 77.3831 134.679 77.3831ZM134.679 77.8933C136.158 77.8933 137.357 76.694 137.357 75.2147C137.357 73.7354 136.158 72.5361 134.679 72.5361C133.199 72.5361 132 73.7354 132 75.2147C132 76.694 133.199 77.8933 134.679 77.8933Z" fill="#455A64"/>
<path d="M165.214 52.1786C165.214 53.6579 163.895 54.8571 162.268 54.8571C160.641 54.8571 159.321 53.6579 159.321 52.1786C159.321 50.6992 160.641 49.5 162.268 49.5C163.895 49.5 165.214 50.6992 165.214 52.1786Z" fill="white"/>
<path fill-rule="evenodd" clip-rule="evenodd" d="M162.268 54.3469C163.585 54.3469 164.653 53.3761 164.653 52.1786C164.653 50.981 163.585 50.0102 162.268 50.0102C160.95 50.0102 159.883 50.981 159.883 52.1786C159.883 53.3761 160.95 54.3469 162.268 54.3469ZM162.268 54.8571C163.895 54.8571 165.214 53.6579 165.214 52.1786C165.214 50.6992 163.895 49.5 162.268 49.5C160.641 49.5 159.321 50.6992 159.321 52.1786C159.321 53.6579 160.641 54.8571 162.268 54.8571Z" fill="#455A64"/>
<path d="M178.607 62.3573C178.607 63.8366 177.288 65.0359 175.661 65.0359C174.033 65.0359 172.714 63.8366 172.714 62.3573C172.714 60.8779 174.033 59.6787 175.661 59.6787C177.288 59.6787 178.607 60.8779 178.607 62.3573Z" fill="white"/>
<path fill-rule="evenodd" clip-rule="evenodd" d="M175.661 64.5256C176.978 64.5256 178.046 63.5548 178.046 62.3573C178.046 61.1597 176.978 60.1889 175.661 60.1889C174.343 60.1889 173.275 61.1597 173.275 62.3573C173.275 63.5548 174.343 64.5256 175.661 64.5256ZM175.661 65.0359C177.288 65.0359 178.607 63.8366 178.607 62.3573C178.607 60.8779 177.288 59.6787 175.661 59.6787C174.033 59.6787 172.714 60.8779 172.714 62.3573C172.714 63.8366 174.033 65.0359 175.661 65.0359Z" fill="#455A64"/>
<path d="M192 44.9464C192 46.5737 190.801 47.8929 189.321 47.8929C187.842 47.8929 186.643 46.5737 186.643 44.9464C186.643 43.3192 187.842 42 189.321 42C190.801 42 192 43.3192 192 44.9464Z" fill="white"/>
<path fill-rule="evenodd" clip-rule="evenodd" d="M189.321 47.3316C190.519 47.3316 191.49 46.2637 191.49 44.9464C191.49 43.6291 190.519 42.5612 189.321 42.5612C188.124 42.5612 187.153 43.6291 187.153 44.9464C187.153 46.2637 188.124 47.3316 189.321 47.3316ZM189.321 47.8929C190.801 47.8929 192 46.5737 192 44.9464C192 43.3192 190.801 42 189.321 42C187.842 42 186.643 43.3192 186.643 44.9464C186.643 46.5737 187.842 47.8929 189.321 47.8929Z" fill="#455A64"/>
</g>
<g opacity="0.2">
<path fill-rule="evenodd" clip-rule="evenodd" d="M122.768 194.949L111.201 209.416L99.8408 201.483L77.962 220.125L77.6786 219.796L99.8142 200.935L111.115 208.827L122.427 194.679L122.768 194.949Z" fill="#474747"/>
<path d="M79.4643 219.678C79.4643 220.911 78.4649 221.911 77.2321 221.911C75.9994 221.911 75 220.911 75 219.678C75 218.446 75.9994 217.446 77.2321 217.446C78.4649 217.446 79.4643 218.446 79.4643 219.678Z" fill="white"/>
<path fill-rule="evenodd" clip-rule="evenodd" d="M77.2321 221.485C78.2301 221.485 79.0391 220.676 79.0391 219.678C79.0391 218.68 78.2301 217.871 77.2321 217.871C76.2342 217.871 75.4252 218.68 75.4252 219.678C75.4252 220.676 76.2342 221.485 77.2321 221.485ZM77.2321 221.911C78.4649 221.911 79.4643 220.911 79.4643 219.678C79.4643 218.446 78.4649 217.446 77.2321 217.446C75.9994 217.446 75 218.446 75 219.678C75 220.911 75.9994 221.911 77.2321 221.911Z" fill="#474747"/>
<path d="M102.679 200.482C102.679 201.715 101.579 202.714 100.223 202.714C98.8672 202.714 97.7679 201.715 97.7679 200.482C97.7679 199.249 98.8672 198.25 100.223 198.25C101.579 198.25 102.679 199.249 102.679 200.482Z" fill="white"/>
<path fill-rule="evenodd" clip-rule="evenodd" d="M100.223 202.289C101.321 202.289 102.211 201.48 102.211 200.482C102.211 199.484 101.321 198.675 100.223 198.675C99.1255 198.675 98.2355 199.484 98.2355 200.482C98.2355 201.48 99.1255 202.289 100.223 202.289ZM100.223 202.714C101.579 202.714 102.679 201.715 102.679 200.482C102.679 199.249 101.579 198.25 100.223 198.25C98.8672 198.25 97.7679 199.249 97.7679 200.482C97.7679 201.715 98.8672 202.714 100.223 202.714Z" fill="#474747"/>
<path d="M113.839 208.965C113.839 210.197 112.74 211.197 111.384 211.197C110.028 211.197 108.929 210.197 108.929 208.965C108.929 207.732 110.028 206.732 111.384 206.732C112.74 206.732 113.839 207.732 113.839 208.965Z" fill="white"/>
<path fill-rule="evenodd" clip-rule="evenodd" d="M111.384 210.772C112.482 210.772 113.372 209.963 113.372 208.965C113.372 207.967 112.482 207.158 111.384 207.158C110.286 207.158 109.396 207.967 109.396 208.965C109.396 209.963 110.286 210.772 111.384 210.772ZM111.384 211.197C112.74 211.197 113.839 210.197 113.839 208.965C113.839 207.732 112.74 206.732 111.384 206.732C110.028 206.732 108.929 207.732 108.929 208.965C108.929 210.197 110.028 211.197 111.384 211.197Z" fill="#474747"/>
<path d="M125 194.455C125 195.811 124.001 196.911 122.768 196.911C121.535 196.911 120.536 195.811 120.536 194.455C120.536 193.099 121.535 192 122.768 192C124.001 192 125 193.099 125 194.455Z" fill="white"/>
<path fill-rule="evenodd" clip-rule="evenodd" d="M122.768 196.443C123.766 196.443 124.575 195.553 124.575 194.455C124.575 193.358 123.766 192.468 122.768 192.468C121.77 192.468 120.961 193.358 120.961 194.455C120.961 195.553 121.77 196.443 122.768 196.443ZM122.768 196.911C124.001 196.911 125 195.811 125 194.455C125 193.099 124.001 192 122.768 192C121.535 192 120.536 193.099 120.536 194.455C120.536 195.811 121.535 196.911 122.768 196.911Z" fill="#474747"/>
</g>
<g opacity="0.2">
<path d="M962.429 15.4287V32.5716H979.571V15.4287H962.429ZM976.143 29.143H965.857V18.8573H976.143V29.143Z" fill="#474747"/>
<path d="M995 18.8571V15.4286H988.143V10.2857C988.143 9.3764 987.782 8.50433 987.139 7.86135C986.496 7.21837 985.624 6.85714 984.714 6.85714H979.571V0H976.143V6.85714H965.857V0H962.429V6.85714H957.286C956.376 6.85714 955.504 7.21837 954.861 7.86135C954.218 8.50433 953.857 9.3764 953.857 10.2857V15.4286H947V18.8571H953.857V29.1429H947V32.5714H953.857V37.7143C953.857 38.6236 954.218 39.4957 954.861 40.1387C955.504 40.7816 956.376 41.1429 957.286 41.1429H962.429V48H965.857V41.1429H976.143V48H979.571V41.1429H984.714C985.624 41.1429 986.496 40.7816 987.139 40.1387C987.782 39.4957 988.143 38.6236 988.143 37.7143V32.5714H995V29.1429H988.143V18.8571H995ZM984.714 37.7143H957.286V10.2857H984.714V37.7143Z" fill="#474747"/>
</g>
<g opacity="0.2">
<path d="M312.429 167.429V184.572H329.571V167.429H312.429ZM326.143 181.143H315.857V170.857H326.143V181.143Z" fill="#474747"/>
<path d="M345 170.857V167.429H338.143V162.286C338.143 161.376 337.782 160.504 337.139 159.861C336.496 159.218 335.624 158.857 334.714 158.857H329.571V152H326.143V158.857H315.857V152H312.429V158.857H307.286C306.376 158.857 305.504 159.218 304.861 159.861C304.218 160.504 303.857 161.376 303.857 162.286V167.429H297V170.857H303.857V181.143H297V184.571H303.857V189.714C303.857 190.624 304.218 191.496 304.861 192.139C305.504 192.782 306.376 193.143 307.286 193.143H312.429V200H315.857V193.143H326.143V200H329.571V193.143H334.714C335.624 193.143 336.496 192.782 337.139 192.139C337.782 191.496 338.143 190.624 338.143 189.714V184.571H345V181.143H338.143V170.857H345ZM334.714 189.714H307.286V162.286H334.714V189.714Z" fill="#474747"/>
</g>
<g opacity="0.2">
<path d="M202.429 420.429V437.572H219.571V420.429H202.429ZM216.143 434.143H205.857V423.857H216.143V434.143Z" fill="#474747"/>
<path d="M235 423.857V420.429H228.143V415.286C228.143 414.376 227.782 413.504 227.139 412.861C226.496 412.218 225.624 411.857 224.714 411.857H219.571V405H216.143V411.857H205.857V405H202.429V411.857H197.286C196.376 411.857 195.504 412.218 194.861 412.861C194.218 413.504 193.857 414.376 193.857 415.286V420.429H187V423.857H193.857V434.143H187V437.571H193.857V442.714C193.857 443.624 194.218 444.496 194.861 445.139C195.504 445.782 196.376 446.143 197.286 446.143H202.429V453H205.857V446.143H216.143V453H219.571V446.143H224.714C225.624 446.143 226.496 445.782 227.139 445.139C227.782 444.496 228.143 443.624 228.143 442.714V437.571H235V434.143H228.143V423.857H235ZM224.714 442.714H197.286V415.286H224.714V442.714Z" fill="#474747"/>
</g>
<g opacity="0.2">
<path d="M252.393 331.393V339.607H260.607V331.393H252.393ZM258.964 337.964H254.036V333.035H258.964V337.964Z" fill="#474747"/>
<path d="M268 333.036V331.393H264.714V328.929C264.714 328.493 264.541 328.075 264.233 327.767C263.925 327.459 263.507 327.286 263.071 327.286H260.607V324H258.964V327.286H254.036V324H252.393V327.286H249.929C249.493 327.286 249.075 327.459 248.767 327.767C248.459 328.075 248.286 328.493 248.286 328.929V331.393H245V333.036H248.286V337.964H245V339.607H248.286V342.071C248.286 342.507 248.459 342.925 248.767 343.233C249.075 343.541 249.493 343.714 249.929 343.714H252.393V347H254.036V343.714H258.964V347H260.607V343.714H263.071C263.507 343.714 263.925 343.541 264.233 343.233C264.541 342.925 264.714 342.507 264.714 342.071V339.607H268V337.964H264.714V333.036H268ZM263.071 342.071H249.929V328.929H263.071V342.071Z" fill="#474747"/>
</g>
<g opacity="0.2">
<path d="M14.3929 15.3926V23.6069H22.6072V15.3926H14.3929ZM20.9644 21.964H16.0358V17.0354H20.9644V21.964Z" fill="#474747"/>
<path d="M30 17.0357V15.3929H26.7143V12.9286C26.7143 12.4929 26.5412 12.075 26.2331 11.7669C25.925 11.4588 25.5071 11.2857 25.0714 11.2857H22.6071V8H20.9643V11.2857H16.0357V8H14.3929V11.2857H11.9286C11.4929 11.2857 11.075 11.4588 10.7669 11.7669C10.4588 12.075 10.2857 12.4929 10.2857 12.9286V15.3929H7V17.0357H10.2857V21.9643H7V23.6071H10.2857V26.0714C10.2857 26.5071 10.4588 26.925 10.7669 27.2331C11.075 27.5412 11.4929 27.7143 11.9286 27.7143H14.3929V31H16.0357V27.7143H20.9643V31H22.6071V27.7143H25.0714C25.5071 27.7143 25.925 27.5412 26.2331 27.2331C26.5412 26.925 26.7143 26.5071 26.7143 26.0714V23.6071H30V21.9643H26.7143V17.0357H30ZM25.0714 26.0714H11.9286V12.9286H25.0714V26.0714Z" fill="#474747"/>
</g>
<g opacity="0.2">
<path d="M7.39292 449.393V457.607H15.6072V449.393H7.39292ZM13.9644 455.964H9.03578V451.035H13.9644V455.964Z" fill="#474747"/>
<path d="M23 451.036V449.393H19.7143V446.929C19.7143 446.493 19.5412 446.075 19.2331 445.767C18.925 445.459 18.5071 445.286 18.0714 445.286H15.6071V442H13.9643V445.286H9.03571V442H7.39286V445.286H4.92857C4.49286 445.286 4.07499 445.459 3.7669 445.767C3.4588 446.075 3.28571 446.493 3.28571 446.929V449.393H0V451.036H3.28571V455.964H0V457.607H3.28571V460.071C3.28571 460.507 3.4588 460.925 3.7669 461.233C4.07499 461.541 4.49286 461.714 4.92857 461.714H7.39286V465H9.03571V461.714H13.9643V465H15.6071V461.714H18.0714C18.5071 461.714 18.925 461.541 19.2331 461.233C19.5412 460.925 19.7143 460.507 19.7143 460.071V457.607H23V455.964H19.7143V451.036H23ZM18.0714 460.071H4.92857V446.929H18.0714V460.071Z" fill="#474747"/>
</g>
<g opacity="0.2">
<path fill-rule="evenodd" clip-rule="evenodd" d="M1014.57 115H1013.14V122.5H1014.57V115ZM1023.29 122.5H1018.72L1018.15 121.675V120.175L1018.72 119.5H1023.29L1023.87 120.25V121.75L1023.29 122.5ZM1016.15 127H1011.57L1011 126.25V124.75L1011.57 124H1016.15L1016.72 124.75V126.25L1016.15 127ZM1021.72 115H1020.29V118H1021.72V115ZM1020.29 124H1021.72V133H1020.29V124ZM1014.57 128.5H1013.14V133H1014.57V128.5ZM1025.87 128.5H1030.43L1031 127.75V126.325L1030.43 125.575H1025.87L1025.3 126.325V127.75L1025.87 128.5ZM1028.87 115H1027.44V124H1028.87V115ZM1027.44 130H1028.87V133H1027.44V130Z" fill="#474747"/>
</g>
<g opacity="0.2">
<path fill-rule="evenodd" clip-rule="evenodd" d="M969.931 326H968.359V334.25H969.931V326ZM979.524 334.25H974.492L973.863 333.342V331.692L974.492 330.95H979.524L980.153 331.775V333.425L979.524 334.25ZM971.661 339.2H966.629L966 338.375V336.725L966.629 335.9H971.661L972.29 336.725V338.375L971.661 339.2ZM977.794 326H976.222V329.3H977.794V326ZM976.222 335.9H977.794V345.8H976.222V335.9ZM969.931 340.85H968.359V345.8H969.931V340.85ZM982.355 340.85H987.371L988 340.025V338.458L987.371 337.632H982.355L981.726 338.458V340.025L982.355 340.85ZM985.657 326H984.084V335.9H985.657V326ZM984.084 342.5H985.657V345.8H984.084V342.5Z" fill="#474747"/>
</g>
<g opacity="0.2">
<path fill-rule="evenodd" clip-rule="evenodd" d="M496.574 91H495.144V98.5H496.574V91ZM505.294 98.5H500.72L500.148 97.675V96.175L500.72 95.5H505.294L505.866 96.25V97.75L505.294 98.5ZM498.147 103H493.572L493 102.25V100.75L493.572 100H498.147L498.718 100.75V102.25L498.147 103ZM503.722 91H502.292V94H503.722V91ZM502.292 100H503.722V109H502.292V100ZM496.574 104.5H495.144V109H496.574V104.5ZM507.868 104.5H512.428L513 103.75V102.325L512.428 101.575H507.868L507.296 102.325V103.75L507.868 104.5ZM510.87 91H509.44V100H510.87V91ZM509.44 106H510.87V109H509.44V106Z" fill="#474747"/>
</g>
<g opacity="0.2">
<path fill-rule="evenodd" clip-rule="evenodd" d="M716.574 440H715.144V447.5H716.574V440ZM725.294 447.5H720.72L720.148 446.675V445.175L720.72 444.5H725.294L725.866 445.25V446.75L725.294 447.5ZM718.147 452H713.572L713 451.25V449.75L713.572 449H718.147L718.718 449.75V451.25L718.147 452ZM723.722 440H722.292V443H723.722V440ZM722.292 449H723.722V458H722.292V449ZM716.574 453.5H715.144V458H716.574V453.5ZM727.868 453.5H732.428L733 452.75V451.325L732.428 450.575H727.868L727.296 451.325V452.75L727.868 453.5ZM730.87 440H729.44V449H730.87V440ZM729.44 455H730.87V458H729.44V455Z" fill="#474747"/>
</g>
<g opacity="0.2">
<path fill-rule="evenodd" clip-rule="evenodd" d="M584.574 366H583.144V373.5H584.574V366ZM593.294 373.5H588.72L588.148 372.675V371.175L588.72 370.5H593.294L593.866 371.25V372.75L593.294 373.5ZM586.147 378H581.572L581 377.25V375.75L581.572 375H586.147L586.718 375.75V377.25L586.147 378ZM591.722 366H590.292V369H591.722V366ZM590.292 375H591.722V384H590.292V375ZM584.574 379.5H583.144V384H584.574V379.5ZM595.868 379.5H600.428L601 378.75V377.325L600.428 376.575H595.868L595.296 377.325V378.75L595.868 379.5ZM598.87 366H597.44V375H598.87V366ZM597.44 381H598.87V384H597.44V381Z" fill="#474747"/>
</g>
</svg>
