<svg width="24" height="16" viewBox="0 0 24 16" fill="none" xmlns="http://www.w3.org/2000/svg">
<path d="M8 9H10.55V6H13.45V9H16L12 13L8 9ZM19.35 6.04C21.95 6.22 24 8.36 24 11C24 11.6566 23.8707 12.3068 23.6194 12.9134C23.3681 13.52 22.9998 14.0712 22.5355 14.5355C22.0712 14.9998 21.52 15.3681 20.9134 15.6194C20.3068 15.8707 19.6566 16 19 16H6C4.4087 16 2.88258 15.3679 1.75736 14.2426C0.632141 13.1174 0 11.5913 0 10C0 6.91 2.34 4.36 5.35 4.04C5.98257 2.82249 6.93716 1.80196 8.10975 1.08958C9.28235 0.377207 10.628 0.000324676 12 1.91737e-07C13.7351 -0.000392242 15.4165 0.601633 16.7571 1.70325C18.0976 2.80486 19.0141 4.33772 19.35 6.04ZM19 14C19.7956 14 20.5587 13.6839 21.1213 13.1213C21.6839 12.5587 22 11.7956 22 11C21.9966 10.2466 21.708 9.52238 21.1922 8.97319C20.6764 8.42399 19.9717 8.09056 19.22 8.04L17.69 7.93L17.39 6.43C17.142 5.18243 16.4694 4.0593 15.4868 3.25165C14.5041 2.444 13.272 2.00171 12 2C9.94 2 8.08 3.14 7.13 4.97L6.63 5.92L5.56 6.03C4.57994 6.13242 3.67291 6.5954 3.01504 7.32904C2.35717 8.06267 1.99541 9.01461 2 10C2 11.0609 2.42143 12.0783 3.17157 12.8284C3.92172 13.5786 4.93913 14 6 14H19Z" fill="white"/>
</svg>
