<svg width="23" height="27" viewBox="0 0 23 27" fill="none" xmlns="http://www.w3.org/2000/svg">
<path d="M7.67762 23.6011C6.9069 23.3429 5.37139 22.8976 5.69683 20.2904L6.17465 16.4634C6.26415 15.746 7.04522 15.5278 7.89729 15.1239C8.63768 14.7726 10.4232 13.5685 10.8625 10.0522C11.2457 6.97818 10.6665 2.12165 10.5149 0.949304L7.1288 0.55803L3.7412 0.166016C3.32552 1.27327 1.65317 5.86871 1.32477 8.94935C0.949768 12.473 2.41353 14.0529 3.05407 14.564C3.7915 15.1513 4.5023 15.5418 4.42538 16.2608C4.34919 16.9797 4.29446 17.4827 4.01709 20.0959C3.73898 22.7083 2.14208 22.7911 1.33291 22.8666C-0.203345 23.0093 -0.288405 24.2586 0.454203 24.337C1.19829 24.4169 4.32627 24.783 4.32627 24.783C4.32627 24.783 7.45572 25.141 8.19759 25.2327C8.93872 25.3267 9.14064 24.0907 7.67762 23.6011Z" fill="#DFDFDF"/>
<path d="M9.63997 2.51257C9.35669 2.69231 7.89514 3.48003 6.13182 3.62796C4.90918 3.73151 3.39438 3.57619 3.14585 4.39794C2.64437 6.05549 2.2457 7.52 2.0852 9.02962C1.78046 11.8884 2.77159 13.2671 3.36479 13.8225L3.38106 13.8366C3.45355 13.895 4.15917 14.4342 5.48906 14.5881C6.81007 14.7412 7.64662 14.3862 7.74277 14.3425C7.75313 14.3381 7.75609 14.3359 7.7657 14.3307C8.47059 13.9246 9.74796 12.8085 10.1037 9.95714C10.3656 7.85506 10.1548 4.82841 9.96024 2.85873C9.94545 2.70784 9.92326 2.33284 9.63997 2.51257Z" fill="#2DA6FE"/>
<path d="M14.8254 24.6726C15.5962 24.4144 17.1317 23.9692 16.8062 21.3619L16.3284 17.535C16.2389 16.8175 15.4578 16.5993 14.6058 16.1955C13.8654 15.8441 12.0799 14.64 11.6405 11.1237C11.2574 8.04971 11.8365 3.19317 11.9881 2.02083L15.3743 1.62956L18.7604 1.23828C19.1761 2.34554 20.8484 6.94097 21.1768 10.0216C21.5518 13.5453 20.088 15.1252 19.4475 15.6363C18.7101 16.2236 17.9993 16.6141 18.0762 17.333C18.1524 18.052 18.2071 18.5549 18.4845 21.1681C18.7626 23.7806 20.3595 23.8634 21.1687 23.9388C22.7049 24.0816 22.79 25.3309 22.0474 25.4093C21.3033 25.4892 18.1753 25.8553 18.1753 25.8553C18.1753 25.8553 15.0459 26.2133 14.304 26.305C13.5643 26.3982 13.3624 25.163 14.8254 24.6726Z" fill="#DFDFDF"/>
<path d="M12.8628 3.58679C13.1461 3.76653 14.6083 4.55425 16.3709 4.70218C17.5936 4.80499 19.1091 4.64967 19.3576 5.47216C19.8591 7.12971 20.2578 8.59421 20.4183 10.1038C20.723 12.9626 19.7319 14.3413 19.1387 14.8968L19.1224 14.9108C19.0499 14.9692 18.3443 15.5085 17.0144 15.6623C15.6934 15.8154 14.8569 15.4604 14.7607 15.4167C14.7503 15.4123 14.7474 15.4101 14.7378 15.4049C14.0329 14.9988 12.7555 13.8827 12.3997 11.0314C12.1379 8.92928 12.3487 5.90263 12.5432 3.93295C12.5573 3.78206 12.5795 3.40706 12.8628 3.58679Z" fill="#2DA6FE"/>
</svg>
