<svg width="26" height="26" viewBox="0 0 26 26" fill="none" xmlns="http://www.w3.org/2000/svg">
<path d="M18.4984 11.2634C19.0678 11.265 19.6319 11.1536 20.158 10.9356C20.6841 10.7177 21.1617 10.3976 21.5633 9.99376L25.7343 5.82564C26.0642 5.49576 26.0945 4.95897 25.7803 4.61284C25.7014 4.52588 25.6057 4.45585 25.499 4.407C25.3922 4.35816 25.2766 4.3315 25.1593 4.32867C25.0419 4.32583 24.9252 4.34687 24.8162 4.3905C24.7072 4.43414 24.6082 4.49946 24.5252 4.58251L20.8076 8.29726C20.6828 8.42193 20.5136 8.49195 20.3371 8.49195C20.1607 8.49195 19.9915 8.42193 19.8667 8.29726C19.6072 8.03834 19.6213 7.60068 19.8802 7.34176L23.5816 3.64055C23.6646 3.55758 23.7298 3.45863 23.7734 3.34969C23.817 3.24076 23.838 3.1241 23.8352 3.00681C23.8323 2.88951 23.8057 2.77401 23.7569 2.6673C23.7081 2.5606 23.6381 2.46492 23.5513 2.38605C23.3944 2.24379 23.1899 2.16551 22.9782 2.16668C22.7382 2.16684 22.508 2.26231 22.3384 2.4321L18.6403 6.12951C18.5155 6.25418 18.3463 6.3242 18.1698 6.3242C17.9934 6.3242 17.8242 6.25418 17.6994 6.12951C17.4404 5.87059 17.454 5.43293 17.7129 5.17401L21.4143 1.47389C21.4973 1.39092 21.5625 1.29196 21.6061 1.18303C21.6497 1.07409 21.6707 0.957438 21.6679 0.84014C21.665 0.722842 21.6384 0.607341 21.5896 0.500638C21.5408 0.393935 21.4708 0.298251 21.384 0.219388C21.2271 0.0771254 21.0226 -0.00115243 20.8109 1.28248e-05C20.5709 0.000296893 20.3408 0.0957483 20.1711 0.265429L16.0028 4.43355C15.5989 4.83513 15.2788 5.31283 15.0608 5.83899C14.8429 6.36516 14.7315 6.92933 14.7331 7.49884V7.94463C14.7332 8.05861 14.7108 8.17148 14.6672 8.27679C14.6236 8.3821 14.5596 8.47778 14.479 8.55834L12.5501 10.4878C12.5299 10.5079 12.506 10.5239 12.4797 10.5348C12.4534 10.5457 12.4252 10.5513 12.3968 10.5513C12.3683 10.5513 12.3401 10.5457 12.3138 10.5348C12.2875 10.5239 12.2636 10.5079 12.2435 10.4878L2.85705 1.10122C2.69504 0.939041 2.47538 0.847644 2.24615 0.847035C2.01691 0.846426 1.79677 0.936654 1.63391 1.09797C0.813247 1.91101 0.375019 3.0588 0.375019 4.41676C0.369602 6.65926 1.54832 9.23759 3.45128 11.1378L8.08003 15.7663C8.73791 16.4228 9.62936 16.7916 10.5588 16.7917C10.8551 16.7918 11.1502 16.7539 11.4369 16.679C11.5089 16.6602 11.5829 16.6505 11.6574 16.6503C11.8749 16.6503 12.0845 16.7326 12.244 16.8805L12.861 17.4503C13.0201 17.6129 13.1095 17.8312 13.1102 18.0586V18.3587C13.1086 19.0409 13.3767 19.696 13.8561 20.1814L18.734 25.1415L18.7389 25.1469C19.2803 25.6882 20.0146 25.9923 20.7802 25.9922C21.5458 25.9922 22.28 25.688 22.8213 25.1466C23.3627 24.6052 23.6668 23.871 23.6667 23.1054C23.6667 22.3398 23.3625 21.6056 22.8211 21.0643L15.5093 13.7529C15.4892 13.7328 15.4732 13.7089 15.4623 13.6826C15.4514 13.6563 15.4458 13.6281 15.4458 13.5996C15.4458 13.5712 15.4514 13.543 15.4623 13.5167C15.4732 13.4904 15.4892 13.4665 15.5093 13.4463L17.4383 11.5175C17.5188 11.4369 17.6144 11.373 17.7196 11.3294C17.8248 11.2858 17.9376 11.2634 18.0515 11.2634H18.4984Z" fill="#2DA6FE"/>
<path d="M10.5592 18.5247C9.17155 18.5218 7.84101 17.972 6.85618 16.9945L6.1054 16.2437C6.02416 16.1627 5.91409 16.1172 5.79934 16.1172C5.68459 16.1172 5.57453 16.1627 5.49329 16.2437L0.888914 20.8241C0.0682523 21.6447 -0.224802 22.8526 0.181466 24.0356C0.204204 24.1023 0.231163 24.1674 0.262178 24.2306C0.808744 25.3497 1.86937 25.9997 3.02968 25.9997C3.4287 26.0007 3.82396 25.9225 4.19255 25.7696C4.56114 25.6167 4.89573 25.3923 5.17694 25.1092L11.3175 18.9396C11.3434 18.9132 11.3632 18.8815 11.3755 18.8467C11.3879 18.8119 11.3925 18.7749 11.3891 18.7381V18.724C11.3866 18.6903 11.3774 18.6573 11.3619 18.6272C11.3465 18.5971 11.325 18.5704 11.299 18.5488C11.2729 18.5272 11.2427 18.5111 11.2103 18.5014C11.1778 18.4918 11.1437 18.4888 11.1101 18.4927C10.9271 18.513 10.7432 18.5237 10.5592 18.5247Z" fill="#2DA6FE"/>
</svg>
