<svg width="28" height="25" viewBox="0 0 28 25" fill="none" xmlns="http://www.w3.org/2000/svg">
<path d="M4.34961 8.0816C5.66121 7.0624 6.74929 7.7653 8.20147 9.44662C8.36454 9.6364 8.58384 9.41429 8.70896 9.30604C8.83267 9.19639 10.7488 7.47149 10.8429 7.39276C10.9357 7.30982 11.0482 7.15519 10.9006 6.98227C10.545 6.54247 10.1968 6.09677 9.85608 5.64537C7.31442 2.32068 16.8091 0.0658001 15.3513 0.0306555C14.609 0.0109744 11.6316 -0.0241702 11.186 0.0250324C9.38233 0.214814 7.11761 1.90035 5.97752 2.68619C4.48598 3.70679 3.92928 4.30566 3.83791 4.3886C3.41617 4.75691 3.77043 5.60741 3.00568 6.27797C2.19735 6.98509 1.69268 6.44948 1.22455 6.85997C0.992594 7.06522 0.34312 7.55162 0.157556 7.71328C-0.0294132 7.87776 -0.0631521 8.1547 0.128035 8.37541C0.128035 8.37541 1.90495 10.3379 2.05396 10.5122C2.20157 10.6837 2.60363 10.8327 2.85104 10.612C3.09987 10.3927 3.7395 9.83462 3.84634 9.73621C3.95599 9.64343 3.77605 8.52583 4.34961 8.0816ZM12.3738 8.80839C12.2052 8.61299 11.9957 8.60736 11.8157 8.76762L9.79985 10.5277C9.72202 10.5983 9.67459 10.6963 9.66751 10.8012C9.66044 10.906 9.69426 11.0095 9.76189 11.09L21.4215 24.3592C21.6942 24.6727 22.1666 24.705 22.4772 24.4337L23.8409 23.2908C23.9909 23.1586 24.0828 22.9726 24.0965 22.7731C24.1102 22.5735 24.0446 22.3767 23.914 22.2252L12.3738 8.80839ZM27.9204 3.16134C27.8164 2.46689 27.4565 2.61168 27.2696 2.90549C27.0826 3.20211 26.256 4.45467 25.9158 5.02261C25.5784 5.58492 24.7462 6.6969 23.197 5.59898C21.5832 4.45889 22.1441 3.66321 22.4252 3.12761C22.7078 2.58919 23.5752 1.07937 23.7003 0.892403C23.8254 0.702622 23.6792 0.151553 23.1787 0.382102C22.6769 0.612651 19.6319 1.82303 19.2102 3.55918C18.7786 5.32485 19.5715 6.90355 18.0153 8.471L16.1273 10.4391L18.0237 12.6406L20.3489 10.4335C20.9028 9.87679 22.0864 9.33556 23.1576 9.58017C25.4533 10.0989 26.7058 9.23716 27.4608 7.81169C28.1383 6.53805 28.0259 3.8558 27.9204 3.16134ZM3.79292 22.3686C3.65231 22.5103 3.5734 22.7018 3.5734 22.9014C3.5734 23.101 3.65231 23.2925 3.79292 23.4342L5.12983 24.7416C5.42223 25.0354 5.88614 24.9117 6.17854 24.6179L13.0767 17.8364L10.9638 15.4268L3.79292 22.3686Z" fill="#2DA6FE"/>
</svg>
