<svg width="322" height="211" viewBox="0 0 322 211" fill="none" xmlns="http://www.w3.org/2000/svg">
<path d="M230.419 48.2422H203.003V87.9806H230.419V48.2422Z" fill="#E0E0E0"/>
<path d="M229.048 48.2422H201.631V87.9806H229.048V48.2422Z" fill="#F5F5F5"/>
<path d="M225.641 52.5449H205.037V83.6786H225.641V52.5449Z" fill="white"/>
<path d="M225.636 83.6732C225.636 83.6732 225.636 83.624 225.636 83.5256V83.0828C225.636 82.6892 225.636 82.1206 225.636 81.3772C225.636 79.8847 225.636 77.7089 225.636 74.9591C225.636 69.4923 225.636 61.6965 225.603 52.5451L225.668 52.6107H205.069L205.146 52.5341C205.146 64.2769 205.146 75.1067 205.146 83.6623L205.086 83.6076H220.087H224.225H225.636H225.275H224.181H220.049H205.015H204.955V83.5475C204.955 74.9919 204.955 64.1621 204.955 52.4193V52.3428H225.701V52.4138C225.701 61.5872 225.674 69.361 225.668 74.8771C225.668 77.6105 225.668 79.7972 225.668 81.2733C225.668 82.0113 225.668 82.5799 225.668 82.968V83.3999C225.667 83.4919 225.656 83.5835 225.636 83.6732Z" fill="#E0E0E0"/>
<path d="M229.124 48.2422C228.983 48.4931 228.82 48.731 228.637 48.9529C228.32 49.3738 227.866 49.9533 227.352 50.5929C226.838 51.2325 226.352 51.7738 225.996 52.1674C225.812 52.3897 225.609 52.5963 225.39 52.7851C225.555 52.5441 225.737 52.3157 225.936 52.1018L227.259 50.5L228.577 48.8982C228.739 48.6639 228.922 48.4443 229.124 48.2422Z" fill="#E0E0E0"/>
<path d="M225.745 83.5752C226.772 85.2031 227.979 86.7105 229.342 88.0689L225.745 83.5752Z" fill="white"/>
<path d="M229.342 88.0688C229.113 87.9099 228.903 87.7266 228.714 87.5221C228.236 87.0351 227.784 86.5242 227.358 85.9914C226.932 85.4662 226.534 84.9187 226.166 84.3513C226 84.1209 225.859 83.8735 225.745 83.6133C225.934 83.8239 226.104 84.0507 226.254 84.2912C226.554 84.7176 226.981 85.2971 227.473 85.9312C227.965 86.5654 228.446 87.0956 228.79 87.4838C228.988 87.665 229.173 87.8605 229.342 88.0688Z" fill="#E0E0E0"/>
<path d="M201.631 87.9487L205.218 83.5205L201.631 87.9487Z" fill="white"/>
<path d="M205.218 83.5205C204.68 84.3027 204.101 85.0563 203.485 85.7783C202.49 87.0029 201.659 87.9651 201.631 87.9651C202.168 87.1804 202.747 86.4249 203.364 85.7018C203.945 84.9439 204.563 84.2159 205.218 83.5205Z" fill="#E0E0E0"/>
<path d="M201.631 48.2422C202.251 48.9031 202.834 49.5985 203.375 50.3251C203.959 51.0251 204.507 51.755 205.015 52.5118C204.395 51.8508 203.813 51.1554 203.271 50.4289C202.684 49.7311 202.137 49.001 201.631 48.2422Z" fill="#E0E0E0"/>
<path d="M219.223 58.8652H212.324V78.4529H219.223V58.8652Z" fill="#E0E0E0"/>
<path d="M175.887 159.427C174.64 159.839 173.489 160.498 172.503 161.365C171.517 162.232 170.715 163.289 170.147 164.473C169.027 166.851 168.466 169.454 168.507 172.083C168.441 177.151 170.634 182.552 173.181 186.931C177.855 183.793 179.637 177.517 180.343 174.275C181.436 169.147 180.343 159.214 175.893 159.427" fill="#F5F5F5"/>
<path d="M167.244 194.562C167.714 193.169 167.807 191.677 167.513 190.237C167.219 188.796 166.549 187.46 165.571 186.362C164.578 185.284 163.38 184.414 162.047 183.804C160.715 183.194 159.273 182.856 157.808 182.809C156.458 182.737 154.96 182.945 154.053 183.951C153.658 184.447 153.402 185.039 153.313 185.667C153.224 186.295 153.303 186.935 153.544 187.521C154.043 188.691 154.843 189.707 155.862 190.468C159.213 193.201 162.969 195.262 167.244 194.551" fill="#F5F5F5"/>
<path d="M170.749 206.742C170.812 205.625 170.761 204.504 170.596 203.397C170.463 202.18 170.184 200.983 169.765 199.832C169.297 198.418 168.736 197.035 168.087 195.694C166.889 193.23 165.102 191.1 162.882 189.494C162.196 189.026 161.463 188.628 160.696 188.308C160.422 188.177 160.128 188.092 159.826 188.057C159.783 188.15 161.002 188.603 162.625 189.817C164.701 191.471 166.382 193.566 167.546 195.951C168.182 197.271 168.746 198.625 169.235 200.007C169.662 201.12 169.974 202.274 170.164 203.451C170.503 205.479 170.662 206.753 170.749 206.742Z" fill="#E0E0E0"/>
<path d="M176.057 167.081C175.882 167.616 175.754 168.164 175.675 168.721C175.467 169.814 175.188 171.345 174.86 173.264C174.199 177.091 173.351 182.416 172.553 188.309C171.755 194.202 171.192 199.554 170.864 203.441C170.7 205.382 170.585 206.951 170.525 208.039C170.46 208.601 170.449 209.169 170.492 209.733C170.624 209.184 170.708 208.624 170.743 208.06C170.88 206.874 171.055 205.327 171.29 203.479C171.722 199.609 172.351 194.268 173.143 188.385C173.936 182.503 174.723 177.277 175.281 173.324C175.543 171.476 175.757 169.935 175.921 168.759C176.014 168.205 176.06 167.643 176.057 167.081Z" fill="#E0E0E0"/>
<path d="M173.345 197.285C174.637 194.474 176.579 192.011 179.012 190.1C181.445 188.189 184.298 186.885 187.335 186.296C188.877 186.012 190.779 186.067 191.627 187.39C192.474 188.713 191.73 190.473 190.796 191.763C188.795 194.364 186.07 196.316 182.962 197.371C179.855 198.427 176.505 198.539 173.334 197.695" fill="#F5F5F5"/>
<path d="M185.181 190.37C184.883 190.384 184.589 190.447 184.312 190.556C183.765 190.709 182.972 190.977 182.016 191.332C179.485 192.252 177.146 193.631 175.117 195.4C174.022 196.41 173.099 197.592 172.383 198.898C171.81 199.97 171.389 201.117 171.131 202.304C170.956 203.099 170.853 203.907 170.825 204.721C170.775 205.015 170.775 205.317 170.825 205.612C170.94 205.612 170.984 204.349 171.492 202.403C172.16 199.868 173.546 197.581 175.483 195.815C177.473 194.098 179.724 192.71 182.152 191.704C184.038 190.889 185.225 190.458 185.181 190.37Z" fill="#E0E0E0"/>
<path d="M280.08 63.6261C280.08 63.6261 274.351 61.9368 272.033 75.1064C269.715 88.276 269.529 95.5305 269.529 95.5305C269.529 95.5305 268.725 98.3897 266.604 97.3291C264.483 96.2686 260.88 92.5347 258.338 94.1857C255.698 95.8968 255.736 99.4175 257.742 103.988C259.749 108.558 263.756 118.748 264.128 119.667C264.499 120.585 264.368 122.099 262.81 121.613C261.252 121.126 251.33 115.146 248.76 120.066C246.191 124.986 253.877 136.772 254.692 138.106C255.506 139.44 255.414 140.107 254.845 140.665C254.276 141.222 251.128 138.899 248.23 137.314C245.333 135.728 241.697 134.4 240.462 137.341C239.226 140.282 241.555 150.199 255.671 163.161L262.592 168.737L270.972 165.654C288.504 157.956 293.933 149.341 293.725 146.153C293.517 142.966 289.636 143.026 286.383 143.573C283.13 144.12 279.397 145.317 279.036 144.601C278.675 143.885 278.817 143.201 280.014 142.228C281.212 141.255 292.304 132.552 291.467 127.102C290.631 121.651 279.293 124.095 277.658 124.051C276.024 124.007 276.417 122.526 277.04 121.788C277.664 121.05 284.787 112.702 288.165 109.023C291.544 105.344 292.719 102.031 290.779 99.5541C288.909 97.1651 284.284 99.5541 281.939 99.8493C279.593 100.145 279.752 97.2034 279.752 97.2034C279.752 97.2034 281.939 90.2824 284 77.0636C286.061 63.8447 279.954 63.6151 279.954 63.6151" fill="#F5F5F5"/>
<path d="M277.986 75.4297C277.986 75.4297 277.986 75.5226 277.958 75.7085L277.844 76.5231C277.734 77.2501 277.576 78.3052 277.379 79.6501C276.969 82.3835 276.351 86.2978 275.569 91.1304C274.006 100.834 271.743 114.217 269.179 128.994C266.615 143.771 264.313 157.148 262.7 166.841C261.897 171.679 261.246 175.588 260.798 178.321C260.574 179.666 260.399 180.716 260.251 181.443C260.191 181.787 260.147 182.055 260.109 182.252C260.071 182.449 260.049 182.525 260.049 182.525C260.049 182.525 260.049 182.432 260.082 182.246C260.115 182.06 260.147 181.782 260.191 181.432C260.301 180.705 260.459 179.649 260.656 178.305C261.066 175.571 261.684 171.657 262.465 166.824C264.029 157.121 266.292 143.732 268.862 128.956C271.431 114.179 273.743 100.807 275.384 91.0922C276.182 86.254 276.832 82.3452 277.286 79.6118L277.805 76.4902L277.947 75.6812C277.956 75.5967 277.969 75.5128 277.986 75.4297Z" fill="#E0E0E0"/>
<path d="M263.171 99.6309C263.321 99.7851 263.453 99.9556 263.565 100.139C263.805 100.478 264.111 100.976 264.538 101.593C265.341 102.834 266.408 104.573 267.545 106.514L270.437 111.505L271.317 113.008C271.442 113.176 271.543 113.36 271.617 113.555C271.465 113.403 271.331 113.235 271.218 113.052C270.983 112.713 270.672 112.216 270.256 111.592C269.463 110.34 268.419 108.586 267.282 106.645L264.357 101.675C264.008 101.085 263.707 100.582 263.466 100.172C263.345 100.005 263.245 99.8235 263.171 99.6309Z" fill="#E0E0E0"/>
<path d="M272.449 113.505C272.4 113.434 275.893 111.084 280.25 108.246C284.607 105.409 288.166 103.173 288.215 103.239C288.264 103.304 284.766 105.666 280.414 108.498C276.062 111.33 272.492 113.566 272.449 113.505Z" fill="#E0E0E0"/>
<path d="M267.495 136.007C267.692 135.91 267.9 135.835 268.113 135.783L269.819 135.263C271.257 134.821 273.246 134.208 275.411 133.448C277.576 132.689 279.522 131.95 280.927 131.398L282.567 130.748C282.767 130.651 282.978 130.581 283.196 130.54C283.015 130.664 282.82 130.769 282.617 130.852C282.234 131.038 281.682 131.294 280.977 131.595C279.599 132.196 277.664 132.978 275.51 133.733C273.356 134.487 271.333 135.078 269.879 135.466C269.146 135.657 268.556 135.805 268.14 135.898C267.931 135.96 267.714 135.996 267.495 136.007Z" fill="#E0E0E0"/>
<path d="M256.343 125.314C256.517 125.418 256.679 125.543 256.824 125.686C257.119 125.938 257.545 126.309 258.059 126.78C259.098 127.714 260.514 129.015 262.066 130.464C263.619 131.913 265.013 133.241 266.013 134.214C266.511 134.696 266.91 135.095 267.183 135.373C267.334 135.51 267.47 135.662 267.588 135.827C267.411 135.728 267.249 135.605 267.107 135.461C266.806 135.209 266.385 134.832 265.866 134.368C264.833 133.438 263.411 132.137 261.859 130.683C260.306 129.229 258.912 127.906 257.917 126.938C257.414 126.452 257.015 126.058 256.742 125.774C256.589 125.639 256.455 125.484 256.343 125.314Z" fill="#E0E0E0"/>
<path d="M249.444 144.634C249.664 144.772 249.87 144.933 250.056 145.115L251.647 146.509C252.981 147.695 254.807 149.346 256.818 151.189C258.83 153.031 260.645 154.709 261.93 155.934L263.455 157.399C263.655 157.562 263.838 157.746 264.002 157.946C263.784 157.804 263.579 157.643 263.39 157.464L261.799 156.07C260.465 154.884 258.639 153.228 256.627 151.391C254.615 149.554 252.8 147.87 251.521 146.646L249.979 145.213C249.781 145.039 249.601 144.845 249.444 144.634Z" fill="#E0E0E0"/>
<path d="M263.729 157.547C263.977 157.424 264.235 157.324 264.5 157.246L266.643 156.508C268.447 155.885 270.94 155.016 273.668 153.983C276.396 152.949 278.839 151.954 280.6 151.222L282.693 150.353C282.945 150.234 283.206 150.139 283.475 150.068C283.246 150.225 283 150.357 282.743 150.462C282.262 150.697 281.562 151.009 280.687 151.413C278.943 152.2 276.505 153.228 273.772 154.261C271.038 155.295 268.534 156.147 266.708 156.694C265.795 156.978 265.068 157.197 264.522 157.339C264.265 157.434 263.999 157.504 263.729 157.547Z" fill="#E0E0E0"/>
<path d="M87.784 180.393C100.407 173.188 104.507 158.056 105.278 144.186C105.409 141.868 105.885 139.463 104.972 137.336C104.059 135.21 101.626 133.591 99.4721 134.373C97.6844 135.024 96.7387 136.948 95.6453 138.512C94.1617 140.593 92.1209 142.213 89.7575 143.186C88.2159 143.814 86.3571 144.11 84.9795 143.186C83.088 141.901 83.1044 139.129 83.3394 136.839C83.7731 132.553 84.1904 128.274 84.5913 124.003C84.8155 121.712 85.0396 119.367 84.5257 117.125C84.0119 114.884 82.6178 112.708 80.4912 111.899C78.3646 111.09 75.5437 112.096 74.8768 114.304C74.6034 115.223 74.7018 116.207 74.5542 117.153C74.4066 118.098 73.8599 119.115 72.9142 119.301C71.9684 119.487 71.1156 118.754 70.4924 118.016C68.3056 115.48 66.9991 112.347 65.769 109.237C64.539 106.126 63.3581 102.961 61.4393 100.233C59.5204 97.5049 56.7323 95.2361 53.4632 94.766C50.194 94.2958 46.5039 95.9906 45.3777 99.1395C44.2515 102.288 45.8315 105.754 47.6465 108.564C50.3536 112.723 53.6457 116.47 57.4212 119.689C58.099 120.269 58.8316 120.897 59.0612 121.772C59.4166 123.347 57.8257 124.735 56.2731 125.101C54.5073 125.511 52.665 125.162 50.861 125.211C49.0569 125.26 47.0342 125.867 46.2087 127.501C45.0497 129.759 46.7882 132.422 48.5704 134.187C52.142 137.769 56.3051 140.708 60.8762 142.874C62.5163 143.645 64.2328 144.35 65.4847 145.662C66.7367 146.974 67.3708 149.112 66.4032 150.653C65.4356 152.195 63.2707 152.523 61.5322 152.031C59.7938 151.539 58.3013 150.435 56.6722 149.648C53.6272 148.166 49.5325 148.008 47.2638 150.55C45.7713 152.222 45.4269 154.704 45.9025 156.902C46.3781 159.1 47.5699 161.068 48.8601 162.916C53.3702 169.312 59.4056 174.68 66.4961 177.889C73.5866 181.098 80.2944 182.405 87.8168 180.415" fill="#F5F5F5"/>
<path d="M87.0293 190.659C86.9714 184.188 86.296 177.737 85.012 171.394C83.4042 163.65 81.3544 156.004 78.8728 148.494L76.9375 142.584C76.3033 140.643 75.6747 138.719 74.9421 136.871C73.5336 133.332 71.9294 129.873 70.1367 126.512C68.4475 123.292 66.7309 120.296 65.1018 117.508C63.4727 114.72 61.8928 112.15 60.362 109.854C57.9597 106.251 55.2762 102.844 52.3367 99.6639C51.298 98.5377 50.4671 97.6903 49.893 97.1218L49.237 96.4822C49.1645 96.4066 49.0858 96.3371 49.002 96.2744C49.0635 96.3576 49.1311 96.4362 49.2042 96.5095L49.8329 97.1819C50.3796 97.7669 51.1996 98.6361 52.2165 99.7787C55.1029 102.998 57.7435 106.43 60.116 110.045C61.6303 112.325 63.1829 114.9 64.8011 117.699C66.4193 120.498 68.125 123.494 69.7978 126.708C71.5769 130.055 73.1738 133.495 74.5813 137.013C75.3029 138.85 75.9261 140.758 76.5548 142.704C77.1835 144.65 77.8231 146.619 78.4737 148.619C80.9467 156.111 83.0018 163.735 84.6293 171.454C85.9257 177.771 86.6285 184.195 86.7286 190.643" fill="#E0E0E0"/>
<path d="M74.8438 136.844C74.9889 136.539 75.0954 136.218 75.1608 135.887C75.3412 135.264 75.5654 134.356 75.8333 133.225C76.3799 130.967 76.9977 127.829 77.681 124.363C78.3644 120.897 79.0368 117.775 79.6054 115.534C79.8842 114.441 80.1193 113.506 80.2942 112.882C80.4009 112.563 80.4742 112.233 80.5129 111.898C80.3508 112.194 80.2242 112.508 80.1357 112.833C79.917 113.446 79.6327 114.342 79.3156 115.457C78.6705 117.682 77.9489 120.809 77.2656 124.281L75.538 133.186C75.3248 134.252 75.1444 135.154 74.9914 135.876C74.9118 136.193 74.8623 136.517 74.8438 136.844Z" fill="#E0E0E0"/>
<path d="M45.8372 128.627C46.2175 128.743 46.6071 128.825 47.0016 128.873C47.756 129.01 48.8439 129.201 50.1778 129.486C52.8566 130.032 56.5248 130.896 60.532 132.039C64.5392 133.181 68.12 134.384 70.6894 135.319C71.9741 135.778 73.0073 136.177 73.718 136.45C74.0799 136.616 74.4571 136.746 74.8442 136.838C74.5096 136.622 74.1543 136.439 73.7836 136.292C73.0893 135.969 72.0725 135.526 70.7933 135.029C68.2457 134.012 64.6704 132.771 60.6468 131.618C57.2197 130.624 53.7437 129.809 50.2325 129.174C48.8877 128.933 47.7888 128.786 47.0289 128.698C46.6351 128.634 46.2358 128.61 45.8372 128.627Z" fill="#E0E0E0"/>
<path d="M84.6948 170.82C84.7899 170.718 84.8691 170.602 84.9299 170.476L85.5367 169.454C86.0834 168.568 86.7722 167.267 87.636 165.627C89.369 162.38 91.6268 157.815 94.0431 152.742C96.4595 147.668 98.6681 143.087 100.335 139.807L102.314 135.926L102.861 134.865C102.928 134.744 102.982 134.616 103.02 134.482C102.927 134.585 102.848 134.699 102.785 134.821L102.183 135.844C101.664 136.735 100.948 138.03 100.079 139.67C98.3455 142.923 96.0932 147.488 93.6714 152.561C91.2496 157.634 89.0464 162.21 87.3845 165.496L85.4 169.377L84.8534 170.438C84.783 170.557 84.7297 170.686 84.6948 170.82Z" fill="#E0E0E0"/>
<path d="M46.6348 154.584C46.7503 154.667 46.8774 154.734 47.012 154.781L48.1053 155.267L52.1781 157.017C55.6222 158.487 60.3784 160.581 65.5719 162.899C70.7654 165.217 75.5434 167.273 79.0203 168.672C80.7533 169.377 82.1637 169.929 83.1478 170.312L84.2794 170.728C84.4094 170.781 84.5452 170.82 84.684 170.842C84.571 170.758 84.4456 170.691 84.3122 170.646L83.2188 170.159L79.1242 168.393C75.6801 166.917 70.9239 164.823 65.7304 162.505C60.5369 160.187 55.7535 158.132 52.282 156.732C50.549 156.033 49.1386 155.475 48.1545 155.092L47.0229 154.682C46.8978 154.635 46.7676 154.601 46.6348 154.584Z" fill="#E0E0E0"/>
<path d="M126.598 15.4854V60.6086H61.7944L59.4546 15.8024L126.598 15.4854Z" fill="#E0E0E0"/>
<path d="M59.4546 15.8078V60.5156L124.258 60.5156V15.8078L59.4546 15.8078Z" fill="white"/>
<path d="M124.57 60.8217H59.1484V15.4961H124.57V60.8217ZM59.7662 60.2039H123.952V16.1084H59.7662V60.2039Z" fill="#E0E0E0"/>
<path d="M117.24 21.3564H66.4746V54.9556H117.24V21.3564Z" fill="white"/>
<path d="M117.245 21.3568H116.994H116.299H113.511L103.048 21.395L66.5021 21.4661L66.6497 21.3185C66.6497 31.5852 66.6497 42.9617 66.6497 54.9177L66.4857 54.7592L117.256 54.792L117.125 54.9177C117.158 44.6947 117.18 36.3304 117.196 30.4755C117.196 27.5562 117.196 25.2765 117.229 23.713C117.229 22.9422 117.229 22.3463 117.229 21.9363C117.229 21.5262 117.229 21.3185 117.229 21.3185C117.229 21.3185 117.229 21.5153 117.229 21.9089C117.229 22.3025 117.229 22.8984 117.229 23.6638C117.229 25.2164 117.229 27.4906 117.262 30.3935C117.262 36.2484 117.3 44.6619 117.327 54.9177V55.0489H117.202L66.431 55.0817H66.2725V54.9177C66.2725 42.9617 66.2725 31.5852 66.2725 21.3185V21.1709H66.4146L103.042 21.2474L113.473 21.2857H116.207H116.912L117.245 21.3568Z" fill="#E0E0E0"/>
<path d="M59.4438 15.6768C59.8349 15.8743 60.2018 16.1164 60.5371 16.3984C61.2041 16.8795 62.1061 17.5573 63.0792 18.3391C64.0523 19.1209 64.9106 19.8534 65.5174 20.4056C65.8648 20.6818 66.1753 21.0015 66.4413 21.3568C66.3812 21.4279 64.8013 20.1432 62.8769 18.5851C60.9526 17.0271 59.4 15.7533 59.4438 15.6768Z" fill="#E0E0E0"/>
<path d="M124.265 15.8027C123.198 16.8507 122.058 17.8209 120.853 18.7056C119.716 19.675 118.51 20.5611 117.245 21.357C118.318 20.3104 119.464 19.3404 120.673 18.4542C121.806 17.4861 123.006 16.6001 124.265 15.8027Z" fill="#E0E0E0"/>
<path d="M124.209 60.5216L116.987 54.6611L124.209 60.5216Z" fill="white"/>
<path d="M116.988 54.6611C118.285 55.5136 119.525 56.4505 120.7 57.4656C121.939 58.4015 123.112 59.4226 124.209 60.5216C122.91 59.6713 121.67 58.7343 120.497 57.7171C118.486 56.1044 116.928 54.7322 116.988 54.6611Z" fill="#E0E0E0"/>
<path d="M59.4438 60.5162C60.4999 59.4782 61.6289 58.5172 62.8224 57.6407C63.9489 56.6829 65.1419 55.806 66.3922 55.0166C65.3389 56.0555 64.2116 57.0165 63.0192 57.8922C61.8908 58.8501 60.696 59.727 59.4438 60.5162Z" fill="#E0E0E0"/>
<path d="M76.7849 31.8313V43.082H108.728V31.8313H76.7849Z" fill="#E0E0E0"/>
<path d="M276.237 5H241.588V55.2238H276.237V5Z" fill="#E0E0E0"/>
<path d="M274.504 5H239.855V55.2238H274.504V5Z" fill="#F5F5F5"/>
<path d="M270.196 10.4395H244.158V49.7843H270.196V10.4395Z" fill="white"/>
<path d="M270.202 49.7845C270.202 49.7845 270.202 49.7188 270.202 49.5931V49.0464C270.202 48.5489 270.202 47.8273 270.202 46.887C270.202 45.001 270.202 42.2566 270.202 38.7852C270.202 31.8478 270.175 22.0184 270.158 10.4505L270.246 10.538H244.158L244.256 10.4451C244.256 25.2875 244.256 38.971 244.256 49.8063L244.18 49.7298L263.133 49.7735H268.37H269.748H270.224H269.765H268.403H263.182L244.18 49.8118H244.109V49.7353C244.109 38.9164 244.109 25.2329 244.109 10.374V10.3467H270.349V10.4341C270.349 22.0293 270.322 31.8696 270.311 38.8234C270.311 42.2839 270.311 45.0283 270.284 46.9089C270.284 47.8383 270.284 48.5489 270.284 49.0464V49.5931C270.202 49.7243 270.202 49.7845 270.202 49.7845Z" fill="#E0E0E0"/>
<path d="M274.602 5C274.426 5.31846 274.219 5.61877 273.984 5.89656C273.58 6.44325 273.011 7.17034 272.344 7.96303C271.677 8.75572 271.081 9.45547 270.628 9.95296C270.403 10.2331 270.154 10.4929 269.884 10.7292C270.079 10.4225 270.3 10.1335 270.546 9.86549L272.213 7.84276C272.842 7.07193 273.416 6.37764 273.88 5.81456C274.097 5.52305 274.339 5.25055 274.602 5Z" fill="#E0E0E0"/>
<path d="M270.333 49.6582C271.629 51.7157 273.153 53.621 274.875 55.3382L270.333 49.6582Z" fill="white"/>
<path d="M274.876 55.3382C274.587 55.1256 274.322 54.8838 274.083 54.6166C273.618 54.1465 272.99 53.4741 272.366 52.6868C271.831 52.0126 271.329 51.312 270.863 50.5876C270.65 50.2972 270.467 49.9858 270.316 49.6582C270.552 49.9272 270.766 50.2141 270.956 50.5165C271.339 51.0632 271.874 51.7848 272.498 52.5666C273.121 53.3483 273.722 54.0371 274.165 54.5237C274.421 54.7778 274.659 55.05 274.876 55.3382Z" fill="#E0E0E0"/>
<path d="M239.85 55.1859L244.387 49.5879L239.85 55.1859Z" fill="white"/>
<path d="M244.387 49.5879C243.71 50.5793 242.98 51.5338 242.2 52.447C240.943 53.9887 239.893 55.2187 239.855 55.1805C240.534 54.1899 241.263 53.2356 242.042 52.3213C242.776 51.3701 243.558 50.4578 244.387 49.5879Z" fill="#E0E0E0"/>
<path d="M239.85 5C240.625 5.83846 241.355 6.71807 242.036 7.63501C242.77 8.50905 243.456 9.42148 244.092 10.3684C243.314 9.53158 242.584 8.65186 241.905 7.73342C241.172 6.85939 240.486 5.94696 239.85 5Z" fill="#E0E0E0"/>
<path d="M262.089 18.4268H253.369V43.1806H262.089V18.4268Z" fill="#E0E0E0"/>
<path d="M283.546 209.722C283.546 209.804 230.288 209.864 164.615 209.864C98.9422 209.864 45.6733 209.826 45.6733 209.722C45.6733 209.618 98.9149 209.58 164.615 209.58C230.316 209.58 283.546 209.668 283.546 209.722Z" fill="#263238"/>
<path d="M248.396 115.382C248.801 117.033 248.754 118.762 248.259 120.389C247.763 122.015 246.838 123.477 245.58 124.621C243.913 126.097 241.753 126.95 240.223 128.573C239.275 129.653 238.624 130.96 238.331 132.366C238.039 133.773 238.116 135.231 238.555 136.599C239.02 137.956 239.755 139.206 240.716 140.271C241.677 141.337 242.845 142.197 244.148 142.798C245.922 143.627 247.867 144.024 249.825 143.958C251.782 143.891 253.696 143.363 255.409 142.415C259.635 140.026 262.095 135.232 262.719 130.416C263.342 125.599 262.363 120.723 261.079 116.038" fill="#263238"/>
<path d="M301.692 200.309C306.065 199.593 310.165 200.927 314.495 201.884C315.646 202.225 316.862 202.29 318.043 202.075C319.918 201.594 321.252 199.768 321.542 197.855C321.776 196.178 321.387 194.474 320.449 193.066C320.072 192.459 319.559 191.948 318.951 191.573C318.299 191.246 317.585 191.06 316.857 191.027C314.204 190.813 311.542 191.315 309.149 192.481C306.762 193.641 304.598 195.21 302.752 197.117C301.834 198.035 302.107 199.09 301.703 200.326" fill="#263238"/>
<path d="M213.026 129.722C212.324 125.552 212.41 121.287 213.277 117.148C213.644 115.125 214.386 113.187 215.464 111.436C215.831 110.782 216.391 110.258 217.066 109.932C217.556 109.769 218.082 109.746 218.585 109.865C219.088 109.983 219.548 110.24 219.914 110.605C220.381 111.091 220.74 111.671 220.966 112.306C221.192 112.941 221.281 113.617 221.226 114.289C221.128 115.633 220.799 116.95 220.253 118.182C218.564 122.5 215.879 126.087 213.009 129.717" fill="#263238"/>
<path d="M297.762 145.526C298.751 146.232 320.723 193.558 320.723 193.558C318.956 192.803 316.999 192.612 315.119 193.011L313.927 193.328C311.794 193.902 309.771 194.825 307.941 196.062L301.671 200.304C301.423 200.161 301.212 199.961 301.057 199.721C300.902 199.48 300.807 199.206 300.78 198.921V198.741L283.745 169.504L297.762 145.526Z" fill="#B55B52"/>
<path d="M215.261 70.1826L221.121 103.492C223.008 107.975 245.001 135.134 245.001 135.134L237.73 158.499L208.843 119.001C206.161 116.133 204.702 112.333 204.776 108.407L205.902 72.8176L215.261 70.1826Z" fill="#FFBE9D"/>
<path d="M246.45 129.913L261.533 131.056L274.686 133.095C274.686 133.095 297.761 139.158 297.761 141.683C297.761 142.525 291.464 162.583 287.921 174.599C287.053 177.518 286.345 180.481 285.8 183.477L297.761 209.959H240.999V185.68C240.999 185.68 237.172 153.792 237.845 149.435C238.517 145.078 246.45 129.913 246.45 129.913Z" fill="#B55B52"/>
<path d="M208.106 56.7231C208.195 53.3304 208.542 49.9494 209.145 46.6095C209.227 46.1338 209.423 45.5598 209.899 45.5161C210.489 45.4396 210.79 46.1995 210.867 46.7899C211.391 50.8178 211.223 54.9058 210.369 58.8771" fill="#EB996E"/>
<path d="M214.83 127.256C221.302 121.472 221.521 111.451 220.969 103.475C220.861 102.893 220.949 102.291 221.22 101.764C221.838 100.884 223.341 101.218 223.954 102.103C224.566 102.989 224.5 104.153 224.468 105.225C224.801 104.317 226.223 104.323 226.889 105.022C227.556 105.722 227.671 106.777 227.748 107.756L227.961 110.424L246.871 128.464C246.871 128.464 247.39 126.824 248.779 127.77C250.167 128.716 251.064 130.711 251.064 130.711L237.741 159.789L213.015 129.722C213.49 128.812 214.102 127.98 214.83 127.256Z" fill="#B55B52"/>
<path d="M240.492 147.38C238.519 149.896 237.045 152.767 236.151 155.837C235.26 158.927 235.357 162.219 236.43 165.251C237.26 167.349 238.619 169.196 240.375 170.612C242.131 172.028 244.225 172.965 246.451 173.331" fill="#B55B52"/>
<path d="M301.693 200.31L300.977 209.959H314.988L318.268 192.875C314 192.637 309.791 193.956 306.422 196.587L301.693 200.31Z" fill="#FFBE9D"/>
<path d="M221.417 125.118C221.496 124.853 221.599 124.595 221.723 124.348C221.942 123.867 222.237 123.156 222.57 122.27C222.904 121.385 223.259 120.313 223.593 119.11C223.939 117.798 224.215 116.467 224.418 115.125C224.607 113.782 224.722 112.43 224.763 111.074C224.763 109.822 224.763 108.696 224.686 107.75C224.61 106.805 224.539 106.045 224.467 105.52C224.42 105.247 224.395 104.971 224.391 104.694C224.48 104.957 224.542 105.228 224.577 105.503C224.719 106.241 224.823 106.986 224.888 107.734C224.995 108.846 225.041 109.963 225.025 111.08C224.984 113.818 224.587 116.54 223.844 119.176C223.539 120.251 223.174 121.307 222.751 122.341C222.39 123.227 222.068 123.927 221.816 124.397C221.701 124.647 221.568 124.888 221.417 125.118Z" fill="#263238"/>
<path d="M225.534 120.04C225.712 119.57 225.916 119.11 226.146 118.663C227.103 116.444 227.658 114.073 227.786 111.66C227.785 111.157 227.813 110.655 227.868 110.156C227.976 110.652 228.016 111.159 227.988 111.665C227.969 114.117 227.409 116.534 226.348 118.745C226.139 119.213 225.865 119.649 225.534 120.04Z" fill="#263238"/>
<path d="M247.74 135.161C247.696 135.134 247.926 134.779 248.057 134.133C248.21 133.29 248.162 132.423 247.915 131.602C247.655 130.776 247.339 129.969 246.969 129.186C246.796 128.862 246.668 128.516 246.586 128.158C246.803 128.45 246.986 128.766 247.133 129.099C247.566 129.869 247.916 130.682 248.177 131.526C248.439 132.389 248.459 133.308 248.237 134.183C248.169 134.55 247.996 134.889 247.74 135.161Z" fill="#263238"/>
<path d="M244.455 173.67C244.37 173.634 244.289 173.588 244.214 173.533L243.569 173.107C243.023 172.729 242.208 172.177 241.257 171.428C240.133 170.562 239.104 169.578 238.19 168.492C237.065 167.149 236.254 165.57 235.817 163.873C235.4 162.175 235.293 160.416 235.5 158.68C235.668 157.271 235.981 155.885 236.435 154.541C236.736 153.636 237.085 152.747 237.479 151.879C237.622 151.573 237.731 151.332 237.813 151.179C237.849 151.094 237.895 151.013 237.95 150.938C237.846 151.273 237.724 151.602 237.583 151.923C237.337 152.546 236.982 153.453 236.627 154.601C236.207 155.939 235.917 157.314 235.763 158.707C235.572 160.411 235.683 162.136 236.091 163.802C236.516 165.461 237.302 167.007 238.392 168.328C239.287 169.407 240.289 170.393 241.383 171.27C242.312 172.035 243.094 172.609 243.635 173.019L244.247 173.489C244.389 173.599 244.461 173.659 244.455 173.67Z" fill="#263238"/>
<path d="M275.424 179.076C275.348 179.116 275.267 179.146 275.184 179.164C275.02 179.207 274.785 179.289 274.473 179.349C273.592 179.54 272.695 179.648 271.794 179.672C268.79 179.764 265.827 178.955 263.287 177.348C260.747 175.742 258.746 173.411 257.542 170.657C257.175 169.834 256.888 168.977 256.684 168.099C256.607 167.787 256.58 167.552 256.547 167.377C256.528 167.293 256.519 167.207 256.52 167.12C256.632 167.429 256.723 167.745 256.793 168.066C257.663 171.367 259.612 174.282 262.329 176.348C265.046 178.414 268.376 179.513 271.789 179.47C272.681 179.465 273.571 179.389 274.451 179.24C274.772 179.168 275.097 179.114 275.424 179.076Z" fill="#263238"/>
<path d="M284.122 189.731C284.045 189.731 284.767 186.686 285.762 182.98C286.757 179.273 287.577 176.283 287.648 176.305C287.719 176.327 287.003 179.344 286.035 183.051C285.068 186.757 284.199 189.731 284.122 189.731Z" fill="#263238"/>
<path d="M291.749 183.286C291.683 183.324 289.485 179.732 286.829 175.261C284.172 170.789 282.094 167.131 282.165 167.093C282.236 167.055 284.429 170.641 287.085 175.113C289.742 179.585 291.842 183.242 291.749 183.286Z" fill="#263238"/>
<path d="M312.736 192.137C312.736 192.192 311.938 192.257 310.691 192.574C309.963 192.759 309.249 192.995 308.554 193.28C307.706 193.638 306.887 194.062 306.105 194.548C305.332 195.045 304.601 195.602 303.918 196.215C303.361 196.725 302.84 197.273 302.36 197.855C301.54 198.845 301.135 199.539 301.086 199.495C301.152 199.318 301.238 199.149 301.343 198.992C301.596 198.545 301.883 198.117 302.201 197.713C302.668 197.109 303.182 196.542 303.737 196.018C304.425 195.382 305.168 194.807 305.957 194.302C306.753 193.807 307.591 193.383 308.461 193.034C309.17 192.753 309.902 192.532 310.647 192.372C311.147 192.256 311.655 192.179 312.167 192.142C312.356 192.113 312.547 192.111 312.736 192.137Z" fill="#263238"/>
<path d="M315.414 188.845C315.414 188.905 314.534 188.796 313.129 188.916C312.31 188.99 311.498 189.133 310.702 189.343C308.751 189.861 306.927 190.775 305.344 192.027C304.701 192.539 304.101 193.104 303.551 193.716C302.616 194.766 302.179 195.531 302.13 195.504C302.203 195.31 302.301 195.127 302.42 194.957C302.537 194.746 302.668 194.544 302.813 194.35C302.995 194.086 303.191 193.83 303.398 193.585C303.935 192.944 304.532 192.354 305.18 191.825C305.982 191.182 306.847 190.622 307.761 190.152C308.681 189.702 309.644 189.346 310.636 189.091C311.45 188.887 312.281 188.761 313.118 188.714C313.437 188.698 313.756 188.698 314.075 188.714C314.318 188.715 314.561 188.73 314.802 188.758C315.009 188.761 315.215 188.79 315.414 188.845Z" fill="#263238"/>
<g opacity="0.3">
<path opacity="0.3" d="M257.105 168.285C255.821 170.723 256.892 173.697 258.067 176.196C258.98 178.131 259.997 180.094 261.659 181.444C262.476 182.111 263.422 182.603 264.437 182.888C265.453 183.172 266.516 183.244 267.561 183.098C268.606 182.952 269.609 182.592 270.508 182.04C271.406 181.489 272.182 180.757 272.784 179.891C269.299 179.84 265.912 178.735 263.066 176.722C260.221 174.709 258.052 171.882 256.843 168.613" fill="black"/>
</g>
<g opacity="0.3">
<path opacity="0.3" d="M282.203 167.093C281.219 169.438 281.963 172.647 282.991 174.97C284.018 177.294 285.112 179.891 284.286 182.302C284.073 182.73 283.963 183.201 283.964 183.679C284.018 184.149 284.51 184.603 284.953 184.384C285.182 184.223 285.341 183.981 285.396 183.707C286.172 181.367 286.95 179.029 287.73 176.693" fill="black"/>
</g>
<path d="M230.488 136.211C230.576 134.743 230.758 133.282 231.034 131.837C231.22 130.385 231.499 128.946 231.871 127.529C231.788 128.998 231.605 130.459 231.324 131.903C231.14 133.356 230.861 134.795 230.488 136.211Z" fill="#FAFAFA"/>
<path d="M224.731 135.003C224.66 135.047 223.719 133.735 222.418 132.226C221.117 130.717 219.969 129.586 220.024 129.525C221.004 130.242 221.883 131.088 222.637 132.04C223.46 132.933 224.164 133.929 224.731 135.003Z" fill="#FAFAFA"/>
<path d="M229.673 120.921C229.508 121.273 229.301 121.603 229.055 121.905C228.64 122.49 228.033 123.271 227.328 124.091C226.622 124.911 225.945 125.649 225.436 126.152C225.181 126.444 224.889 126.702 224.567 126.918C224.507 126.863 225.704 125.567 227.109 123.905C228.514 122.244 229.607 120.85 229.673 120.921Z" fill="#FAFAFA"/>
<path d="M227.743 114.037C227.661 114.07 227.349 113.376 226.748 112.681C226.147 111.987 225.502 111.588 225.545 111.506C226.114 111.67 226.612 112.018 226.961 112.495C227.382 112.911 227.656 113.452 227.743 114.037Z" fill="#FAFAFA"/>
<path d="M222.756 118.279C222.31 118.49 221.828 118.614 221.335 118.646C220.857 118.771 220.359 118.8 219.87 118.733C220.794 118.398 221.774 118.244 222.756 118.279Z" fill="#FAFAFA"/>
<path d="M235.336 124.353C235.349 123.502 235.288 122.652 235.156 121.811C234.929 120.99 234.631 120.191 234.265 119.422C234.885 120.059 235.291 120.873 235.429 121.751C235.663 122.607 235.631 123.515 235.336 124.353Z" fill="#FAFAFA"/>
<path d="M242.055 131.58C241.046 129.971 239.692 128.606 238.091 127.584C238.995 127.935 239.815 128.472 240.498 129.16C241.181 129.849 241.711 130.673 242.055 131.58Z" fill="#FAFAFA"/>
<path d="M231.268 144.121C229.641 144.731 227.838 144.67 226.255 143.952C226.282 143.87 227.348 144.214 228.753 144.253C230.158 144.291 231.246 144.039 231.268 144.121Z" fill="#FAFAFA"/>
<path d="M236.331 146.719C236.255 146.686 236.681 145.429 237.036 143.832C237.392 142.236 237.55 140.913 237.632 140.924C237.689 141.924 237.582 142.927 237.315 143.892C237.142 144.881 236.809 145.836 236.331 146.719Z" fill="#FAFAFA"/>
<path d="M247.39 147.139C246.526 146.409 245.726 145.604 245.001 144.734C244.201 143.929 243.47 143.058 242.815 142.132C243.676 142.866 244.474 143.673 245.198 144.543C245.998 145.348 246.731 146.216 247.39 147.139Z" fill="#FAFAFA"/>
<path d="M252.54 159.915C251.885 159.44 251.287 158.889 250.758 158.275C250.166 157.725 249.637 157.108 249.184 156.438C249.839 156.914 250.438 157.465 250.966 158.079C251.564 158.624 252.093 159.241 252.54 159.915Z" fill="#FAFAFA"/>
<path d="M242.967 161.134C242.339 161.803 241.599 162.358 240.781 162.774C240.011 163.287 239.155 163.657 238.255 163.868C238.255 163.791 239.348 163.321 240.638 162.55C241.929 161.779 242.913 161.068 242.967 161.134Z" fill="#FAFAFA"/>
<path d="M247.374 173.287C247.292 173.287 247.62 171.833 247.784 170.034C247.948 168.235 247.898 166.754 247.98 166.754C248.181 167.836 248.211 168.943 248.068 170.034C248.013 171.149 247.779 172.247 247.374 173.287Z" fill="#FAFAFA"/>
<path d="M263.945 163.409C263.041 162.856 262.241 162.152 261.577 161.326C260.846 160.563 260.256 159.676 259.833 158.708C259.905 158.658 260.654 159.845 261.791 161.14C262.928 162.436 263.999 163.338 263.945 163.409Z" fill="#FAFAFA"/>
<path d="M269.995 168.564C269.93 168.515 270.761 167.378 271.69 165.918C272.619 164.459 273.303 163.234 273.374 163.272C273.019 164.266 272.532 165.208 271.925 166.071C271.4 166.988 270.751 167.827 269.995 168.564Z" fill="#FAFAFA"/>
<path d="M269.111 155.946C267.244 155.636 265.413 155.141 263.644 154.47C264.586 154.582 265.516 154.783 266.421 155.071C267.345 155.271 268.246 155.564 269.111 155.946Z" fill="#FAFAFA"/>
<path d="M264.698 178.152C264.601 177.291 264.601 176.422 264.698 175.561C264.705 174.695 264.804 173.832 264.993 172.986C265.092 173.847 265.092 174.717 264.993 175.578C264.988 176.444 264.889 177.307 264.698 178.152Z" fill="#FAFAFA"/>
<path d="M268.514 185.757C268.8 184.874 269.031 183.974 269.203 183.062C269.279 182.136 269.293 181.207 269.247 180.279C269.529 181.189 269.609 182.149 269.483 183.093C269.356 184.038 269.026 184.943 268.514 185.746V185.757Z" fill="#FAFAFA"/>
<path d="M258.625 184.078C258.346 182.19 258.716 180.262 259.675 178.611C259.751 178.644 259.248 179.798 258.964 181.312C258.68 182.826 258.707 184.073 258.625 184.078Z" fill="#FAFAFA"/>
<path d="M249.605 187.933C248.713 187.314 247.856 186.648 247.035 185.938C246.157 185.302 245.312 184.621 244.504 183.898C245.487 184.388 246.405 184.998 247.238 185.713C248.111 186.358 248.905 187.103 249.605 187.933Z" fill="#FAFAFA"/>
<path d="M255.711 177.207C253.619 178.535 251.425 179.695 249.151 180.678C250.18 179.97 251.262 179.341 252.387 178.798C253.452 178.183 254.564 177.651 255.711 177.207Z" fill="#FAFAFA"/>
<path d="M274.687 201.277C274.571 201.315 274.452 201.344 274.331 201.365C274.096 201.409 273.752 201.496 273.304 201.556C272.038 201.75 270.757 201.832 269.477 201.802C266.169 201.754 262.91 201.005 259.913 199.605C256.917 198.205 254.251 196.185 252.092 193.678C250.838 192.236 249.764 190.646 248.894 188.944C248.301 187.804 247.811 186.613 247.429 185.385C247.281 184.953 247.21 184.609 247.145 184.379C247.108 184.262 247.085 184.141 247.074 184.019C247.126 184.129 247.168 184.245 247.199 184.363C247.281 184.587 247.369 184.91 247.533 185.352C248.581 188.349 250.196 191.116 252.289 193.504C254.453 195.952 257.094 197.933 260.051 199.325C263.007 200.717 266.216 201.491 269.482 201.6C270.76 201.647 272.039 201.596 273.309 201.447C273.763 201.403 274.107 201.332 274.342 201.31C274.456 201.286 274.571 201.275 274.687 201.277Z" fill="#263238"/>
<path d="M258.351 198.446C258.165 197.578 258.255 196.674 258.608 195.86C258.875 195.013 259.403 194.272 260.117 193.744C259.634 194.443 259.219 195.186 258.876 195.964C258.626 196.773 258.45 197.604 258.351 198.446Z" fill="#FAFAFA"/>
<path d="M253.852 196.565C253.333 196.967 252.856 197.422 252.43 197.921C252.075 198.472 251.775 199.056 251.534 199.665C251.552 198.972 251.785 198.302 252.2 197.747C252.615 197.192 253.192 196.779 253.852 196.565Z" fill="#FAFAFA"/>
<path d="M271.154 206.864C270.26 206.793 269.395 206.507 268.634 206.031C267.873 205.556 267.237 204.904 266.781 204.131C267.97 205.415 269.479 206.358 271.154 206.864Z" fill="#FAFAFA"/>
<path d="M273.844 191.721C273.73 192.524 273.39 193.279 272.865 193.898C272.34 194.517 271.65 194.975 270.876 195.219C271.515 194.779 272.108 194.275 272.647 193.716C273.114 193.094 273.515 192.425 273.844 191.721Z" fill="#FAFAFA"/>
<path d="M281.493 203.011C281.427 202.956 282.149 202.043 282.816 200.786C283.483 199.528 283.838 198.418 283.909 198.446C283.599 200.185 282.75 201.782 281.482 203.011H281.493Z" fill="#FAFAFA"/>
<path d="M291.601 204.492C291.634 204.574 290.639 204.968 289.638 205.793C288.638 206.619 288.036 207.504 287.965 207.433C288.28 206.679 288.796 206.026 289.458 205.547C290.06 205.004 290.802 204.638 291.601 204.492Z" fill="#FAFAFA"/>
<path d="M283.893 191.552C283.806 191.58 283.346 189.983 282.324 188.212C281.302 186.441 280.208 185.194 280.279 185.14C280.579 185.351 280.843 185.609 281.061 185.905C282.212 187.249 283.088 188.806 283.642 190.486C283.779 190.827 283.864 191.186 283.893 191.552Z" fill="#FAFAFA"/>
<path d="M285.401 175.277C283.7 175.865 281.94 176.27 280.153 176.486C281.855 175.899 283.614 175.494 285.401 175.277Z" fill="#FAFAFA"/>
<path d="M280.749 170.412C280.125 169.831 279.564 169.186 279.076 168.487C278.52 167.843 278.034 167.141 277.627 166.394C278.258 166.966 278.819 167.61 279.3 168.312C279.862 168.954 280.348 169.659 280.749 170.412Z" fill="#FAFAFA"/>
<path d="M292.294 167.492C290.523 167.448 288.78 167.035 287.177 166.278C288.043 166.426 288.899 166.625 289.741 166.874C290.604 167.028 291.457 167.235 292.294 167.492Z" fill="#FAFAFA"/>
<path d="M300.495 167.345C300.73 166.571 301.009 165.812 301.331 165.071C301.562 164.294 301.841 163.533 302.168 162.791C302.123 163.609 301.938 164.414 301.621 165.169C301.377 165.955 300.996 166.692 300.495 167.345Z" fill="#FAFAFA"/>
<path d="M298.626 178.453C296.93 178.074 295.399 177.167 294.252 175.861C294.307 175.796 295.171 176.55 296.368 177.255C297.565 177.961 298.653 178.371 298.626 178.453Z" fill="#FAFAFA"/>
<path d="M303.95 178.114C304.06 177.017 304.261 175.93 304.552 174.867C304.749 173.785 305.038 172.723 305.415 171.69C305.109 173.872 304.613 176.023 303.934 178.119L303.95 178.114Z" fill="#FAFAFA"/>
<path d="M299.505 190.535C298.141 188.991 296.922 187.324 295.865 185.555C296.581 186.296 297.229 187.102 297.8 187.96C298.446 188.764 299.017 189.626 299.505 190.535Z" fill="#FAFAFA"/>
<path d="M307.094 185.784C307.017 185.823 306.52 184.833 305.733 183.729C304.945 182.624 304.185 181.821 304.246 181.761C304.933 182.242 305.518 182.856 305.968 183.565C306.49 184.22 306.873 184.976 307.094 185.784Z" fill="#FAFAFA"/>
<path d="M314.212 184.718C313.589 183.986 313.005 183.222 312.463 182.428C311.841 181.696 311.257 180.933 310.713 180.143C312.168 181.424 313.356 182.979 314.212 184.718Z" fill="#FAFAFA"/>
<path d="M312.522 189.436C312.425 188.779 312.204 188.147 311.872 187.572C311.472 187.041 310.977 186.589 310.412 186.238C310.412 186.205 310.664 186.238 311.008 186.407C311.452 186.644 311.829 186.99 312.101 187.413C312.38 187.835 312.547 188.32 312.588 188.824C312.643 189.185 312.572 189.436 312.522 189.436Z" fill="#FAFAFA"/>
<path d="M306.99 195.903C306.946 195.903 306.963 195.756 306.919 195.564C306.867 195.318 306.735 195.097 306.542 194.936C306.34 194.786 306.093 194.711 305.842 194.723C305.645 194.723 305.52 194.772 305.498 194.723C305.476 194.673 305.58 194.575 305.815 194.509C305.969 194.469 306.131 194.465 306.288 194.497C306.444 194.529 306.591 194.597 306.717 194.696C306.843 194.794 306.944 194.92 307.013 195.064C307.083 195.208 307.118 195.366 307.116 195.526C307.11 195.789 307.023 195.914 306.99 195.903Z" fill="#FAFAFA"/>
<path d="M250.113 206.242C249.092 205.848 248.164 205.246 247.388 204.475C246.613 203.703 246.006 202.778 245.608 201.759C246.723 203.603 248.269 205.148 250.113 206.263V206.242Z" fill="#FAFAFA"/>
<path d="M215.317 70.5543C214.437 62.2392 212.846 54.4162 212.414 46.2651C212.431 46.0608 212.406 45.855 212.339 45.6611C212.272 45.4672 212.165 45.2894 212.026 45.139C211.907 45.0694 211.775 45.0247 211.638 45.0077C211.501 44.9908 211.362 45.0018 211.23 45.0401C211.098 45.0785 210.974 45.1434 210.868 45.2308C210.761 45.3183 210.674 45.4265 210.61 45.549C210.372 46.0606 210.277 46.6277 210.337 47.189C210.346 51.5238 209.606 55.8275 208.15 59.9104C207.215 62.5618 205.963 65.1039 205.264 67.8209C204.564 70.5379 205.881 71.4618 207.106 73.9929" fill="#FFBE9D"/>
<path d="M207.122 73.9823C206.039 73.1515 205.199 72.0449 204.69 70.7783C204.181 69.5117 204.022 68.1316 204.23 66.7825C204.509 65.1424 205.323 63.6554 205.968 62.1247C206.613 60.594 207.111 58.8938 206.717 57.2811C206.5 56.6825 206.353 56.0605 206.28 55.4278C206.28 54.7937 206.69 54.083 207.324 54.0557C207.564 54.075 207.796 54.1498 208.002 54.2741C208.207 54.3983 208.382 54.5687 208.51 54.7718C209.576 56.0893 210.429 59.938 209.893 62.8135" fill="#FFBE9D"/>
<path d="M209.893 62.8137C209.893 62.8137 209.948 62.3709 209.981 61.5727C210.015 60.4469 209.922 59.3208 209.702 58.2161C209.555 57.4552 209.335 56.7101 209.046 55.9911C208.894 55.5999 208.688 55.2318 208.434 54.8977C208.32 54.7184 208.17 54.5643 207.994 54.4449C207.818 54.3255 207.62 54.2433 207.411 54.2034C207.196 54.2136 206.991 54.294 206.826 54.4322C206.661 54.5705 206.546 54.7589 206.498 54.9688C206.381 55.4348 206.412 55.9258 206.586 56.3737C206.77 56.8739 206.898 57.3927 206.969 57.9209C207.021 58.4678 207.001 59.0193 206.908 59.5609C206.526 61.7804 205.345 63.5736 204.722 65.3503C204.414 66.1804 204.25 67.0566 204.235 67.9416C204.232 68.7125 204.346 69.4794 204.574 70.2158C204.905 71.2903 205.465 72.2805 206.214 73.1187C206.761 73.7036 207.116 73.9606 207.1 73.9879C207.002 73.9383 206.91 73.8778 206.826 73.8075C206.58 73.6196 206.347 73.4131 206.132 73.1897C205.333 72.3656 204.734 71.3686 204.383 70.2759C204.134 69.5227 204.004 68.7349 204 67.9416C204.005 67.0281 204.166 66.1221 204.476 65.2628C205.077 63.4478 206.241 61.6547 206.602 59.5172C206.696 58.9977 206.716 58.4678 206.662 57.9427C206.597 57.4295 206.474 56.9252 206.296 56.4393C206.107 55.9372 206.08 55.3885 206.22 54.8704C206.301 54.6117 206.45 54.3795 206.651 54.1979C206.752 54.104 206.871 54.0318 207.001 53.9857C207.131 53.9396 207.268 53.9207 207.406 53.9301C207.656 53.9632 207.897 54.049 208.112 54.1819C208.327 54.3147 208.511 54.4916 208.652 54.7009C208.918 55.0628 209.132 55.4603 209.286 55.8817C209.575 56.616 209.788 57.3781 209.921 58.1559C210.128 59.2768 210.192 60.4193 210.112 61.5563C210.093 61.8648 210.053 62.1717 209.992 62.4747C209.975 62.5918 209.942 62.706 209.893 62.8137Z" fill="#EB996E"/>
<path d="M281.362 107.21C281.54 107.992 281.964 108.696 282.57 109.221C283.177 109.746 283.935 110.064 284.735 110.129C285.536 110.168 286.334 110.003 287.054 109.649C287.774 109.296 288.393 108.765 288.851 108.106C289.759 106.768 290.124 105.134 289.874 103.536C289.562 101.234 288.031 99.0204 285.812 98.337C283.592 97.6537 280.831 98.8837 280.219 101.114L277.661 104.684L281.362 107.21Z" fill="#263238"/>
<path d="M278.338 100.196C278.586 98.2175 278.434 96.2095 277.892 94.2909C277.349 92.3724 276.426 90.5824 275.179 89.0273C273.931 87.4721 272.384 86.1834 270.628 85.2377C268.873 84.292 266.946 83.7085 264.961 83.522C257.028 82.7675 249.971 88.6772 248.784 96.5604C247.74 103.47 246.844 110.446 246.876 112.961C246.975 120.614 251.441 123.577 253.256 124.441C253.908 124.676 254.582 124.843 255.268 124.939C255.274 124.94 255.281 124.943 255.286 124.946C255.292 124.95 255.296 124.955 255.3 124.961C255.304 124.966 255.306 124.973 255.307 124.979C255.308 124.986 255.308 124.992 255.306 124.999L253.611 133.746C252.841 139.491 256.05 144.619 261.784 145.456C267.519 146.292 272.04 141.88 272.92 136.129L278.338 100.196Z" fill="#FFBE9D"/>
<path d="M250.101 101.027C250.227 101.207 251.233 100.666 252.529 100.857C253.824 101.049 254.672 101.836 254.836 101.694C254.918 101.634 254.803 101.333 254.436 100.972C253.934 100.502 253.298 100.199 252.616 100.103C251.943 100.005 251.256 100.122 250.653 100.436C250.2 100.682 250.036 100.945 250.101 101.027Z" fill="#263238"/>
<path d="M261.604 103.519C261.73 103.7 262.741 103.158 264.031 103.35C265.321 103.541 266.18 104.328 266.344 104.186C266.42 104.126 266.311 103.825 265.939 103.459C265.437 102.992 264.804 102.69 264.124 102.595C263.451 102.497 262.764 102.614 262.162 102.929C261.719 103.175 261.544 103.437 261.604 103.519Z" fill="#263238"/>
<path d="M257.132 109.631C256.481 109.319 255.795 109.09 255.087 108.947C254.759 108.865 254.459 108.751 254.437 108.521C254.458 108.176 254.584 107.846 254.798 107.575L256.143 105.203C258.018 101.819 259.423 99.0195 259.291 98.943C259.16 98.8665 257.52 101.551 255.645 104.957L254.339 107.346C254.077 107.717 253.95 108.166 253.978 108.619C254.012 108.74 254.073 108.851 254.155 108.945C254.237 109.04 254.339 109.115 254.453 109.166C254.629 109.241 254.812 109.294 255 109.325C255.695 109.516 256.411 109.619 257.132 109.631Z" fill="#263238"/>
<path d="M255.317 124.993C255.317 124.993 260.237 126.13 267.044 123.287C267.044 123.287 264.113 129.601 254.864 127.354L255.317 124.993Z" fill="#EB996E"/>
<path d="M257.225 112.829C257.515 112.563 257.867 112.373 258.249 112.277C258.631 112.182 259.031 112.184 259.412 112.282C259.693 112.352 259.958 112.477 260.191 112.649C260.424 112.822 260.62 113.039 260.768 113.288C260.91 113.528 260.974 113.807 260.951 114.085C260.929 114.363 260.821 114.627 260.642 114.841C260.402 115.044 260.106 115.17 259.793 115.202C259.479 115.234 259.164 115.171 258.887 115.021C258.307 114.719 257.794 114.303 257.378 113.797C257.245 113.673 257.137 113.525 257.061 113.359C257.023 113.281 257.01 113.193 257.024 113.107C257.038 113.021 257.077 112.941 257.138 112.878" fill="#EB996E"/>
<path d="M260.807 111.08C260.599 111.036 260.391 112.441 259.046 113.267C257.701 114.092 256.225 113.715 256.187 113.912C256.154 113.999 256.482 114.234 257.111 114.344C257.931 114.474 258.771 114.311 259.484 113.885C260.167 113.473 260.665 112.813 260.872 112.042C261.009 111.457 260.905 111.086 260.807 111.08Z" fill="#263238"/>
<path d="M262.495 99.3099C262.571 99.6816 263.889 99.7035 265.376 100.108C266.863 100.513 268.038 101.103 268.284 100.819C268.393 100.682 268.229 100.321 267.787 99.9058C267.186 99.3922 266.477 99.0219 265.713 98.823C264.949 98.6241 264.149 98.6018 263.375 98.7577C262.773 98.8999 262.467 99.1349 262.495 99.3099Z" fill="#263238"/>
<path d="M251.408 97.0409C251.589 97.3689 252.529 97.194 253.595 97.3361C254.661 97.4783 255.547 97.8172 255.782 97.5439C255.897 97.4072 255.782 97.0901 255.437 96.7567C254.954 96.3445 254.359 96.0858 253.728 96.0138C253.097 95.9417 252.459 96.0595 251.895 96.3521C251.496 96.5981 251.326 96.8824 251.408 97.0409Z" fill="#263238"/>
<path d="M247.286 94.8485C248.866 97.2594 253.884 95.7669 256.913 94.1105C258.495 95.1197 260.408 95.4718 262.246 95.092C264.084 94.7122 265.701 93.6305 266.753 92.0768C268.486 94.2636 272.012 93.5529 273.313 91.0655C274.614 88.5781 273.86 85.1504 272.111 82.9745C270.361 80.7987 267.77 79.6944 265.222 79.2298C259.182 78.1364 252.605 80.4543 248.991 85.9157C247.324 88.4359 246.324 91.8308 247.313 94.8485" fill="#263238"/>
<path d="M263.982 80.0882C263.982 80.1975 262.555 79.9242 260.313 80.296C257.402 80.7802 254.733 82.2164 252.725 84.3797C250.835 86.6446 249.586 89.374 249.106 92.2847C248.94 93.4981 248.876 94.7234 248.915 95.9475C248.799 95.6315 248.73 95.2998 248.713 94.9635C248.617 94.0539 248.632 93.1361 248.757 92.2301C249.153 89.2065 250.409 86.3603 252.376 84.0298C254.454 81.779 257.255 80.3266 260.292 79.9242C261.198 79.8023 262.115 79.7876 263.025 79.8805C263.353 79.9004 263.675 79.9704 263.982 80.0882Z" fill="#455A64"/>
<path d="M255.815 91.3286C255.725 91.0518 255.684 90.7612 255.694 90.4703C255.666 89.6772 255.749 88.8841 255.941 88.1141C256.233 86.8227 256.787 85.6048 257.567 84.5354C258.348 83.466 259.34 82.5677 260.481 81.8958C261.622 81.2239 262.888 80.7926 264.202 80.6285C265.516 80.4644 266.849 80.571 268.121 80.9416C268.888 81.1519 269.623 81.4645 270.307 81.871C270.571 82.0081 270.806 82.1935 271.002 82.4176C270.048 81.9664 269.057 81.6005 268.039 81.3243C265.563 80.6936 262.938 81.0671 260.736 82.3636C258.534 83.66 256.934 85.7742 256.285 88.2453C255.749 90.0712 255.919 91.3286 255.815 91.3286Z" fill="#455A64"/>
<path d="M270.307 88.7037C269.715 90.8436 269.373 93.0451 269.29 95.264C269.209 97.4951 269.902 99.6858 271.253 101.463C273.363 104.005 276.884 104.782 280.131 105.399C281.868 101.066 282.392 96.3411 281.645 91.7324C281.274 89.4964 280.552 87.2168 278.978 85.5877C277.807 84.4329 276.286 83.6991 274.654 83.5013C273.022 83.3034 271.37 83.6526 269.957 84.4943" fill="#263238"/>
<path d="M272.111 99.2881C271.259 101.136 271.319 103.273 271.614 105.302C271.909 107.33 272.423 109.314 272.401 111.348C272.379 113.382 271.734 115.541 270.138 116.815C269.654 117.137 269.2 117.503 268.782 117.908C268.576 118.114 268.438 118.378 268.387 118.664C268.336 118.951 268.375 119.246 268.498 119.51C268.804 120.002 269.728 119.991 269.859 119.428L269.777 119.57C269.697 119.706 269.653 119.861 269.651 120.019C269.65 120.178 269.69 120.334 269.767 120.471C269.845 120.609 269.957 120.724 270.093 120.805C270.229 120.886 270.384 120.929 270.542 120.931C271.101 120.905 271.648 120.764 272.15 120.517C272.652 120.271 273.099 119.924 273.462 119.499C274.506 118.291 274.921 116.667 275.195 115.126C276.037 110.298 275.873 105.285 277.207 100.578" fill="#263238"/>
<path d="M253.574 130.99C253.95 132.634 254.676 134.179 255.702 135.518C256.728 136.857 258.03 137.959 259.52 138.751C261.01 139.542 262.653 140.004 264.337 140.104C266.021 140.204 267.707 139.941 269.28 139.332C272.112 138.239 274.397 136.107 276.6 134.024C276.994 136.395 276.886 138.823 276.281 141.149C275.677 143.476 274.59 145.649 273.092 147.529C271.593 149.408 269.716 150.951 267.583 152.059C265.45 153.166 263.107 153.812 260.708 153.956C257.083 154.175 253.191 153.071 250.911 150.244C249.32 148.276 248.681 145.668 248.725 143.137C248.835 140.602 249.318 138.097 250.157 135.702C250.802 133.636 251.824 131.329 253.913 130.755" fill="#B55B52"/>
<path d="M279.507 105.542C281.694 106.717 282.864 109.177 283.285 111.605C283.706 114.032 283.493 116.525 283.597 118.979C283.7 121.434 284.171 124.014 285.729 125.922C287.369 127.956 289.965 128.918 292.289 130.159C297.384 132.893 301.582 137.556 303.113 143.143C304.644 148.73 303.255 155.17 299.073 159.188C295.246 162.829 289.725 164.108 284.455 164.108C280.699 164.108 276.572 163.299 274.226 160.363C271.881 157.428 272.04 153.311 272.86 149.692C273.68 146.073 275.183 142.558 275.243 138.846C274.682 141.144 273.704 143.319 272.357 145.264C271.969 145.811 271.307 146.412 270.717 146.095C270.126 145.778 270.307 144.756 270.613 144.072C275.139 133.997 273.565 113.688 276.249 102.562" fill="#263238"/>
<path d="M275.78 104.399C275.916 104.355 281.203 103.355 280.519 108.581C279.836 113.808 274.735 112.047 274.746 111.9C274.757 111.752 275.78 104.399 275.78 104.399Z" fill="#FFBE9D"/>
<path d="M276.6 110.129C276.6 110.129 276.682 110.2 276.829 110.293C277.034 110.413 277.276 110.451 277.507 110.397C278.087 110.266 278.666 109.446 278.814 108.511C278.883 108.063 278.853 107.606 278.726 107.171C278.699 107.002 278.63 106.841 278.526 106.704C278.422 106.567 278.286 106.457 278.13 106.384C278.032 106.349 277.925 106.348 277.826 106.381C277.727 106.414 277.642 106.478 277.584 106.565C277.496 106.701 277.513 106.811 277.485 106.816C277.458 106.822 277.387 106.712 277.453 106.504C277.499 106.378 277.588 106.272 277.704 106.204C277.785 106.155 277.876 106.123 277.97 106.111C278.064 106.099 278.16 106.106 278.251 106.133C278.46 106.203 278.648 106.326 278.796 106.49C278.944 106.654 279.048 106.852 279.098 107.068C279.26 107.55 279.303 108.063 279.224 108.565C279.054 109.615 278.387 110.528 277.584 110.648C277.438 110.672 277.289 110.662 277.148 110.619C277.007 110.576 276.877 110.502 276.769 110.402C276.594 110.255 276.583 110.134 276.6 110.129Z" fill="#EB996E"/>
<path d="M248.172 142.252C248.429 141.694 248.725 141.155 249.058 140.64C249.82 139.378 250.452 138.043 250.944 136.654C251.422 135.264 251.583 133.785 251.414 132.325C251.308 131.725 251.169 131.132 250.998 130.548C251.102 130.681 251.181 130.831 251.234 130.991C251.412 131.41 251.54 131.848 251.616 132.297C251.846 133.789 251.709 135.315 251.217 136.742C250.721 138.152 250.055 139.495 249.233 140.744C248.927 141.225 248.686 141.607 248.484 141.864C248.281 142.121 248.189 142.263 248.172 142.252Z" fill="#263238"/>
<path d="M250.834 136.222C250.758 136.222 250.61 135.773 250.14 135.462C249.67 135.15 249.2 135.15 249.189 135.068C249.178 134.986 249.304 134.975 249.517 134.97C249.8 134.972 250.074 135.062 250.304 135.227C250.536 135.388 250.714 135.615 250.818 135.877C250.889 136.079 250.873 136.211 250.834 136.222Z" fill="#FAFAFA"/>
<path d="M254.213 136.211C253.803 135.751 253.353 135.328 252.868 134.948C252.329 134.647 251.762 134.401 251.173 134.216C251.499 134.17 251.83 134.191 252.147 134.277C252.465 134.362 252.762 134.511 253.021 134.713C253.599 135.037 254.026 135.575 254.213 136.211Z" fill="#FAFAFA"/>
<path d="M256.333 147.303C256.346 146.549 256.453 145.8 256.651 145.072C256.756 144.321 256.956 143.587 257.246 142.886C257.234 143.641 257.127 144.392 256.929 145.122C256.823 145.871 256.623 146.604 256.333 147.303Z" fill="#FAFAFA"/>
<path d="M264.863 148.976C264.726 147.407 264.775 145.827 265.01 144.27C265.154 145.839 265.105 147.42 264.863 148.976Z" fill="#FAFAFA"/>
<path d="M8.42987 174.037L0 210.747L17.8274 210.802L26.0604 178.52L8.42987 174.037Z" fill="#B78876"/>
<path d="M95.9761 128.936C94.2813 126.667 92.3351 124.486 91.4441 121.797C91.0122 120.495 90.8427 119.118 90.3835 117.828C89.9243 116.537 89.0878 115.28 87.8086 114.794C86.5294 114.307 85.5563 114.794 84.7253 115.712L78.6079 133.605L82.134 147.349C85.6547 146.556 90.0609 145.616 93.352 144.134C96.643 142.653 98.8188 140.28 99.0484 136.677C99.207 133.851 97.6708 131.21 95.9761 128.936Z" fill="#263238"/>
<path d="M40.3074 125.777C40.3074 125.777 19.0414 135.032 16.3845 139.209C13.7277 143.385 4.98071 173.163 4.98071 173.163L27.3948 179.723L27.0121 210.726H81.9538L81.5001 156.057L74.6118 125.848C74.6118 125.848 62.4809 125.066 61.3547 124.514C60.2286 123.962 40.3074 125.777 40.3074 125.777Z" fill="#B55B52"/>
<path d="M115.881 50.0001C116.056 48.7482 115.176 47.3705 115.81 46.2717C116.229 45.7054 116.829 45.2986 117.51 45.1182C117.84 44.9673 118.197 44.8837 118.56 44.8722C118.741 44.8693 118.918 44.9195 119.071 45.0167C119.224 45.1139 119.344 45.2537 119.418 45.4189C119.457 45.6279 119.439 45.8438 119.365 46.0432C119.291 46.2426 119.164 46.418 118.997 46.5505C118.664 46.8123 118.384 47.1351 118.172 47.5017C118.023 48.4016 118.093 49.3239 118.374 50.1914C119.102 52.1003 119.707 54.0542 120.183 56.0409" fill="#B78876"/>
<path d="M111.392 50.4273C111.468 48.5303 113.032 41.0571 113.087 39.1602C114.371 39.5538 115.115 40.9205 115.355 42.2435C115.596 43.5664 115.47 44.9277 115.7 46.2506C116.006 48.0274 116.93 49.6292 117.859 51.1708C118.788 52.7124 119.762 54.2814 120.183 56.0308C120.603 57.7802 122.189 62.3286 120.953 63.6407" fill="#B78876"/>
<path d="M111.037 63.2188L103.432 99.3436C103.165 100.984 74.6113 125.885 74.6113 125.885L80.2476 148.403L117.422 112.032C120.106 109.163 121.567 105.36 121.495 101.432L120.861 67.5376L111.037 63.2188Z" fill="#B78876"/>
<path d="M109.736 50.6564L111.037 63.2301L120.877 67.5599C120.877 67.5599 120.997 66.6688 121.424 62.3117C121.889 57.5118 116.728 55.4508 114.426 51.9247C113.442 50.4104 113.699 47.6223 112.939 44.1673C112.852 43.7682 112.305 41.3518 112.01 40.0562C111.855 39.3362 111.433 38.7015 110.829 38.2795C110.381 37.9843 109.878 37.8367 109.512 38.2795C109.145 38.7223 109.736 50.6564 109.736 50.6564Z" fill="#B78876"/>
<path d="M115.88 65.3077C116.973 64.3619 117.236 62.6672 116.826 61.2622C116.324 59.8787 115.531 58.6187 114.502 57.5666C113.474 56.5173 112.61 55.3194 111.938 54.0132C111.523 53.0729 111.326 52.0342 110.845 51.1103C110.364 50.1864 109.549 49.339 108.521 49.3008C109.347 54.4997 109.325 57.501 111.014 63.1975" fill="#B78876"/>
<path d="M109.544 55.2379C109.544 55.2379 109.506 55.0958 109.446 54.8225C109.386 54.5491 109.282 54.0954 109.184 53.6307C108.948 52.5373 108.637 51.1433 108.314 49.5415L108.281 49.3884H108.44C108.777 49.3761 109.112 49.4307 109.427 49.5489C109.743 49.6672 110.031 49.8467 110.277 50.0772C111.028 50.7915 111.562 51.7029 111.819 52.7068C112.037 53.487 112.324 54.2463 112.677 54.9755C112.944 55.4545 113.267 55.9004 113.639 56.304C113.775 56.459 113.885 56.6342 113.967 56.8233C113.817 56.6846 113.678 56.5348 113.552 56.375C113.145 55.9906 112.792 55.5529 112.502 55.0739C112.116 54.3423 111.801 53.5753 111.562 52.7833C111.307 51.8296 110.797 50.9637 110.086 50.2795C109.642 49.8634 109.053 49.6377 108.445 49.6508L108.577 49.4868C109.238 52.7778 109.665 55.2434 109.544 55.2379Z" fill="#7C5142"/>
<path d="M113.968 52.0398C113.571 50.3485 113.268 48.6366 113.06 46.9119C112.756 45.2007 112.547 43.4743 112.431 41.7402C112.831 43.4328 113.134 45.1466 113.339 46.8736C113.642 48.5829 113.852 50.3075 113.968 52.0398Z" fill="#7C5142"/>
<path d="M117.1 52.466C117.1 52.466 117.138 52.5207 117.171 52.6574H117.089C116.682 51.4877 116.35 50.2936 116.094 49.082C115.859 48.027 115.689 47.0648 115.585 46.3486C115.501 45.974 115.468 45.5896 115.487 45.2061C115.569 45.2061 115.902 46.9062 116.373 49.0328C116.75 50.733 117.1 52.1653 117.171 52.6464H117.089C117.083 52.5316 117.083 52.466 117.1 52.466Z" fill="#7C5142"/>
<path d="M119.041 59.3922C118.997 59.3922 118.801 59.1079 118.407 58.687C117.367 57.5821 115.956 56.9007 114.444 56.7736C114.127 56.7764 113.811 56.7563 113.498 56.7135C113.8 56.5961 114.125 56.5475 114.449 56.5713C115.237 56.5812 116.013 56.7641 116.723 57.107C117.432 57.4499 118.057 57.9445 118.555 58.5558C118.778 58.7938 118.945 59.0799 119.041 59.3922Z" fill="#7C5142"/>
<path d="M111.928 64.2138C111.658 63.7434 111.439 63.2448 111.277 62.7269C110.828 61.5002 110.452 60.2479 110.151 58.9766C109.845 57.7159 109.615 56.438 109.462 55.1498C109.373 54.608 109.34 54.0584 109.364 53.5098C109.501 54.0321 109.6 54.5638 109.659 55.1006C109.823 56.0792 110.075 57.435 110.425 58.9274C110.774 60.4199 111.168 61.7264 111.469 62.6777C111.657 63.1784 111.811 63.6917 111.928 64.2138Z" fill="#7C5142"/>
<path d="M67.937 126.537C68.4241 125.791 69.1797 125.261 70.047 125.057C70.9143 124.854 71.8266 124.992 72.5948 125.443C76.6074 122.163 80.713 118.981 84.7257 115.718C83.4136 122.278 82.5389 131.424 85.4746 137.427C85.4746 137.427 89.1757 144.304 95.0689 143.254L89.8098 148.404L81.5166 156.096" fill="#B55B52"/>
<path d="M66.635 129.598C66.6412 128.718 66.9096 127.86 67.4058 127.133C67.8249 126.356 68.4639 125.721 69.2427 125.307C68.0075 126.48 67.1073 127.961 66.635 129.598Z" fill="#263238"/>
<path d="M70.9704 133.643C70.7429 133.279 70.587 132.874 70.5112 132.451C70.2752 131.438 70.2471 130.386 70.4284 129.361C70.6097 128.336 70.9968 127.359 71.5663 126.487C71.7835 126.114 72.0691 125.786 72.4082 125.52C72.4465 125.552 72.1294 125.924 71.7413 126.613C71.2363 127.484 70.8867 128.437 70.708 129.428C70.5368 130.421 70.5368 131.436 70.708 132.43C70.8447 133.14 71.0142 133.6 70.9704 133.643Z" fill="#263238"/>
<path d="M91.0557 147.682C90.6522 147.933 90.2111 148.118 89.7491 148.229C88.4862 148.533 87.1647 148.494 85.9223 148.114C84.0823 147.53 82.4722 146.382 81.3192 144.834C79.9343 142.935 78.9996 140.746 78.5858 138.432C77.8137 134.266 77.5931 130.017 77.9298 125.793C78.0555 124.153 78.2359 122.874 78.389 121.966C78.4601 121.518 78.5257 121.173 78.5749 120.938C78.5919 120.817 78.6212 120.698 78.6624 120.583C78.6662 120.706 78.6552 120.829 78.6296 120.949L78.4984 121.983C78.3836 122.879 78.2305 124.169 78.1321 125.809C77.8524 130.015 78.0985 134.239 78.8646 138.383C79.2739 140.637 80.1796 142.771 81.5161 144.632C82.6215 146.164 84.1798 147.311 85.9715 147.912C87.1814 148.301 88.4715 148.371 89.7163 148.114C90.1719 148 90.6194 147.856 91.0557 147.682Z" fill="#FAFAFA"/>
<path d="M27.4979 188.951C27.4213 188.951 27.3557 181.177 27.3557 171.594C27.3557 162.01 27.4213 154.236 27.4979 154.236C27.5744 154.236 27.64 162.005 27.64 171.594C27.64 181.182 27.5799 188.951 27.4979 188.951Z" fill="#263238"/>
<path d="M27.0616 148.239C27.0015 148.239 27.0179 147.463 26.75 146.255C26.5904 145.549 26.3615 144.86 26.0666 144.199C25.6992 143.395 25.2465 142.633 24.7163 141.925C24.1714 141.228 23.5538 140.59 22.874 140.023C22.3143 139.565 21.712 139.163 21.0754 138.82C19.982 138.246 19.2221 138.055 19.2385 138C19.4251 138.01 19.6093 138.046 19.7852 138.109C19.9924 138.161 20.1953 138.229 20.392 138.312C20.6602 138.404 20.9215 138.515 21.1738 138.645C21.8305 138.967 22.4501 139.359 23.0216 139.815C23.7234 140.388 24.3596 141.037 24.9186 141.75C25.4642 142.476 25.9229 143.263 26.2853 144.096C26.583 144.776 26.8049 145.487 26.9468 146.217C27.0029 146.495 27.0412 146.776 27.0616 147.059C27.0871 147.271 27.0981 147.484 27.0944 147.698C27.1043 147.879 27.0933 148.061 27.0616 148.239Z" fill="#263238"/>
<path d="M64.5027 125.536C64.5481 125.688 64.5792 125.843 64.5956 126.001C64.6693 126.444 64.7168 126.891 64.7378 127.34C64.8031 128.999 64.5717 130.656 64.0544 132.233C63.2841 134.585 61.9188 136.698 60.091 138.367C57.7984 140.37 54.9194 141.578 51.8837 141.811C48.848 142.044 45.8185 141.288 43.2476 139.657C41.1925 138.282 39.5277 136.398 38.4149 134.19C37.6696 132.708 37.1938 131.105 37.01 129.456C36.9655 129.009 36.9455 128.56 36.9498 128.111C36.9366 127.955 36.9366 127.797 36.9498 127.641C36.9755 127.794 36.9883 127.95 36.9881 128.106C37.0021 128.552 37.0386 128.997 37.0974 129.439C37.3214 131.065 37.8205 132.64 38.5735 134.097C39.6889 136.261 41.3394 138.103 43.3679 139.449C45.8923 141.037 48.8591 141.773 51.8326 141.549C54.8062 141.326 57.6298 140.155 59.8887 138.208C61.6965 136.574 63.0554 134.504 63.8357 132.195C64.3596 130.64 64.6184 129.008 64.6011 127.368C64.6011 126.788 64.5519 126.34 64.5082 126.034C64.4644 125.727 64.4972 125.542 64.5027 125.536Z" fill="#263238"/>
<path d="M27.0283 172.966C27.0283 173.042 22.4854 171.616 16.942 169.784C11.3986 167.953 6.92128 166.406 6.94861 166.329C6.97595 166.253 11.4861 167.679 17.0349 169.511C22.5838 171.342 27.0502 172.889 27.0283 172.966Z" fill="#FAFAFA"/>
<path d="M80.9698 165.378C80.9698 165.46 68.9154 165.574 54.0456 165.635C39.1758 165.695 27.116 165.684 27.116 165.635C27.116 165.585 39.1703 165.438 54.0456 165.378C68.9209 165.317 80.9698 165.301 80.9698 165.378Z" fill="#FAFAFA"/>
<path d="M81.2431 170.139C81.2431 170.216 69.1231 170.281 54.1823 170.281C39.2414 170.281 27.116 170.216 27.116 170.139C27.116 170.063 39.2305 169.997 54.1823 169.997C69.1341 169.997 81.2431 170.057 81.2431 170.139Z" fill="#FAFAFA"/>
<path d="M73.8185 175.924C73.7816 176.076 73.7303 176.224 73.6655 176.367C73.5452 176.673 73.3812 177.088 73.1789 177.613L72.8181 178.51C72.676 178.838 72.5065 179.182 72.3316 179.559C71.9708 180.303 71.599 181.167 71.0797 182.074L70.2924 183.506C70.0191 184.004 69.6911 184.496 69.374 185.021C68.7508 186.076 67.9854 187.136 67.1873 188.268C65.4121 190.673 63.4566 192.939 61.3378 195.047C59.1887 197.126 56.8841 199.037 54.4441 200.765C53.296 201.53 52.2191 202.279 51.164 202.881C50.6173 203.187 50.1362 203.504 49.6333 203.772L48.1681 204.526C47.2552 205.024 46.3805 205.385 45.6315 205.729C45.2543 205.893 44.9044 206.057 44.5764 206.194L43.6689 206.538L42.417 207.003C42.2726 207.065 42.1225 207.112 41.9688 207.145C42.1052 207.068 42.2478 207.002 42.3952 206.948L43.6307 206.434L44.5218 206.068C44.8498 205.926 45.1942 205.756 45.5659 205.581C46.3094 205.226 47.1732 204.854 48.0752 204.346L49.513 203.581C50.0105 203.307 50.508 202.985 51.0328 202.679C52.0879 202.072 53.1539 201.317 54.3129 200.552C59.1824 197.116 63.4652 192.916 66.9959 188.115C67.7886 186.994 68.5594 185.928 69.1827 184.895C69.5052 184.376 69.8387 183.889 70.1175 183.397L70.9102 181.976C71.4569 181.085 71.8231 180.226 72.1949 179.488C72.3753 179.116 72.5557 178.778 72.7033 178.455C72.8509 178.132 72.9712 177.837 73.086 177.569C73.3101 177.055 73.4905 176.651 73.6327 176.345C73.6874 176.201 73.7494 176.061 73.8185 175.924Z" fill="#263238"/>
<g opacity="0.3">
<path opacity="0.3" d="M71.5994 180.658C67.9257 185.13 64.0771 188.372 58.6813 190.46C56.0955 191.455 53.3894 192.139 50.8856 193.325C48.3818 194.511 46.0201 196.299 44.8721 198.83C44.0028 200.787 44.4238 203.75 46.5121 204.177C47.3234 204.276 48.1464 204.149 48.8902 203.81C59.5779 199.934 66.6027 190.143 71.5666 180.658" fill="black"/>
</g>
<path d="M33.3698 83.3916C31.0628 85.2011 30.9098 88.5851 31.0246 91.5153C31.1394 94.4455 31.1722 97.7803 29.0346 99.8031C27.2853 101.47 24.2238 102.088 23.7209 104.455C23.5936 105.013 23.6445 105.597 23.8664 106.124C24.0883 106.651 24.4701 107.096 24.9579 107.394C25.4457 107.693 26.0149 107.831 26.5855 107.79C27.156 107.748 27.699 107.528 28.1381 107.161C27.3946 109.015 27.7335 111.387 29.3135 112.628C30.8934 113.869 33.6541 113.279 34.2336 111.376C34.144 111.691 34.1193 112.021 34.161 112.345C34.2026 112.67 34.3098 112.983 34.4759 113.265C34.6421 113.546 34.8637 113.792 35.1275 113.985C35.3913 114.179 35.6916 114.317 36.0103 114.391C36.3291 114.465 36.6595 114.474 36.9817 114.417C37.3038 114.359 37.611 114.237 37.8845 114.057C38.158 113.878 38.3921 113.644 38.5727 113.371C38.7533 113.098 38.8766 112.792 38.9351 112.47" fill="#263238"/>
<path d="M66.8484 104.608C66.9584 104.992 67.1461 105.35 67.4 105.658C67.6538 105.966 67.9684 106.219 68.3241 106.401C68.6798 106.583 69.0691 106.689 69.4677 106.714C69.8664 106.739 70.2659 106.682 70.6415 106.546C71.017 106.41 71.3607 106.198 71.651 105.924C71.9413 105.65 72.1721 105.319 72.3291 104.951C72.486 104.584 72.5658 104.188 72.5634 103.789C72.561 103.389 72.4766 102.995 72.3153 102.629C71.8615 101.492 70.6752 100.634 70.6479 99.4149C70.5768 97.9388 72.1294 96.9603 73.4906 96.3863C74.8519 95.8122 76.4482 95.0469 76.6614 93.5872C76.8746 92.1276 75.6555 91.0069 74.6387 90.0065C73.6218 89.006 72.6433 87.4862 73.3594 86.2507C73.7257 85.6221 74.4528 85.2831 74.9229 84.731C75.9835 83.5064 75.5571 81.4509 74.3325 80.4067C73.1079 79.3625 71.3531 79.122 69.7513 79.3133C68.1495 79.5047 66.6188 80.106 65.0498 80.4942C62.4481 81.1221 59.7443 81.2034 57.1096 80.7329C54.4748 80.2624 51.9663 79.2504 49.7427 77.7607" fill="#263238"/>
<path d="M34.9386 94.6649L40.564 127.269C40.7971 128.634 41.2979 129.939 42.0377 131.109C42.7775 132.279 43.7415 133.291 44.8743 134.087C46.007 134.883 47.286 135.446 48.6377 135.746C49.9893 136.045 51.3868 136.074 52.7496 135.83C55.3317 135.368 57.6471 133.955 59.2397 131.871C60.8323 129.787 61.5867 127.181 61.3544 124.568C61.0974 121.677 60.8788 119.282 60.8788 119.282C60.8788 119.282 69.0462 117.183 68.341 108.895C67.9966 104.882 66.6244 96.6767 65.2905 89.2636C64.5989 85.4268 62.4882 81.991 59.3783 79.6399C56.2684 77.2887 52.3873 76.1946 48.5073 76.5751L47.7092 76.6516C45.6759 76.9703 43.727 77.693 41.9776 78.7771C40.2281 79.8612 38.7136 81.2848 37.5232 82.9638C36.3329 84.6428 35.491 86.5431 35.0471 88.5528C34.6032 90.5625 34.5663 92.6407 34.9386 94.6649Z" fill="#B78876"/>
<path d="M63.5472 94.6156C63.5828 94.9241 63.4954 95.2341 63.3041 95.4787C63.1128 95.7232 62.8328 95.8826 62.5249 95.9222C62.3756 95.9495 62.2224 95.9466 62.0744 95.9135C61.9263 95.8804 61.7864 95.8179 61.663 95.7297C61.5395 95.6414 61.4351 95.5293 61.3559 95.3999C61.2767 95.2705 61.2243 95.1265 61.2019 94.9764C61.1663 94.668 61.2536 94.3579 61.4449 94.1134C61.6363 93.8689 61.9162 93.7095 62.2242 93.6699C62.3734 93.6425 62.5266 93.6455 62.6747 93.6786C62.8228 93.7117 62.9627 93.7742 63.0861 93.8624C63.2095 93.9506 63.3139 94.0628 63.3931 94.1922C63.4723 94.3216 63.5247 94.4656 63.5472 94.6156Z" fill="#263238"/>
<path d="M63.908 93.4841C63.7768 93.6481 62.8147 93.0741 61.5409 93.1998C60.2671 93.3256 59.3924 94.0581 59.2394 93.916C59.1683 93.8504 59.2886 93.5607 59.6658 93.2217C60.1806 92.7847 60.8189 92.5191 61.4917 92.4618C62.1538 92.3958 62.8198 92.5413 63.3942 92.8773C63.8151 93.1397 63.9736 93.4076 63.908 93.4841Z" fill="#263238"/>
<path d="M51.082 96.0752C51.1132 96.383 51.0233 96.6909 50.8315 96.9338C50.6397 97.1766 50.361 97.3353 50.0543 97.3763C49.9051 97.4028 49.7522 97.3993 49.6044 97.3659C49.4566 97.3325 49.317 97.2699 49.1938 97.1818C49.0705 97.0937 48.9661 96.9819 48.8867 96.8528C48.8073 96.7238 48.7544 96.5802 48.7313 96.4305C48.6986 96.1226 48.787 95.814 48.9778 95.5701C49.1686 95.3263 49.4468 95.1662 49.7536 95.1239C49.9035 95.0974 50.0571 95.1011 50.2056 95.1348C50.354 95.1684 50.4942 95.2314 50.618 95.32C50.7417 95.4087 50.8465 95.5211 50.9262 95.6508C51.0059 95.7805 51.0589 95.9247 51.082 96.0752Z" fill="#263238"/>
<path d="M51.4051 94.9377C51.2739 95.1072 50.3117 94.5332 49.038 94.6589C47.7642 94.7847 46.895 95.5172 46.7364 95.3751C46.6654 95.3095 46.7856 95.0197 47.1629 94.6808C47.6788 94.2457 48.3164 93.9803 48.9888 93.9209C49.6511 93.8522 50.3179 93.9978 50.8912 94.3364C51.3122 94.5988 51.4489 94.8667 51.4051 94.9377Z" fill="#263238"/>
<path d="M56.9534 103.942C56.9534 103.865 57.7187 103.652 58.9816 103.363C59.3041 103.297 59.6103 103.204 59.6431 102.974C59.6339 102.637 59.5255 102.31 59.3315 102.034L58.1233 99.6505C56.445 96.2502 55.1985 93.4457 55.3352 93.3801C55.4719 93.3145 56.9424 96.0151 58.6153 99.3936L59.7797 101.799C60.022 102.171 60.1247 102.616 60.0695 103.056C60.0366 103.179 59.9755 103.293 59.8911 103.387C59.8066 103.482 59.7011 103.556 59.5829 103.603C59.4063 103.668 59.2229 103.712 59.0362 103.734C58.353 103.888 57.6535 103.958 56.9534 103.942Z" fill="#263238"/>
<path d="M51.2462 89.9085C51.1532 90.2693 49.8685 90.2256 48.3925 90.5536C46.9164 90.8816 45.7411 91.4064 45.5169 91.1002C45.413 90.9636 45.588 90.6137 46.0636 90.231C46.6708 89.7514 47.3825 89.4218 48.141 89.2689C48.8975 89.1023 49.6829 89.1191 50.4316 89.3181C50.9838 89.4985 51.2844 89.7445 51.2462 89.9085Z" fill="#263238"/>
<path d="M63.0812 89.8374C62.8844 90.149 61.9878 89.9358 60.8945 90.0233C59.8011 90.1108 58.9647 90.4114 58.7077 90.1272C58.6039 89.9905 58.7077 89.6844 59.0795 89.3728C59.5692 88.9856 60.1672 88.7602 60.7906 88.7277C61.4117 88.6769 62.0331 88.8223 62.5673 89.1431C63.0101 89.4056 63.1632 89.6898 63.0812 89.8374Z" fill="#263238"/>
<path d="M43.0509 84.6931L43.0072 84.7368C41.7889 85.906 41.0683 87.4998 40.9954 89.1868C40.9954 89.2469 40.9954 89.3071 40.9954 89.3563C40.9024 91.7562 41.1922 94.1562 41.0774 96.5506C40.9626 98.9451 40.3776 101.427 38.7868 103.226C38.1362 103.964 36.9117 104.549 36.2447 103.822C36.0126 103.515 35.8723 103.149 35.8401 102.766C34.8452 97.1028 32.7897 92.1881 32.2211 86.2129C32.1395 85.4138 32.2503 84.6069 32.5442 83.8593C32.838 83.1118 33.3065 82.4455 33.9104 81.9159C35.0693 80.8936 36.5071 79.8167 37.9613 80.3415C39.4155 80.8663 41.4655 83.2881 42.6518 84.2831" fill="#263238"/>
<path d="M38.0987 98.141C37.9511 98.0972 32.2383 97.0148 32.9709 102.662C33.7034 108.309 39.2249 106.412 39.214 106.248C39.203 106.084 38.0987 98.141 38.0987 98.141Z" fill="#B78876"/>
<path d="M37.2344 104.335C37.2344 104.335 37.1469 104.417 36.9884 104.51C36.8798 104.577 36.7592 104.621 36.6335 104.641C36.5078 104.66 36.3795 104.655 36.2558 104.625C35.6326 104.483 35.0039 103.597 34.8454 102.586C34.7678 102.102 34.7995 101.607 34.9383 101.137C34.9694 100.954 35.0443 100.781 35.1566 100.632C35.2689 100.484 35.4153 100.364 35.5834 100.284C35.6925 100.242 35.813 100.238 35.9246 100.274C36.0362 100.31 36.1319 100.383 36.1957 100.481C36.2941 100.629 36.2722 100.749 36.305 100.755C36.3378 100.76 36.4143 100.645 36.3378 100.416C36.2884 100.279 36.1939 100.163 36.0699 100.088C35.9032 99.9959 35.7079 99.9705 35.5233 100.017C35.2968 100.093 35.0935 100.226 34.9328 100.403C34.7721 100.58 34.6592 100.795 34.6048 101.028C34.4272 101.556 34.3803 102.118 34.4682 102.668C34.654 103.8 35.3756 104.789 36.223 104.92C36.3804 104.946 36.5416 104.935 36.6942 104.889C36.8468 104.842 36.9867 104.761 37.1032 104.653C37.2344 104.472 37.2344 104.341 37.2344 104.335Z" fill="#7C5142"/>
<path d="M37.8475 81.238C36.2074 79.1059 39.739 75.4759 42.4505 74.3224C45.1621 73.1689 48.9834 74.1694 51.859 74.8199C53.6685 75.2354 55.4999 75.875 57.3258 75.6181C58.5501 75.3734 59.7312 74.9478 60.8301 74.3552C61.9278 73.7528 63.137 73.3807 64.3835 73.2619C65.0078 73.2143 65.6333 73.3384 66.1922 73.6208C66.751 73.9031 67.2221 74.3329 67.5543 74.8636C68.1338 75.957 67.6144 77.5971 66.4008 77.8977C66.774 77.6409 67.2041 77.4785 67.6539 77.4245C68.1038 77.3706 68.5601 77.4266 68.9835 77.5878C69.4069 77.7491 69.7849 78.0107 70.0849 78.3503C70.3849 78.6898 70.598 79.0971 70.7059 79.5372C70.8138 79.9772 70.8132 80.4369 70.7043 80.8767C70.5953 81.3165 70.3812 81.7233 70.0804 82.0621C69.7796 82.4009 69.401 82.6616 68.9771 82.8218C68.5533 82.982 68.0969 83.037 67.6472 82.9819C68.3962 82.2931 69.7301 83.1842 69.7301 84.1955C69.7301 85.2069 68.8827 86.0379 67.9971 86.5353C65.7338 87.8037 62.9457 87.7381 60.42 87.1531C57.8944 86.5681 55.4999 85.513 52.9851 84.857C50.4704 84.201 46.2555 83.0202 43.9047 84.119C42.1772 84.9226 41.1385 87.2023 40.0779 86.8524C39.5761 86.6441 39.1301 86.3209 38.776 85.9088C38.4218 85.4968 38.1693 85.0073 38.0388 84.4798C37.7946 83.4194 37.7244 82.3264 37.8311 81.2434" fill="#263238"/>
<path d="M38.1702 99.1094C38.2406 102.112 38.5846 105.102 39.1979 108.042C39.8108 110.993 41.2106 113.722 43.2489 115.942C45.9823 118.746 49.5685 121.409 53.45 122.07C57.6868 122.77 62.8693 121.884 66.3189 119.337C67.959 118.129 69.1453 115.51 68.6369 113.531C69.3312 113.203 69.9255 112.696 70.358 112.062C70.7905 111.427 71.0456 110.689 71.0969 109.923C71.1844 108.392 70.2496 106.479 69.0414 106.276C69.9489 106.123 70.2113 104.68 69.8669 103.866C69.5225 103.051 68.3253 102.805 67.4178 102.98C66.5208 103.215 65.6865 103.644 64.9741 104.237C64.2658 104.831 63.4665 105.308 62.6069 105.648C59.6767 106.599 56.7082 104.008 53.6304 104.133C50.8478 104.243 48.3713 106.555 45.6105 106.167C44.8442 106.021 44.1171 105.715 43.4766 105.27C42.8361 104.824 42.2966 104.249 41.8931 103.581C41.0403 102.275 41.412 97.4475 41.0785 95.9277" fill="#263238"/>
<g opacity="0.6">
<path opacity="0.6" d="M60.5016 112.126C60.2712 112.072 60.0447 112.003 59.8237 111.918C59.2883 111.765 58.7248 111.737 58.1769 111.837C57.6289 111.936 57.1112 112.16 56.6639 112.492C56.314 112.744 56.1172 112.946 56.1172 112.919C56.1172 112.891 56.2265 112.651 56.56 112.372C57.009 111.977 57.5576 111.712 58.1463 111.606C58.7351 111.5 59.3416 111.557 59.9002 111.771C60.3048 111.907 60.518 112.099 60.5016 112.126Z" fill="#455A64"/>
</g>
<path d="M54.5147 105.844C54.7224 105.812 54.8591 107.195 56.1547 108.031C57.4504 108.867 58.8881 108.605 58.9209 108.796C58.9483 108.878 58.6203 109.097 57.997 109.174C57.1894 109.268 56.3743 109.075 55.6955 108.627C55.0454 108.193 54.5903 107.522 54.4272 106.757C54.3015 106.2 54.4217 105.844 54.5147 105.844Z" fill="white"/>
<path d="M50.4043 121.146C50.5279 121.174 50.6474 121.218 50.7596 121.277C50.9947 121.364 51.3391 121.485 51.7929 121.61C53.0787 121.958 54.3985 122.165 55.729 122.228C56.6402 122.282 57.5541 122.263 58.4624 122.173C59.5099 122.08 60.545 121.878 61.5512 121.572C62.6621 121.24 63.7218 120.756 64.7001 120.134C65.7639 119.492 66.6924 118.649 67.4335 117.652C68.314 116.478 68.7058 115.009 68.5269 113.552V113.437L68.6253 113.394C69.3053 113.078 69.894 112.594 70.3364 111.989C70.551 111.703 70.7343 111.395 70.8831 111.07C71.0137 110.755 71.0948 110.421 71.1236 110.081C71.1831 109.465 71.0952 108.844 70.867 108.269C70.6389 107.693 70.2771 107.181 69.8116 106.773L69.7296 106.708L69.7952 106.626C70.0417 106.313 70.2027 105.941 70.2621 105.547C70.3215 105.153 70.2774 104.751 70.1341 104.379C70.0217 104.097 69.8519 103.841 69.6354 103.629C69.419 103.416 69.1606 103.251 68.8768 103.143C68.5144 102.999 68.1223 102.944 67.7342 102.985C67.4663 103.018 67.3351 103.067 67.3296 103.05C67.4558 102.99 67.5904 102.95 67.7287 102.93C68.248 102.846 68.7806 102.936 69.2434 103.186C69.7061 103.436 70.0732 103.833 70.2872 104.313C70.4491 104.714 70.504 105.15 70.4464 105.578C70.3889 106.007 70.221 106.413 69.9592 106.757V106.609C70.4586 107.036 70.8491 107.575 71.0982 108.183C71.3473 108.79 71.4478 109.448 71.3915 110.103C71.3635 110.478 71.2768 110.847 71.1346 111.196C70.976 111.539 70.7837 111.865 70.5605 112.169C70.0951 112.818 69.4699 113.336 68.7455 113.672L68.8275 113.508C69.047 115.039 68.6541 116.595 67.7342 117.838C66.9711 118.865 66.0147 119.732 64.9188 120.391C63.9207 121.026 62.8362 121.514 61.6988 121.84C60.6749 122.148 59.6211 122.345 58.5554 122.43C57.6293 122.504 56.6988 122.504 55.7727 122.43C54.4318 122.346 53.1053 122.106 51.8202 121.714C51.4718 121.606 51.1304 121.476 50.7979 121.326C50.6606 121.28 50.5287 121.22 50.4043 121.146Z" fill="#455A64"/>
<path d="M25.6238 106.719C25.5191 106.691 25.4208 106.642 25.334 106.577C25.0877 106.393 24.8983 106.143 24.7874 105.856C24.6026 105.394 24.5626 104.886 24.6725 104.401C24.845 103.759 25.2305 103.194 25.7659 102.8C26.3949 102.325 27.0964 101.956 27.8433 101.706C28.6803 101.443 29.4896 101.099 30.2597 100.678C31.07 100.165 31.7049 99.418 32.0801 98.5354C32.4917 97.5856 32.7109 96.5637 32.7252 95.5287C32.7689 93.3911 32.2769 91.3629 32.2223 89.4769C32.1676 87.5908 32.4956 85.8305 33.3539 84.6496C33.9967 83.703 34.9727 83.0335 36.0873 82.7745C36.3896 82.7143 36.6991 82.6995 37.0057 82.7308C37.1127 82.7432 37.2187 82.7633 37.3228 82.7909C36.9178 82.7716 36.5119 82.8028 36.1146 82.8839C35.0403 83.1676 34.1081 83.8371 33.496 84.7644C32.6979 85.9125 32.3644 87.6181 32.4628 89.4659C32.5612 91.3137 33.0095 93.3419 33.0095 95.5396C32.9867 96.614 32.7507 97.6732 32.3152 98.6557C31.9133 99.5869 31.2361 100.373 30.3745 100.908C29.5834 101.336 28.7497 101.681 27.887 101.936C27.1614 102.165 26.4768 102.508 25.8589 102.953C25.3512 103.312 24.9795 103.832 24.8038 104.429C24.6846 104.883 24.7056 105.364 24.8639 105.806C25.008 106.187 25.2755 106.508 25.6238 106.719Z" fill="#455A64"/>
<path d="M66.6079 77.8047C66.6854 77.7576 66.7679 77.7191 66.8539 77.6899C66.9577 77.6436 67.0657 77.607 67.1764 77.5806C67.3248 77.5368 67.4766 77.5058 67.6302 77.4877C68.1403 77.4321 68.6564 77.4933 69.1395 77.6666C69.6225 77.8399 70.0598 78.1209 70.4182 78.4881C70.7767 78.9689 71.0362 79.5161 71.1817 80.0979C71.3271 80.6797 71.3557 81.2846 71.2656 81.8775C71.1583 82.6129 70.9047 83.3194 70.5197 83.9551C70.1347 84.5908 69.6262 85.1428 69.0242 85.5786C67.6381 86.5878 65.9816 87.159 64.268 87.2186C62.4104 87.2918 60.5521 87.0929 58.752 86.6282C55.8926 85.9264 53.1795 84.7253 50.7376 83.0802C49.6938 82.3627 48.5973 81.7249 47.4575 81.1723C46.4592 80.7104 45.3844 80.4361 44.2868 80.3632C42.6879 80.2528 41.0871 80.55 39.6345 81.227C38.6122 81.7081 38.1256 82.1235 38.1038 82.0907C38.5527 81.7042 39.0509 81.3789 39.5853 81.1231C41.0465 80.4005 42.6701 80.069 44.2977 80.161C45.4308 80.2191 46.5432 80.4879 47.5778 80.9536C48.734 81.5049 49.8469 82.1427 50.9071 82.8616C53.3316 84.4741 56.0173 85.6542 58.8449 86.3494C60.6173 86.8146 62.4476 87.0208 64.279 86.9617C65.9403 86.9035 67.5474 86.3558 68.8985 85.3873C69.4784 84.9725 69.9703 84.4468 70.3457 83.8406C70.721 83.2344 70.9724 82.5597 71.0852 81.8557C71.1815 81.2858 71.164 80.7026 71.0336 80.1396C70.9031 79.5766 70.6624 79.045 70.3253 78.5756C69.9862 78.2201 69.5726 77.9441 69.1141 77.7673C68.6557 77.5906 68.1639 77.5175 67.6739 77.5533C67.3126 77.6095 66.9562 77.6936 66.6079 77.8047Z" fill="#455A64"/>
<path d="M63.7109 72.9883C63.7104 73.4186 63.623 73.8444 63.454 74.2402C62.9799 75.3279 62.1565 76.2263 61.1142 76.7932C60.4104 77.2027 59.6379 77.4806 58.8345 77.6132C57.9136 77.7474 56.9782 77.7474 56.0573 77.6132C54.1057 77.3672 52.0884 76.6019 49.9673 75.9404C47.8461 75.2789 45.7086 74.8853 43.828 75.2898C42.1616 75.6538 40.6524 76.5337 39.5147 77.8046C38.7397 78.6522 38.1462 79.6494 37.7708 80.7348C37.5193 81.5111 37.4701 81.9648 37.4373 81.9594C37.4239 81.8504 37.4239 81.7403 37.4373 81.6314C37.481 81.3169 37.5487 81.0062 37.6396 80.702C37.9792 79.5791 38.5593 78.5437 39.3397 77.6679C40.4886 76.3406 42.0331 75.4169 43.746 75.0329C45.6922 74.601 47.8899 75.0001 50.0219 75.667C52.154 76.334 54.1549 77.0993 56.0628 77.3508C56.9601 77.4818 57.8716 77.4818 58.7689 77.3508C59.5484 77.2329 60.3002 76.9755 60.9884 76.5909C62.0073 76.0565 62.8261 75.207 63.3228 74.1691C63.4834 73.7865 63.6132 73.3916 63.7109 72.9883Z" fill="#455A64"/>
<path d="M149.084 25.464C149.013 25.5242 144.6 23.0258 139.222 19.8824C133.844 16.739 129.549 14.1149 129.628 14.0766C129.707 14.0383 134.111 16.5148 139.489 19.6637C144.867 22.8126 149.162 25.4039 149.084 25.464Z" fill="#263238"/>
<path d="M171.476 21.7198C171.366 21.7198 170.919 16.8652 170.487 10.8681C170.055 4.87096 169.788 0.00547145 169.898 4.60755e-06C170.008 -0.00546223 170.455 4.85456 170.895 10.8571C171.335 16.8597 171.586 21.7198 171.476 21.7198Z" fill="#263238"/>
<path d="M157.217 18.2483C157.107 18.2483 155.733 15.5149 154.139 12.0544C152.546 8.59387 151.344 5.80032 151.454 5.77845C151.564 5.75658 152.938 8.51187 154.532 11.9669C156.126 15.422 157.319 18.2264 157.217 18.2483Z" fill="#263238"/>
<path d="M144.506 30.5922C142.438 30.0858 140.417 29.4925 138.452 28.8155C136.43 28.222 134.464 27.5409 132.564 26.7764C134.631 27.2828 136.653 27.8761 138.617 28.5531C140.638 29.1479 142.605 29.8289 144.506 30.5922Z" fill="#263238"/>
<path d="M123.866 24.3113C123.866 24.3878 123.199 24.3988 122.406 24.3113C121.613 24.2238 120.985 24.1254 121 24.0489C121.016 23.9723 121.668 23.9614 122.453 24.0489C123.238 24.1363 123.866 24.2347 123.866 24.3113Z" fill="#263238"/>
<path d="M151.965 2.24735C151.848 2.24735 151.761 1.80454 151.761 1.25239C151.761 0.700235 151.848 0.251953 151.965 0.251953C152.083 0.251953 152.17 0.700235 152.17 1.25239C152.17 1.80454 152.075 2.24735 151.965 2.24735Z" fill="#263238"/>
<path d="M199.238 9.96646C199.325 10.0211 195.697 12.9131 191.152 16.4283C186.606 19.9434 182.853 22.7534 182.751 22.6987C182.649 22.6441 186.292 19.7576 190.837 16.2369C195.383 12.7163 199.16 9.91726 199.238 9.96646Z" fill="#263238"/>
<path d="M205.01 5.99192C205.089 6.04659 204.673 6.42927 204.076 6.84475C203.479 7.26023 202.937 7.5445 202.859 7.48984C202.78 7.43517 203.196 7.05249 203.793 6.64248C204.39 6.23247 204.932 5.91539 205.01 5.99192Z" fill="#263238"/>
<path d="M219 19.9863C218.663 20.1552 218.306 20.3034 217.932 20.4291C217.233 20.697 216.213 21.0742 214.941 21.5225C212.389 22.4191 208.817 23.589 204.797 24.7534C200.777 25.9178 197.063 26.8472 194.347 27.4868C192.996 27.7984 191.897 28.0335 191.128 28.1921C190.738 28.2905 190.336 28.3619 189.927 28.4053C190.298 28.2773 190.684 28.1713 191.081 28.0882L194.221 27.2955C196.906 26.6231 200.589 25.6554 204.608 24.5074C208.628 23.3594 212.201 22.2059 214.815 21.3585L217.862 20.3526C218.228 20.2111 218.608 20.0887 219 19.9863Z" fill="#263238"/>
<path d="M207.523 33.4463C206.852 33.6543 206.152 33.8137 205.435 33.9219C204.131 34.1734 202.294 34.4686 200.269 34.7146C198.243 34.9606 196.343 35.0973 195.016 35.1629C194.289 35.2273 193.555 35.2365 192.825 35.1902C193.538 35.0758 194.263 34.999 194.992 34.9606C196.327 34.8458 198.172 34.6709 200.198 34.4139C202.223 34.157 204.053 33.911 205.372 33.7142C206.076 33.5789 206.796 33.4893 207.523 33.4463Z" fill="#263238"/>
<path d="M217.956 32.1011C216.461 32.2907 214.929 32.2907 213.434 32.1011C214.929 31.9116 216.461 31.9116 217.956 32.1011Z" fill="#263238"/>
<path d="M98.5629 179C99.3323 179.131 100.068 179.415 100.725 179.836C101.382 180.257 101.949 180.805 102.39 181.449C103.261 182.75 103.822 184.233 104.03 185.784C104.527 188.758 103.724 192.137 102.619 194.947C99.5852 193.52 97.967 189.988 97.2618 188.141C96.1684 185.227 95.8896 179.273 98.5356 179" fill="#B55B52"/>
<path d="M107.119 199.151C106.662 198.406 106.411 197.553 106.391 196.679C106.371 195.805 106.582 194.942 107.004 194.176C107.437 193.418 108.017 192.754 108.71 192.222C109.402 191.691 110.194 191.303 111.039 191.082C111.416 190.938 111.821 190.878 112.224 190.906C112.627 190.935 113.019 191.051 113.373 191.246C113.668 191.482 113.894 191.793 114.028 192.145C114.163 192.498 114.201 192.88 114.139 193.252C114.003 193.996 113.675 194.692 113.187 195.27C111.602 197.314 109.699 198.998 107.119 199.151Z" fill="#B55B52"/>
<path d="M106.354 208.576C106.291 208.374 106.256 208.164 106.25 207.953C106.212 207.548 106.157 206.958 106.119 206.231C105.981 204.328 106.097 202.416 106.464 200.545C106.856 198.655 107.749 196.904 109.049 195.477C109.45 195.058 109.902 194.691 110.394 194.384C110.559 194.258 110.744 194.162 110.941 194.1C110.319 194.566 109.738 195.084 109.202 195.647C107.99 197.076 107.155 198.786 106.775 200.622C106.413 202.468 106.267 204.35 106.338 206.231C106.39 207.011 106.396 207.794 106.354 208.576Z" fill="#263238"/>
<path d="M99.2847 183.532C99.4379 183.846 99.5659 184.171 99.6673 184.505C99.8915 185.139 100.214 186.058 100.575 187.2C101.324 189.486 102.302 192.667 103.308 196.193C104.314 199.72 105.123 202.945 105.681 205.285C105.96 206.455 106.173 207.4 106.31 208.062C106.401 208.399 106.463 208.742 106.495 209.09C106.362 208.768 106.258 208.435 106.184 208.095C105.992 207.384 105.746 206.455 105.451 205.361C104.834 203.038 103.975 199.829 102.98 196.303C101.985 192.777 101.045 189.589 100.356 187.288L99.5525 184.555C99.4351 184.222 99.3455 183.88 99.2847 183.532Z" fill="#263238"/>
<path d="M103.079 201.961C102.316 200.289 101.167 198.822 99.7257 197.682C98.2848 196.541 96.5936 195.759 94.7913 195.401C93.8729 195.226 92.7412 195.247 92.2273 196.035C91.7135 196.822 92.1563 197.872 92.7084 198.626C93.8866 200.191 95.5023 201.371 97.3512 202.017C99.2001 202.663 101.199 202.746 103.095 202.256" fill="#B55B52"/>
<path d="M95.7977 198.019C96.0021 198.011 96.2065 198.033 96.4045 198.085C96.6393 198.117 96.8713 198.166 97.0988 198.232C97.4061 198.304 97.7091 198.394 98.0063 198.5C98.783 198.772 99.5303 199.122 100.237 199.544C101.981 200.576 103.457 202.006 104.545 203.716C104.982 204.406 105.348 205.138 105.638 205.902C105.756 206.195 105.857 206.494 105.939 206.799C106.014 207.026 106.073 207.258 106.114 207.493C106.171 207.688 106.197 207.891 106.19 208.094C106.13 208.094 105.961 207.258 105.419 205.995C105.098 205.257 104.712 204.549 104.266 203.88C103.714 203.064 103.082 202.306 102.38 201.616C101.668 200.937 100.892 200.329 100.062 199.801C99.377 199.375 98.6563 199.009 97.9079 198.708C96.6396 198.227 95.7868 198.085 95.7977 198.019Z" fill="#263238"/>
<path d="M198.881 157C199.923 157.218 200.918 157.691 201.807 158.391C202.697 159.092 203.463 160.005 204.06 161.077C205.239 163.242 205.998 165.711 206.28 168.294C206.953 173.245 205.865 178.869 204.371 183.546C200.265 181.171 198.075 175.292 197.121 172.216C195.641 167.366 195.264 157.455 198.844 157" fill="#B55B52"/>
<path d="M210.461 190.544C209.843 189.304 209.503 187.884 209.475 186.429C209.448 184.975 209.735 183.537 210.306 182.263C210.891 181 211.676 179.895 212.614 179.01C213.551 178.126 214.623 177.48 215.766 177.112C216.277 176.872 216.824 176.772 217.37 176.819C217.915 176.866 218.446 177.059 218.925 177.385C219.323 177.778 219.63 178.294 219.812 178.882C219.994 179.469 220.045 180.105 219.961 180.725C219.777 181.963 219.333 183.121 218.673 184.083C216.528 187.486 213.953 190.289 210.461 190.544Z" fill="#B55B52"/>
<path d="M209.425 206.234C209.34 205.898 209.292 205.549 209.285 205.197C209.233 204.523 209.159 203.54 209.107 202.33C208.92 199.164 209.077 195.981 209.573 192.865C210.104 189.718 211.313 186.805 213.073 184.429C213.615 183.732 214.227 183.12 214.893 182.609C215.115 182.4 215.365 182.239 215.632 182.136C214.791 182.912 214.004 183.774 213.28 184.711C211.639 187.09 210.509 189.938 209.995 192.993C209.505 196.067 209.307 199.2 209.403 202.33C209.474 203.63 209.482 204.933 209.425 206.234Z" fill="#263238"/>
<path d="M199.858 164.545C200.065 165.067 200.238 165.609 200.376 166.165C200.679 167.22 201.115 168.749 201.604 170.651C202.617 174.455 203.942 179.752 205.303 185.622C206.664 191.492 207.759 196.861 208.514 200.756C208.891 202.704 209.179 204.278 209.364 205.379C209.488 205.94 209.572 206.512 209.616 207.09C209.435 206.555 209.294 206 209.194 205.434C208.935 204.251 208.602 202.704 208.203 200.883C207.367 197.016 206.205 191.674 204.859 185.804C203.512 179.934 202.24 174.628 201.308 170.797L200.22 166.247C200.061 165.693 199.94 165.124 199.858 164.545Z" fill="#263238"/>
<path d="M204.993 195.222C203.961 192.439 202.405 189.998 200.455 188.099C198.505 186.201 196.216 184.899 193.777 184.302C192.535 184.01 191.003 184.047 190.308 185.357C189.612 186.668 190.211 188.415 190.959 189.671C192.553 192.275 194.74 194.24 197.242 195.315C199.744 196.391 202.449 196.53 205.015 195.714" fill="#B55B52"/>
<path d="M195.14 188.661C195.416 188.648 195.693 188.685 195.961 188.77C196.279 188.824 196.593 188.906 196.901 189.016C197.316 189.136 197.726 189.285 198.129 189.462C199.18 189.915 200.191 190.497 201.147 191.2C203.508 192.918 205.505 195.297 206.977 198.144C207.568 199.293 208.064 200.512 208.457 201.784C208.617 202.271 208.752 202.769 208.864 203.276C208.966 203.654 209.045 204.04 209.1 204.432C209.178 204.757 209.213 205.095 209.204 205.433C209.123 205.433 208.893 204.041 208.161 201.938C207.726 200.71 207.203 199.532 206.6 198.417C205.853 197.06 204.998 195.797 204.047 194.649C203.084 193.518 202.034 192.506 200.91 191.628C199.984 190.918 199.008 190.309 197.996 189.807C196.279 189.007 195.125 188.77 195.14 188.661Z" fill="#263238"/>
</svg>
